[
    {
        "id": 1010201,
        "seq": 10102010,
        "bondsGroupId": 10102,
        "assetbundleName": "honorname_0102_01",
        "name": "Leo/needのはじまり",
        "description": "星乃一歌と天馬咲希のキズナランクを5まで上げよう。"
    },
    {
        "id": 1010202,
        "seq": 10102020,
        "bondsGroupId": 10102,
        "assetbundleName": "honorname_0102_02",
        "name": "スマイルフレンド",
        "description": "星乃一歌と天馬咲希のキズナランクを26まで上げよう。"
    },
    {
        "id": 1010203,
        "seq": 10102030,
        "bondsGroupId": 10102,
        "assetbundleName": "honorname_0102_03",
        "name": "言葉とメロディ",
        "description": "星乃一歌と天馬咲希のキズナランクを46まで上げよう。"
    },
    {
        "id": 1010301,
        "seq": 10103010,
        "bondsGroupId": 10103,
        "assetbundleName": "honorname_0103_01",
        "name": "リンゴ同盟",
        "description": "星乃一歌と望月穂波のキズナランクを5まで上げよう。"
    },
    {
        "id": 1010302,
        "seq": 10103020,
        "bondsGroupId": 10103,
        "assetbundleName": "honorname_0103_02",
        "name": "秘密の買い食い",
        "description": "星乃一歌と望月穂波のキズナランクを26まで上げよう。"
    },
    {
        "id": 1010303,
        "seq": 10103030,
        "bondsGroupId": 10103,
        "assetbundleName": "honorname_0103_03",
        "name": "揺れない輝き",
        "description": "星乃一歌と望月穂波のキズナランクを46まで上げよう。"
    },
    {
        "id": 1010401,
        "seq": 10104010,
        "bondsGroupId": 10104,
        "assetbundleName": "honorname_0104_01",
        "name": "飴がいっぱいほしい",
        "description": "星乃一歌と日野森志歩のキズナランクを5まで上げよう。"
    },
    {
        "id": 1010402,
        "seq": 10104020,
        "bondsGroupId": 10104,
        "assetbundleName": "honorname_0104_02",
        "name": "覚悟は本物",
        "description": "星乃一歌と日野森志歩のキズナランクを26まで上げよう。"
    },
    {
        "id": 1010403,
        "seq": 10104030,
        "bondsGroupId": 10104,
        "assetbundleName": "honorname_0104_03",
        "name": "同じ夢を",
        "description": "星乃一歌と日野森志歩のキズナランクを46まで上げよう。"
    },
    {
        "id": 1010501,
        "seq": 10105010,
        "bondsGroupId": 10105,
        "assetbundleName": "honorname_0105_01",
        "name": "ミクファンなふたり",
        "description": "星乃一歌と花里みのりのキズナランクを5まで上げよう。"
    },
    {
        "id": 1010502,
        "seq": 10105020,
        "bondsGroupId": 10105,
        "assetbundleName": "honorname_0105_02",
        "name": "推しは生きがい",
        "description": "星乃一歌と花里みのりのキズナランクを26まで上げよう。"
    },
    {
        "id": 1010503,
        "seq": 10105030,
        "bondsGroupId": 10105,
        "assetbundleName": "honorname_0105_03",
        "name": "たとえ泥くさくても",
        "description": "星乃一歌と花里みのりのキズナランクを46まで上げよう。"
    },
    {
        "id": 1010601,
        "seq": 10106010,
        "bondsGroupId": 10106,
        "assetbundleName": "honorname_0106_01",
        "name": "最初は30点でも大丈夫",
        "description": "星乃一歌と桐谷遥のキズナランクを5まで上げよう。"
    },
    {
        "id": 1010602,
        "seq": 10106020,
        "bondsGroupId": 10106,
        "assetbundleName": "honorname_0106_02",
        "name": "美味しいと健康は紙一重？",
        "description": "星乃一歌と桐谷遥のキズナランクを26まで上げよう。"
    },
    {
        "id": 1010603,
        "seq": 10106030,
        "bondsGroupId": 10106,
        "assetbundleName": "honorname_0106_03",
        "name": "隣のプロフェッショナル",
        "description": "星乃一歌と桐谷遥のキズナランクを46まで上げよう。"
    },
    {
        "id": 1010801,
        "seq": 10108010,
        "bondsGroupId": 10108,
        "assetbundleName": "honorname_0108_01",
        "name": "クールに見えて？",
        "description": "星乃一歌と日野森雫のキズナランクを5まで上げよう。"
    },
    {
        "id": 1010802,
        "seq": 10108020,
        "bondsGroupId": 10108,
        "assetbundleName": "honorname_0108_02",
        "name": "意外と器用",
        "description": "星乃一歌と日野森雫のキズナランクを26まで上げよう。"
    },
    {
        "id": 1010803,
        "seq": 10108030,
        "bondsGroupId": 10108,
        "assetbundleName": "honorname_0108_03",
        "name": "好きなものにまっしぐら",
        "description": "星乃一歌と日野森雫のキズナランクを46まで上げよう。"
    },
    {
        "id": 1011301,
        "seq": 10113010,
        "bondsGroupId": 10113,
        "assetbundleName": "honorname_0113_01",
        "name": "幼馴染みと兄",
        "description": "星乃一歌と天馬司のキズナランクを5まで上げよう。"
    },
    {
        "id": 1011302,
        "seq": 10113020,
        "bondsGroupId": 10113,
        "assetbundleName": "honorname_0113_02",
        "name": "まっすぐでブレない",
        "description": "星乃一歌と天馬司のキズナランクを26まで上げよう。"
    },
    {
        "id": 1011303,
        "seq": 10113030,
        "bondsGroupId": 10113,
        "assetbundleName": "honorname_0113_03",
        "name": "託し託され",
        "description": "星乃一歌と天馬司のキズナランクを46まで上げよう。"
    },
    {
        "id": 1011801,
        "seq": 10118010,
        "bondsGroupId": 10118,
        "assetbundleName": "honorname_0118_01",
        "name": "私達、学級委員",
        "description": "星乃一歌と朝比奈まふゆのキズナランクを5まで上げよう。"
    },
    {
        "id": 1011802,
        "seq": 10118020,
        "bondsGroupId": 10118,
        "assetbundleName": "honorname_0118_02",
        "name": "心に、響く……",
        "description": "星乃一歌と朝比奈まふゆのキズナランクを26まで上げよう。"
    },
    {
        "id": 1011803,
        "seq": 10118030,
        "bondsGroupId": 10118,
        "assetbundleName": "honorname_0118_03",
        "name": "言葉で想いを紡ぐ者",
        "description": "星乃一歌と朝比奈まふゆのキズナランクを46まで上げよう。"
    },
    {
        "id": 1012101,
        "seq": 10121010,
        "bondsGroupId": 10121,
        "assetbundleName": "honorname_0121_01",
        "name": "ツインギター",
        "description": "星乃一歌と初音ミクのキズナランクを5まで上げよう。"
    },
    {
        "id": 1012102,
        "seq": 10121020,
        "bondsGroupId": 10121,
        "assetbundleName": "honorname_0121_02",
        "name": "星空に響く音",
        "description": "星乃一歌と初音ミクのキズナランクを26まで上げよう。"
    },
    {
        "id": 1012103,
        "seq": 10121030,
        "bondsGroupId": 10121,
        "assetbundleName": "honorname_0121_03",
        "name": "想いを歌って",
        "description": "星乃一歌と初音ミクのキズナランクを46まで上げよう。"
    },
    {
        "id": 1012401,
        "seq": 10124010,
        "bondsGroupId": 10124,
        "assetbundleName": "honorname_0124_01",
        "name": "頼れる先輩",
        "description": "星乃一歌と巡音ルカのキズナランクを5まで上げよう。"
    },
    {
        "id": 1012402,
        "seq": 10124020,
        "bondsGroupId": 10124,
        "assetbundleName": "honorname_0124_02",
        "name": "音には正解がない",
        "description": "星乃一歌と巡音ルカのキズナランクを26まで上げよう。"
    },
    {
        "id": 1012403,
        "seq": 10124030,
        "bondsGroupId": 10124,
        "assetbundleName": "honorname_0124_03",
        "name": "迷いのない音を",
        "description": "星乃一歌と巡音ルカのキズナランクを46まで上げよう。"
    },
    {
        "id": 1020301,
        "seq": 10203010,
        "bondsGroupId": 10203,
        "assetbundleName": "honorname_0203_01",
        "name": "ゆるふわヘア",
        "description": "天馬咲希と望月穂波のキズナランクを5まで上げよう。"
    },
    {
        "id": 1020302,
        "seq": 10203020,
        "bondsGroupId": 10203,
        "assetbundleName": "honorname_0203_02",
        "name": "無理はしないでね",
        "description": "天馬咲希と望月穂波のキズナランクを26まで上げよう。"
    },
    {
        "id": 1020303,
        "seq": 10203030,
        "bondsGroupId": 10203,
        "assetbundleName": "honorname_0203_03",
        "name": "だって柔らかいんだもん",
        "description": "天馬咲希と望月穂波のキズナランクを46まで上げよう。"
    },
    {
        "id": 1020401,
        "seq": 10204010,
        "bondsGroupId": 10204,
        "assetbundleName": "honorname_0204_01",
        "name": "甘やかしがち",
        "description": "天馬咲希と日野森志歩のキズナランクを5まで上げよう。"
    },
    {
        "id": 1020402,
        "seq": 10204020,
        "bondsGroupId": 10204,
        "assetbundleName": "honorname_0204_02",
        "name": "心配性",
        "description": "天馬咲希と日野森志歩のキズナランクを26まで上げよう。"
    },
    {
        "id": 1020403,
        "seq": 10204030,
        "bondsGroupId": 10204,
        "assetbundleName": "honorname_0204_03",
        "name": "一緒に音楽を",
        "description": "天馬咲希と日野森志歩のキズナランクを46まで上げよう。"
    },
    {
        "id": 1020501,
        "seq": 10205010,
        "bondsGroupId": 10205,
        "assetbundleName": "honorname_0205_01",
        "name": "屋上ランチ友達",
        "description": "天馬咲希と花里みのりのキズナランクを5まで上げよう。"
    },
    {
        "id": 1020502,
        "seq": 10205020,
        "bondsGroupId": 10205,
        "assetbundleName": "honorname_0205_02",
        "name": "行動力旺盛！",
        "description": "天馬咲希と花里みのりのキズナランクを26まで上げよう。"
    },
    {
        "id": 1020503,
        "seq": 10205030,
        "bondsGroupId": 10205,
        "assetbundleName": "honorname_0205_03",
        "name": "ポジティブガールズ",
        "description": "天馬咲希と花里みのりのキズナランクを46まで上げよう。"
    },
    {
        "id": 1020601,
        "seq": 10206010,
        "bondsGroupId": 10206,
        "assetbundleName": "honorname_0206_01",
        "name": "いつか一緒に水族館♪",
        "description": "天馬咲希と桐谷遥のキズナランクを5まで上げよう。"
    },
    {
        "id": 1020602,
        "seq": 10206020,
        "bondsGroupId": 10206,
        "assetbundleName": "honorname_0206_02",
        "name": "アイドルとしてじゃなくて",
        "description": "天馬咲希と桐谷遥のキズナランクを26まで上げよう。"
    },
    {
        "id": 1020603,
        "seq": 10206030,
        "bondsGroupId": 10206,
        "assetbundleName": "honorname_0206_03",
        "name": "うきうきペンギンカフェ",
        "description": "天馬咲希と桐谷遥のキズナランクを46まで上げよう。"
    },
    {
        "id": 1020801,
        "seq": 10208010,
        "bondsGroupId": 10208,
        "assetbundleName": "honorname_0208_01",
        "name": "「お姉ちゃん」もいいなあ",
        "description": "天馬咲希と日野森雫のキズナランクを5まで上げよう。"
    },
    {
        "id": 1020802,
        "seq": 10208020,
        "bondsGroupId": 10208,
        "assetbundleName": "honorname_0208_02",
        "name": "志歩をぎゅっとしたい",
        "description": "天馬咲希と日野森雫のキズナランクを26まで上げよう。"
    },
    {
        "id": 1020803,
        "seq": 10208030,
        "bondsGroupId": 10208,
        "assetbundleName": "honorname_0208_03",
        "name": "着ぐるみでお祝い",
        "description": "天馬咲希と日野森雫のキズナランクを46まで上げよう。"
    },
    {
        "id": 1021201,
        "seq": 10212010,
        "bondsGroupId": 10212,
        "assetbundleName": "honorname_0212_01",
        "name": "敬語じゃなくていいのに",
        "description": "天馬咲希と青柳冬弥のキズナランクを5まで上げよう。"
    },
    {
        "id": 1021202,
        "seq": 10212020,
        "bondsGroupId": 10212,
        "assetbundleName": "honorname_0212_02",
        "name": "親も仲良し",
        "description": "天馬咲希と青柳冬弥のキズナランクを26まで上げよう。"
    },
    {
        "id": 1021203,
        "seq": 10212030,
        "bondsGroupId": 10212,
        "assetbundleName": "honorname_0212_03",
        "name": "フォレスタンベアー１世",
        "description": "天馬咲希と青柳冬弥のキズナランクを46まで上げよう。"
    },
    {
        "id": 1021301,
        "seq": 10213010,
        "bondsGroupId": 10213,
        "assetbundleName": "honorname_0213_01",
        "name": "天馬兄妹",
        "description": "天馬咲希と天馬司のキズナランクを5まで上げよう。"
    },
    {
        "id": 1021302,
        "seq": 10213020,
        "bondsGroupId": 10213,
        "assetbundleName": "honorname_0213_02",
        "name": "仲良し兄妹",
        "description": "天馬咲希と天馬司のキズナランクを26まで上げよう。"
    },
    {
        "id": 1021303,
        "seq": 10213030,
        "bondsGroupId": 10213,
        "assetbundleName": "honorname_0213_03",
        "name": "ひな祭り",
        "description": "天馬咲希と天馬司のキズナランクを46まで上げよう。"
    },
    {
        "id": 1022101,
        "seq": 10221010,
        "bondsGroupId": 10221,
        "assetbundleName": "honorname_0221_01",
        "name": "髪型お揃い",
        "description": "天馬咲希と初音ミクのキズナランクを5まで上げよう。"
    },
    {
        "id": 1022102,
        "seq": 10221020,
        "bondsGroupId": 10221,
        "assetbundleName": "honorname_0221_02",
        "name": "かっこいい先輩",
        "description": "天馬咲希と初音ミクのキズナランクを26まで上げよう。"
    },
    {
        "id": 1022103,
        "seq": 10221030,
        "bondsGroupId": 10221,
        "assetbundleName": "honorname_0221_03",
        "name": "星空の下の演奏会",
        "description": "天馬咲希と初音ミクのキズナランクを46まで上げよう。"
    },
    {
        "id": 1022401,
        "seq": 10224010,
        "bondsGroupId": 10224,
        "assetbundleName": "honorname_0224_01",
        "name": "なんでも話せる先輩",
        "description": "天馬咲希と巡音ルカのキズナランクを5まで上げよう。"
    },
    {
        "id": 1022402,
        "seq": 10224020,
        "bondsGroupId": 10224,
        "assetbundleName": "honorname_0224_02",
        "name": "屋上の相談",
        "description": "天馬咲希と巡音ルカのキズナランクを26まで上げよう。"
    },
    {
        "id": 1022403,
        "seq": 10224030,
        "bondsGroupId": 10224,
        "assetbundleName": "honorname_0224_03",
        "name": "涙を拭って",
        "description": "天馬咲希と巡音ルカのキズナランクを46まで上げよう。"
    },
    {
        "id": 1030401,
        "seq": 10304010,
        "bondsGroupId": 10304,
        "assetbundleName": "honorname_0304_01",
        "name": "リズム隊",
        "description": "望月穂波と日野森志歩のキズナランクを5まで上げよう。"
    },
    {
        "id": 1030402,
        "seq": 10304020,
        "bondsGroupId": 10304,
        "assetbundleName": "honorname_0304_02",
        "name": "もっと頼って",
        "description": "望月穂波と日野森志歩のキズナランクを26まで上げよう。"
    },
    {
        "id": 1030403,
        "seq": 10304030,
        "bondsGroupId": 10304,
        "assetbundleName": "honorname_0304_03",
        "name": "すれ違いを乗り越えて",
        "description": "望月穂波と日野森志歩のキズナランクを46まで上げよう。"
    },
    {
        "id": 1030801,
        "seq": 10308010,
        "bondsGroupId": 10308,
        "assetbundleName": "honorname_0308_01",
        "name": "美化委員のお姉さん",
        "description": "望月穂波と日野森雫のキズナランクを5まで上げよう。"
    },
    {
        "id": 1030802,
        "seq": 10308020,
        "bondsGroupId": 10308,
        "assetbundleName": "honorname_0308_02",
        "name": "タコとおはぎ",
        "description": "望月穂波と日野森雫のキズナランクを26まで上げよう。"
    },
    {
        "id": 1030803,
        "seq": 10308030,
        "bondsGroupId": 10308,
        "assetbundleName": "honorname_0308_03",
        "name": "話題の中心は志歩",
        "description": "望月穂波と日野森雫のキズナランクを46まで上げよう。"
    },
    {
        "id": 1031301,
        "seq": 10313010,
        "bondsGroupId": 10313,
        "assetbundleName": "honorname_0313_01",
        "name": "チーム保護者",
        "description": "望月穂波と天馬司のキズナランクを5まで上げよう。"
    },
    {
        "id": 1031302,
        "seq": 10313020,
        "bondsGroupId": 10313,
        "assetbundleName": "honorname_0313_02",
        "name": "咲希を見守り隊",
        "description": "望月穂波と天馬司のキズナランクを26まで上げよう。"
    },
    {
        "id": 1031303,
        "seq": 10313030,
        "bondsGroupId": 10313,
        "assetbundleName": "honorname_0313_03",
        "name": "絶大な包容力",
        "description": "望月穂波と天馬司のキズナランクを46まで上げよう。"
    },
    {
        "id": 1031401,
        "seq": 10314010,
        "bondsGroupId": 10314,
        "assetbundleName": "honorname_0314_01",
        "name": "本当に同級生？",
        "description": "望月穂波と鳳えむのキズナランクを5まで上げよう。"
    },
    {
        "id": 1031402,
        "seq": 10314020,
        "bondsGroupId": 10314,
        "assetbundleName": "honorname_0314_02",
        "name": "アップルパイ天国",
        "description": "望月穂波と鳳えむのキズナランクを26まで上げよう。"
    },
    {
        "id": 1031403,
        "seq": 10314030,
        "bondsGroupId": 10314,
        "assetbundleName": "honorname_0314_03",
        "name": "もう寂しくないね！",
        "description": "望月穂波と鳳えむのキズナランクを46まで上げよう。"
    },
    {
        "id": 1031701,
        "seq": 10317010,
        "bondsGroupId": 10317,
        "assetbundleName": "honorname_0317_01",
        "name": "お世話します、されます",
        "description": "望月穂波と宵崎奏のキズナランクを5まで上げよう。"
    },
    {
        "id": 1031702,
        "seq": 10317020,
        "bondsGroupId": 10317,
        "assetbundleName": "honorname_0317_02",
        "name": "食卓でアップルパイを",
        "description": "望月穂波と宵崎奏のキズナランクを26まで上げよう。"
    },
    {
        "id": 1031703,
        "seq": 10317030,
        "bondsGroupId": 10317,
        "assetbundleName": "honorname_0317_03",
        "name": "築いてきた信頼",
        "description": "望月穂波と宵崎奏のキズナランクを46まで上げよう。"
    },
    {
        "id": 1032101,
        "seq": 10321010,
        "bondsGroupId": 10321,
        "assetbundleName": "honorname_0321_01",
        "name": "リードと土台の音",
        "description": "望月穂波と初音ミクのキズナランクを5まで上げよう。"
    },
    {
        "id": 1032102,
        "seq": 10321020,
        "bondsGroupId": 10321,
        "assetbundleName": "honorname_0321_02",
        "name": "演奏だけはブレないように",
        "description": "望月穂波と初音ミクのキズナランクを26まで上げよう。"
    },
    {
        "id": 1032103,
        "seq": 10321030,
        "bondsGroupId": 10321,
        "assetbundleName": "honorname_0321_03",
        "name": "星座の見かた教えて",
        "description": "望月穂波と初音ミクのキズナランクを46まで上げよう。"
    },
    {
        "id": 1032401,
        "seq": 10324010,
        "bondsGroupId": 10324,
        "assetbundleName": "honorname_0324_01",
        "name": "お姉さんズ",
        "description": "望月穂波と巡音ルカのキズナランクを5まで上げよう。"
    },
    {
        "id": 1032402,
        "seq": 10324020,
        "bondsGroupId": 10324,
        "assetbundleName": "honorname_0324_02",
        "name": "あふれる優しさ",
        "description": "望月穂波と巡音ルカのキズナランクを26まで上げよう。"
    },
    {
        "id": 1032403,
        "seq": 10324030,
        "bondsGroupId": 10324,
        "assetbundleName": "honorname_0324_03",
        "name": "優しく蒼い瞳",
        "description": "望月穂波と巡音ルカのキズナランクを46まで上げよう。"
    },
    {
        "id": 1040501,
        "seq": 10405010,
        "bondsGroupId": 10405,
        "assetbundleName": "honorname_0405_01",
        "name": "うさぎさんかわいいね",
        "description": "日野森志歩と花里みのりのキズナランクを5まで上げよう。"
    },
    {
        "id": 1040502,
        "seq": 10405020,
        "bondsGroupId": 10405,
        "assetbundleName": "honorname_0405_02",
        "name": "お節介なんだから",
        "description": "日野森志歩と花里みのりのキズナランクを26まで上げよう。"
    },
    {
        "id": 1040503,
        "seq": 10405030,
        "bondsGroupId": 10405,
        "assetbundleName": "honorname_0405_03",
        "name": "これからもずっと友達！",
        "description": "日野森志歩と花里みのりのキズナランクを46まで上げよう。"
    },
    {
        "id": 1040801,
        "seq": 10408010,
        "bondsGroupId": 10408,
        "assetbundleName": "honorname_0408_01",
        "name": "日野森姉妹",
        "description": "日野森志歩と日野森雫のキズナランクを5まで上げよう。"
    },
    {
        "id": 1040802,
        "seq": 10408020,
        "bondsGroupId": 10408,
        "assetbundleName": "honorname_0408_02",
        "name": "仲良し姉妹",
        "description": "日野森志歩と日野森雫のキズナランクを26まで上げよう。"
    },
    {
        "id": 1040803,
        "seq": 10408030,
        "bondsGroupId": 10408,
        "assetbundleName": "honorname_0408_03",
        "name": "月うさぎ",
        "description": "日野森志歩と日野森雫のキズナランクを46まで上げよう。"
    },
    {
        "id": 1040901,
        "seq": 10409010,
        "bondsGroupId": 10409,
        "assetbundleName": "honorname_0409_01",
        "name": "物怖じしない性格",
        "description": "日野森志歩と小豆沢こはねのキズナランクを5まで上げよう。"
    },
    {
        "id": 1040902,
        "seq": 10409020,
        "bondsGroupId": 10409,
        "assetbundleName": "honorname_0409_02",
        "name": "音楽トークならエンドレス",
        "description": "日野森志歩と小豆沢こはねのキズナランクを26まで上げよう。"
    },
    {
        "id": 1040903,
        "seq": 10409030,
        "bondsGroupId": 10409,
        "assetbundleName": "honorname_0409_03",
        "name": "これからも大事な友達",
        "description": "日野森志歩と小豆沢こはねのキズナランクを46まで上げよう。"
    },
    {
        "id": 1041301,
        "seq": 10413010,
        "bondsGroupId": 10413,
        "assetbundleName": "honorname_0413_01",
        "name": "突然のエンカウント",
        "description": "日野森志歩と天馬司のキズナランクを5まで上げよう。"
    },
    {
        "id": 1041302,
        "seq": 10413020,
        "bondsGroupId": 10413,
        "assetbundleName": "honorname_0413_02",
        "name": "いい人だけどちょっと面倒",
        "description": "日野森志歩と天馬司のキズナランクを26まで上げよう。"
    },
    {
        "id": 1041303,
        "seq": 10413030,
        "bondsGroupId": 10413,
        "assetbundleName": "honorname_0413_03",
        "name": "夢を追い続ける者",
        "description": "日野森志歩と天馬司のキズナランクを46まで上げよう。"
    },
    {
        "id": 1042101,
        "seq": 10421010,
        "bondsGroupId": 10421,
        "assetbundleName": "honorname_0421_01",
        "name": "クール時々笑顔",
        "description": "日野森志歩と初音ミクのキズナランクを5まで上げよう。"
    },
    {
        "id": 1042102,
        "seq": 10421020,
        "bondsGroupId": 10421,
        "assetbundleName": "honorname_0421_02",
        "name": "演奏引っ張り隊",
        "description": "日野森志歩と初音ミクのキズナランクを26まで上げよう。"
    },
    {
        "id": 1042103,
        "seq": 10421030,
        "bondsGroupId": 10421,
        "assetbundleName": "honorname_0421_03",
        "name": "ぴょん仲間だと思ったのに",
        "description": "日野森志歩と初音ミクのキズナランクを46まで上げよう。"
    },
    {
        "id": 1042401,
        "seq": 10424010,
        "bondsGroupId": 10424,
        "assetbundleName": "honorname_0424_01",
        "name": "ツインベース",
        "description": "日野森志歩と巡音ルカのキズナランクを5まで上げよう。"
    },
    {
        "id": 1042402,
        "seq": 10424020,
        "bondsGroupId": 10424,
        "assetbundleName": "honorname_0424_02",
        "name": "音楽指導者",
        "description": "日野森志歩と巡音ルカのキズナランクを26まで上げよう。"
    },
    {
        "id": 1042403,
        "seq": 10424030,
        "bondsGroupId": 10424,
        "assetbundleName": "honorname_0424_03",
        "name": "頼れる背中",
        "description": "日野森志歩と巡音ルカのキズナランクを46まで上げよう。"
    },
    {
        "id": 1050601,
        "seq": 10506010,
        "bondsGroupId": 10506,
        "assetbundleName": "honorname_0506_01",
        "name": "私のアイドル！",
        "description": "花里みのりと桐谷遥のキズナランクを5まで上げよう。"
    },
    {
        "id": 1050602,
        "seq": 10506020,
        "bondsGroupId": 10506,
        "assetbundleName": "honorname_0506_02",
        "name": "あなたがいたから",
        "description": "花里みのりと桐谷遥のキズナランクを26まで上げよう。"
    },
    {
        "id": 1050603,
        "seq": 10506030,
        "bondsGroupId": 10506,
        "assetbundleName": "honorname_0506_03",
        "name": "海みたいな景色",
        "description": "花里みのりと桐谷遥のキズナランクを46まで上げよう。"
    },
    {
        "id": 1050701,
        "seq": 10507010,
        "bondsGroupId": 10507,
        "assetbundleName": "honorname_0507_01",
        "name": "スパルタ指導",
        "description": "花里みのりと桃井愛莉のキズナランクを5まで上げよう。"
    },
    {
        "id": 1050702,
        "seq": 10507020,
        "bondsGroupId": 10507,
        "assetbundleName": "honorname_0507_02",
        "name": "ダンスレッスン",
        "description": "花里みのりと桃井愛莉のキズナランクを26まで上げよう。"
    },
    {
        "id": 1050703,
        "seq": 10507030,
        "bondsGroupId": 10507,
        "assetbundleName": "honorname_0507_03",
        "name": "一緒に同じ道を",
        "description": "花里みのりと桃井愛莉のキズナランクを46まで上げよう。"
    },
    {
        "id": 1050801,
        "seq": 10508010,
        "bondsGroupId": 10508,
        "assetbundleName": "honorname_0508_01",
        "name": "天然×天然",
        "description": "花里みのりと日野森雫のキズナランクを5まで上げよう。"
    },
    {
        "id": 1050802,
        "seq": 10508020,
        "bondsGroupId": 10508,
        "assetbundleName": "honorname_0508_02",
        "name": "努力家アイドル",
        "description": "花里みのりと日野森雫のキズナランクを26まで上げよう。"
    },
    {
        "id": 1050803,
        "seq": 10508030,
        "bondsGroupId": 10508,
        "assetbundleName": "honorname_0508_03",
        "name": "見えないところで",
        "description": "花里みのりと日野森雫のキズナランクを46まで上げよう。"
    },
    {
        "id": 1050901,
        "seq": 10509010,
        "bondsGroupId": 10509,
        "assetbundleName": "honorname_0509_01",
        "name": "レッツ、イエトレ！",
        "description": "花里みのりと小豆沢こはねのキズナランクを5まで上げよう。"
    },
    {
        "id": 1050902,
        "seq": 10509020,
        "bondsGroupId": 10509,
        "assetbundleName": "honorname_0509_02",
        "name": "動物大好き飼育委員",
        "description": "花里みのりと小豆沢こはねのキズナランクを26まで上げよう。"
    },
    {
        "id": 1050903,
        "seq": 10509030,
        "bondsGroupId": 10509,
        "assetbundleName": "honorname_0509_03",
        "name": "夢に全力",
        "description": "花里みのりと小豆沢こはねのキズナランクを46まで上げよう。"
    },
    {
        "id": 1052101,
        "seq": 10521010,
        "bondsGroupId": 10521,
        "assetbundleName": "honorname_0521_01",
        "name": "キラキラアイドル",
        "description": "花里みのりと初音ミクのキズナランクを5まで上げよう。"
    },
    {
        "id": 1052102,
        "seq": 10521020,
        "bondsGroupId": 10521,
        "assetbundleName": "honorname_0521_02",
        "name": "一緒に歌おう♪",
        "description": "花里みのりと初音ミクのキズナランクを26まで上げよう。"
    },
    {
        "id": 1052103,
        "seq": 10521030,
        "bondsGroupId": 10521,
        "assetbundleName": "honorname_0521_03",
        "name": "届けたい希望",
        "description": "花里みのりと初音ミクのキズナランクを46まで上げよう。"
    },
    {
        "id": 1052201,
        "seq": 10522010,
        "bondsGroupId": 10522,
        "assetbundleName": "honorname_0522_01",
        "name": "新米アイドル",
        "description": "花里みのりと鏡音リンのキズナランクを5まで上げよう。"
    },
    {
        "id": 1052202,
        "seq": 10522020,
        "bondsGroupId": 10522,
        "assetbundleName": "honorname_0522_02",
        "name": "元気×元気",
        "description": "花里みのりと鏡音リンのキズナランクを26まで上げよう。"
    },
    {
        "id": 1052203,
        "seq": 10522030,
        "bondsGroupId": 10522,
        "assetbundleName": "honorname_0522_03",
        "name": "いつだって笑顔",
        "description": "花里みのりと鏡音リンのキズナランクを46まで上げよう。"
    },
    {
        "id": 1060701,
        "seq": 10607010,
        "bondsGroupId": 10607,
        "assetbundleName": "honorname_0607_01",
        "name": "最強よ！！！",
        "description": "桐谷遥と桃井愛莉のキズナランクを5まで上げよう。"
    },
    {
        "id": 1060702,
        "seq": 10607020,
        "bondsGroupId": 10607,
        "assetbundleName": "honorname_0607_02",
        "name": "しっかり者",
        "description": "桐谷遥と桃井愛莉のキズナランクを26まで上げよう。"
    },
    {
        "id": 1060703,
        "seq": 10607030,
        "bondsGroupId": 10607,
        "assetbundleName": "honorname_0607_03",
        "name": "ここからもう一度",
        "description": "桐谷遥と桃井愛莉のキズナランクを46まで上げよう。"
    },
    {
        "id": 1060801,
        "seq": 10608010,
        "bondsGroupId": 10608,
        "assetbundleName": "honorname_0608_01",
        "name": "人気のアイドル",
        "description": "桐谷遥と日野森雫のキズナランクを5まで上げよう。"
    },
    {
        "id": 1060802,
        "seq": 10608020,
        "bondsGroupId": 10608,
        "assetbundleName": "honorname_0608_02",
        "name": "ファビュラス",
        "description": "桐谷遥と日野森雫のキズナランクを26まで上げよう。"
    },
    {
        "id": 1060803,
        "seq": 10608030,
        "bondsGroupId": 10608,
        "assetbundleName": "honorname_0608_03",
        "name": "努力のセンター",
        "description": "桐谷遥と日野森雫のキズナランクを46まで上げよう。"
    },
    {
        "id": 1061001,
        "seq": 10610010,
        "bondsGroupId": 10610,
        "assetbundleName": "honorname_0610_01",
        "name": "勉強以外はライバル",
        "description": "桐谷遥と白石杏のキズナランクを5まで上げよう。"
    },
    {
        "id": 1061002,
        "seq": 10610020,
        "bondsGroupId": 10610,
        "assetbundleName": "honorname_0610_02",
        "name": "いつかリレーの決着を",
        "description": "桐谷遥と白石杏のキズナランクを26まで上げよう。"
    },
    {
        "id": 1061003,
        "seq": 10610030,
        "bondsGroupId": 10610,
        "assetbundleName": "honorname_0610_03",
        "name": "好敵手と書いて親友",
        "description": "桐谷遥と白石杏のキズナランクを46まで上げよう。"
    },
    {
        "id": 1062101,
        "seq": 10621010,
        "bondsGroupId": 10621,
        "assetbundleName": "honorname_0621_01",
        "name": "ベテランアイドル",
        "description": "桐谷遥と初音ミクのキズナランクを5まで上げよう。"
    },
    {
        "id": 1062102,
        "seq": 10621020,
        "bondsGroupId": 10621,
        "assetbundleName": "honorname_0621_02",
        "name": "トップアイドル",
        "description": "桐谷遥と初音ミクのキズナランクを26まで上げよう。"
    },
    {
        "id": 1062103,
        "seq": 10621030,
        "bondsGroupId": 10621,
        "assetbundleName": "honorname_0621_03",
        "name": "天性のアイドル",
        "description": "桐谷遥と初音ミクのキズナランクを46まで上げよう。"
    },
    {
        "id": 1062201,
        "seq": 10622010,
        "bondsGroupId": 10622,
        "assetbundleName": "honorname_0622_01",
        "name": "フィジカルアイドル",
        "description": "桐谷遥と鏡音リンのキズナランクを5まで上げよう。"
    },
    {
        "id": 1062202,
        "seq": 10622020,
        "bondsGroupId": 10622,
        "assetbundleName": "honorname_0622_02",
        "name": "ショート×ショート",
        "description": "桐谷遥と鏡音リンのキズナランクを26まで上げよう。"
    },
    {
        "id": 1062203,
        "seq": 10622030,
        "bondsGroupId": 10622,
        "assetbundleName": "honorname_0622_03",
        "name": "アイドルスマイル",
        "description": "桐谷遥と鏡音リンのキズナランクを46まで上げよう。"
    },
    {
        "id": 1070801,
        "seq": 10708010,
        "bondsGroupId": 10708,
        "assetbundleName": "honorname_0708_01",
        "name": "研究生仲間",
        "description": "桃井愛莉と日野森雫のキズナランクを5まで上げよう。"
    },
    {
        "id": 1070802,
        "seq": 10708020,
        "bondsGroupId": 10708,
        "assetbundleName": "honorname_0708_02",
        "name": "あなたのおかげで",
        "description": "桃井愛莉と日野森雫のキズナランクを26まで上げよう。"
    },
    {
        "id": 1070803,
        "seq": 10708030,
        "bondsGroupId": 10708,
        "assetbundleName": "honorname_0708_03",
        "name": "苦楽をともに",
        "description": "桃井愛莉と日野森雫のキズナランクを46まで上げよう。"
    },
    {
        "id": 1071901,
        "seq": 10719010,
        "bondsGroupId": 10719,
        "assetbundleName": "honorname_0719_01",
        "name": "放っておけない性質",
        "description": "桃井愛莉と東雲絵名のキズナランクを5まで上げよう。"
    },
    {
        "id": 1071902,
        "seq": 10719020,
        "bondsGroupId": 10719,
        "assetbundleName": "honorname_0719_02",
        "name": "いざとなれば度胸と根性",
        "description": "桃井愛莉と東雲絵名のキズナランクを26まで上げよう。"
    },
    {
        "id": 1071903,
        "seq": 10719030,
        "bondsGroupId": 10719,
        "assetbundleName": "honorname_0719_03",
        "name": "いつまでも大切な親友！",
        "description": "桃井愛莉と東雲絵名のキズナランクを46まで上げよう。"
    },
    {
        "id": 1072101,
        "seq": 10721010,
        "bondsGroupId": 10721,
        "assetbundleName": "honorname_0721_01",
        "name": "ツインテールなふたり",
        "description": "桃井愛莉と初音ミクのキズナランクを5まで上げよう。"
    },
    {
        "id": 1072102,
        "seq": 10721020,
        "bondsGroupId": 10721,
        "assetbundleName": "honorname_0721_02",
        "name": "アイドルはハートが命",
        "description": "桃井愛莉と初音ミクのキズナランクを26まで上げよう。"
    },
    {
        "id": 1072103,
        "seq": 10721030,
        "bondsGroupId": 10721,
        "assetbundleName": "honorname_0721_03",
        "name": "ウィンクで決め！",
        "description": "桃井愛莉と初音ミクのキズナランクを46まで上げよう。"
    },
    {
        "id": 1072201,
        "seq": 10722010,
        "bondsGroupId": 10722,
        "assetbundleName": "honorname_0722_01",
        "name": "元気印",
        "description": "桃井愛莉と鏡音リンのキズナランクを5まで上げよう。"
    },
    {
        "id": 1072202,
        "seq": 10722020,
        "bondsGroupId": 10722,
        "assetbundleName": "honorname_0722_02",
        "name": "パワフルアイドル",
        "description": "桃井愛莉と鏡音リンのキズナランクを26まで上げよう。"
    },
    {
        "id": 1072203,
        "seq": 10722030,
        "bondsGroupId": 10722,
        "assetbundleName": "honorname_0722_03",
        "name": "前を向いて",
        "description": "桃井愛莉と鏡音リンのキズナランクを46まで上げよう。"
    },
    {
        "id": 1081301,
        "seq": 10813010,
        "bondsGroupId": 10813,
        "assetbundleName": "honorname_0813_01",
        "name": "公園で遊んでた仲",
        "description": "日野森雫と天馬司のキズナランクを5まで上げよう。"
    },
    {
        "id": 1081302,
        "seq": 10813020,
        "bondsGroupId": 10813,
        "assetbundleName": "honorname_0813_02",
        "name": "しっかり姉・兄してます！",
        "description": "日野森雫と天馬司のキズナランクを26まで上げよう。"
    },
    {
        "id": 1081303,
        "seq": 10813030,
        "bondsGroupId": 10813,
        "assetbundleName": "honorname_0813_03",
        "name": "うちの妹は世界一可愛い",
        "description": "日野森雫と天馬司のキズナランクを46まで上げよう。"
    },
    {
        "id": 1081801,
        "seq": 10818010,
        "bondsGroupId": 10818,
        "assetbundleName": "honorname_0818_01",
        "name": "宮益坂女子学園弓道部",
        "description": "日野森雫と朝比奈まふゆのキズナランクを5まで上げよう。"
    },
    {
        "id": 1081802,
        "seq": 10818020,
        "bondsGroupId": 10818,
        "assetbundleName": "honorname_0818_02",
        "name": "みんなの憧れの的",
        "description": "日野森雫と朝比奈まふゆのキズナランクを26まで上げよう。"
    },
    {
        "id": 1081803,
        "seq": 10818030,
        "bondsGroupId": 10818,
        "assetbundleName": "honorname_0818_03",
        "name": "本当の私って？",
        "description": "日野森雫と朝比奈まふゆのキズナランクを46まで上げよう。"
    },
    {
        "id": 1082101,
        "seq": 10821010,
        "bondsGroupId": 10821,
        "assetbundleName": "honorname_0821_01",
        "name": "ブルーグリーンのアイドル",
        "description": "日野森雫と初音ミクのキズナランクを5まで上げよう。"
    },
    {
        "id": 1082102,
        "seq": 10821020,
        "bondsGroupId": 10821,
        "assetbundleName": "honorname_0821_02",
        "name": "想いだけは迷わないように",
        "description": "日野森雫と初音ミクのキズナランクを26まで上げよう。"
    },
    {
        "id": 1082103,
        "seq": 10821030,
        "bondsGroupId": 10821,
        "assetbundleName": "honorname_0821_03",
        "name": "応援を力に",
        "description": "日野森雫と初音ミクのキズナランクを46まで上げよう。"
    },
    {
        "id": 1082201,
        "seq": 10822010,
        "bondsGroupId": 10822,
        "assetbundleName": "honorname_0822_01",
        "name": "ふわふわでキラキラ",
        "description": "日野森雫と鏡音リンのキズナランクを5まで上げよう。"
    },
    {
        "id": 1082202,
        "seq": 10822020,
        "bondsGroupId": 10822,
        "assetbundleName": "honorname_0822_02",
        "name": "そよ風と太陽のぽかぽか",
        "description": "日野森雫と鏡音リンのキズナランクを26まで上げよう。"
    },
    {
        "id": 1082203,
        "seq": 10822030,
        "bondsGroupId": 10822,
        "assetbundleName": "honorname_0822_03",
        "name": "笑顔が欲しいな♪",
        "description": "日野森雫と鏡音リンのキズナランクを46まで上げよう。"
    },
    {
        "id": 1091001,
        "seq": 10910010,
        "bondsGroupId": 10910,
        "assetbundleName": "honorname_0910_01",
        "name": "Vivids",
        "description": "小豆沢こはねと白石杏のキズナランクを5まで上げよう。"
    },
    {
        "id": 1091002,
        "seq": 10910020,
        "bondsGroupId": 10910,
        "assetbundleName": "honorname_0910_02",
        "name": "最高の相棒",
        "description": "小豆沢こはねと白石杏のキズナランクを26まで上げよう。"
    },
    {
        "id": 1091003,
        "seq": 10910030,
        "bondsGroupId": 10910,
        "assetbundleName": "honorname_0910_03",
        "name": "高めあうふたり",
        "description": "小豆沢こはねと白石杏のキズナランクを46まで上げよう。"
    },
    {
        "id": 1091101,
        "seq": 10911010,
        "bondsGroupId": 10911,
        "assetbundleName": "honorname_0911_01",
        "name": "覚悟は認める",
        "description": "小豆沢こはねと東雲彰人のキズナランクを5まで上げよう。"
    },
    {
        "id": 1091102,
        "seq": 10911020,
        "bondsGroupId": 10911,
        "assetbundleName": "honorname_0911_02",
        "name": "ハムハムと猫被り",
        "description": "小豆沢こはねと東雲彰人のキズナランクを26まで上げよう。"
    },
    {
        "id": 1091103,
        "seq": 10911030,
        "bondsGroupId": 10911,
        "assetbundleName": "honorname_0911_03",
        "name": "ストイックに努力",
        "description": "小豆沢こはねと東雲彰人のキズナランクを46まで上げよう。"
    },
    {
        "id": 1091201,
        "seq": 10912010,
        "bondsGroupId": 10912,
        "assetbundleName": "honorname_0912_01",
        "name": "勉強は得意",
        "description": "小豆沢こはねと青柳冬弥のキズナランクを5まで上げよう。"
    },
    {
        "id": 1091202,
        "seq": 10912020,
        "bondsGroupId": 10912,
        "assetbundleName": "honorname_0912_02",
        "name": "アルバイト未経験",
        "description": "小豆沢こはねと青柳冬弥のキズナランクを26まで上げよう。"
    },
    {
        "id": 1091203,
        "seq": 10912030,
        "bondsGroupId": 10912,
        "assetbundleName": "honorname_0912_03",
        "name": "秘めた熱い想い",
        "description": "小豆沢こはねと青柳冬弥のキズナランクを46まで上げよう。"
    },
    {
        "id": 1092101,
        "seq": 10921010,
        "bondsGroupId": 10921,
        "assetbundleName": "honorname_0921_01",
        "name": "薄色ツインテ",
        "description": "小豆沢こはねと初音ミクのキズナランクを5まで上げよう。"
    },
    {
        "id": 1092102,
        "seq": 10921020,
        "bondsGroupId": 10921,
        "assetbundleName": "honorname_0921_02",
        "name": "もっと自信をもって",
        "description": "小豆沢こはねと初音ミクのキズナランクを26まで上げよう。"
    },
    {
        "id": 1092103,
        "seq": 10921030,
        "bondsGroupId": 10921,
        "assetbundleName": "honorname_0921_03",
        "name": "誰に何を言われても",
        "description": "小豆沢こはねと初音ミクのキズナランクを46まで上げよう。"
    },
    {
        "id": 1092301,
        "seq": 10923010,
        "bondsGroupId": 10923,
        "assetbundleName": "honorname_0923_01",
        "name": "オドオドとイケイケ",
        "description": "小豆沢こはねと鏡音レンのキズナランクを5まで上げよう。"
    },
    {
        "id": 1092302,
        "seq": 10923020,
        "bondsGroupId": 10923,
        "assetbundleName": "honorname_0923_02",
        "name": "ストリートの先輩後輩",
        "description": "小豆沢こはねと鏡音レンのキズナランクを26まで上げよう。"
    },
    {
        "id": 1092303,
        "seq": 10923030,
        "bondsGroupId": 10923,
        "assetbundleName": "honorname_0923_03",
        "name": "フロアわかせよう！",
        "description": "小豆沢こはねと鏡音レンのキズナランクを46まで上げよう。"
    },
    {
        "id": 1092501,
        "seq": 10925010,
        "bondsGroupId": 10925,
        "assetbundleName": "honorname_0925_01",
        "name": "カフェタイム",
        "description": "小豆沢こはねとMEIKOのキズナランクを5まで上げよう。"
    },
    {
        "id": 1092502,
        "seq": 10925020,
        "bondsGroupId": 10925,
        "assetbundleName": "honorname_0925_02",
        "name": "大人の魅力に興味津々",
        "description": "小豆沢こはねとMEIKOのキズナランクを26まで上げよう。"
    },
    {
        "id": 1092503,
        "seq": 10925030,
        "bondsGroupId": 10925,
        "assetbundleName": "honorname_0925_03",
        "name": "今日のトッピングは？",
        "description": "小豆沢こはねとMEIKOのキズナランクを46まで上げよう。"
    },
    {
        "id": 1101101,
        "seq": 11011010,
        "bondsGroupId": 11011,
        "assetbundleName": "honorname_1011_01",
        "name": "勉強は苦手",
        "description": "白石杏と東雲彰人のキズナランクを5まで上げよう。"
    },
    {
        "id": 1101102,
        "seq": 11011020,
        "bondsGroupId": 11011,
        "assetbundleName": "honorname_1011_02",
        "name": "いけいけチーム",
        "description": "白石杏と東雲彰人のキズナランクを26まで上げよう。"
    },
    {
        "id": 1101103,
        "seq": 11011030,
        "bondsGroupId": 11011,
        "assetbundleName": "honorname_1011_03",
        "name": "相棒が最高",
        "description": "白石杏と東雲彰人のキズナランクを46まで上げよう。"
    },
    {
        "id": 1101201,
        "seq": 11012010,
        "bondsGroupId": 11012,
        "assetbundleName": "honorname_1012_01",
        "name": "ブルーヘア",
        "description": "白石杏と青柳冬弥のキズナランクを5まで上げよう。"
    },
    {
        "id": 1101202,
        "seq": 11012020,
        "bondsGroupId": 11012,
        "assetbundleName": "honorname_1012_02",
        "name": "コーヒー派と紅茶派",
        "description": "白石杏と青柳冬弥のキズナランクを26まで上げよう。"
    },
    {
        "id": 1101203,
        "seq": 11012030,
        "bondsGroupId": 11012,
        "assetbundleName": "honorname_1012_03",
        "name": "パパは音楽家",
        "description": "白石杏と青柳冬弥のキズナランクを46まで上げよう。"
    },
    {
        "id": 1102001,
        "seq": 11020010,
        "bondsGroupId": 11020,
        "assetbundleName": "honorname_1020_01",
        "name": "クラスで一番気が合う",
        "description": "白石杏と暁山瑞希のキズナランクを5まで上げよう。"
    },
    {
        "id": 1102002,
        "seq": 11020020,
        "bondsGroupId": 11020,
        "assetbundleName": "honorname_1020_02",
        "name": "なんで勉強できるの！？",
        "description": "白石杏と暁山瑞希のキズナランクを26まで上げよう。"
    },
    {
        "id": 1102003,
        "seq": 11020030,
        "bondsGroupId": 11020,
        "assetbundleName": "honorname_1020_03",
        "name": "一緒に２年になろうよ",
        "description": "白石杏と暁山瑞希のキズナランクを46まで上げよう。"
    },
    {
        "id": 1102101,
        "seq": 11021010,
        "bondsGroupId": 11021,
        "assetbundleName": "honorname_1021_01",
        "name": "オシャレガール",
        "description": "白石杏と初音ミクのキズナランクを5まで上げよう。"
    },
    {
        "id": 1102102,
        "seq": 11021020,
        "bondsGroupId": 11021,
        "assetbundleName": "honorname_1021_02",
        "name": "シング・ア・ビート",
        "description": "白石杏と初音ミクのキズナランクを26まで上げよう。"
    },
    {
        "id": 1102103,
        "seq": 11021030,
        "bondsGroupId": 11021,
        "assetbundleName": "honorname_1021_03",
        "name": "ストリートガールズ",
        "description": "白石杏と初音ミクのキズナランクを46まで上げよう。"
    },
    {
        "id": 1102301,
        "seq": 11023010,
        "bondsGroupId": 11023,
        "assetbundleName": "honorname_1023_01",
        "name": "まるで仲良し姉弟？",
        "description": "白石杏と鏡音レンのキズナランクを5まで上げよう。"
    },
    {
        "id": 1102302,
        "seq": 11023020,
        "bondsGroupId": 11023,
        "assetbundleName": "honorname_1023_02",
        "name": "とりあえずやってみよう",
        "description": "白石杏と鏡音レンのキズナランクを26まで上げよう。"
    },
    {
        "id": 1102303,
        "seq": 11023030,
        "bondsGroupId": 11023,
        "assetbundleName": "honorname_1023_03",
        "name": "相棒想い",
        "description": "白石杏と鏡音レンのキズナランクを46まで上げよう。"
    },
    {
        "id": 1102501,
        "seq": 11025010,
        "bondsGroupId": 11025,
        "assetbundleName": "honorname_1025_01",
        "name": "コーヒーガール",
        "description": "白石杏とMEIKOのキズナランクを5まで上げよう。"
    },
    {
        "id": 1102502,
        "seq": 11025020,
        "bondsGroupId": 11025,
        "assetbundleName": "honorname_1025_02",
        "name": "カフェではたらく",
        "description": "白石杏とMEIKOのキズナランクを26まで上げよう。"
    },
    {
        "id": 1102503,
        "seq": 11025030,
        "bondsGroupId": 11025,
        "assetbundleName": "honorname_1025_03",
        "name": "接客もバッチリ",
        "description": "白石杏とMEIKOのキズナランクを46まで上げよう。"
    },
    {
        "id": 1111201,
        "seq": 11112010,
        "bondsGroupId": 11112,
        "assetbundleName": "honorname_1112_01",
        "name": "BAD DOGS",
        "description": "東雲彰人と青柳冬弥のキズナランクを5まで上げよう。"
    },
    {
        "id": 1111202,
        "seq": 11112020,
        "bondsGroupId": 11112,
        "assetbundleName": "honorname_1112_02",
        "name": "信頼できる相棒",
        "description": "東雲彰人と青柳冬弥のキズナランクを26まで上げよう。"
    },
    {
        "id": 1111203,
        "seq": 11112030,
        "bondsGroupId": 11112,
        "assetbundleName": "honorname_1112_03",
        "name": "お前の隣に立ちたくて",
        "description": "東雲彰人と青柳冬弥のキズナランクを46まで上げよう。"
    },
    {
        "id": 1111901,
        "seq": 11119010,
        "bondsGroupId": 11119,
        "assetbundleName": "honorname_1119_01",
        "name": "東雲姉弟",
        "description": "東雲彰人と東雲絵名のキズナランクを5まで上げよう。"
    },
    {
        "id": 1111902,
        "seq": 11119020,
        "bondsGroupId": 11119,
        "assetbundleName": "honorname_1119_02",
        "name": "仲良し？姉弟",
        "description": "東雲彰人と東雲絵名のキズナランクを26まで上げよう。"
    },
    {
        "id": 1111903,
        "seq": 11119030,
        "bondsGroupId": 11119,
        "assetbundleName": "honorname_1119_03",
        "name": "夏祭り",
        "description": "東雲彰人と東雲絵名のキズナランクを46まで上げよう。"
    },
    {
        "id": 1112101,
        "seq": 11121010,
        "bondsGroupId": 11121,
        "assetbundleName": "honorname_1121_01",
        "name": "負けず嫌い",
        "description": "東雲彰人と初音ミクのキズナランクを5まで上げよう。"
    },
    {
        "id": 1112102,
        "seq": 11121020,
        "bondsGroupId": 11121,
        "assetbundleName": "honorname_1121_02",
        "name": "勝負ごとには真剣",
        "description": "東雲彰人と初音ミクのキズナランクを26まで上げよう。"
    },
    {
        "id": 1112103,
        "seq": 11121030,
        "bondsGroupId": 11121,
        "assetbundleName": "honorname_1121_03",
        "name": "歌への情熱",
        "description": "東雲彰人と初音ミクのキズナランクを46まで上げよう。"
    },
    {
        "id": 1112301,
        "seq": 11123010,
        "bondsGroupId": 11123,
        "assetbundleName": "honorname_1123_01",
        "name": "ダンスシューズ",
        "description": "東雲彰人と鏡音レンのキズナランクを5まで上げよう。"
    },
    {
        "id": 1112302,
        "seq": 11123020,
        "bondsGroupId": 11123,
        "assetbundleName": "honorname_1123_02",
        "name": "兄弟みたいに仲良し",
        "description": "東雲彰人と鏡音レンのキズナランクを26まで上げよう。"
    },
    {
        "id": 1112303,
        "seq": 11123030,
        "bondsGroupId": 11123,
        "assetbundleName": "honorname_1123_03",
        "name": "DJは任せてよ",
        "description": "東雲彰人と鏡音レンのキズナランクを46まで上げよう。"
    },
    {
        "id": 1112501,
        "seq": 11125010,
        "bondsGroupId": 11125,
        "assetbundleName": "honorname_1125_01",
        "name": "crase cafe",
        "description": "東雲彰人とMEIKOのキズナランクを5まで上げよう。"
    },
    {
        "id": 1112502,
        "seq": 11125020,
        "bondsGroupId": 11125,
        "assetbundleName": "honorname_1125_02",
        "name": "憩いのスイーツ",
        "description": "東雲彰人とMEIKOのキズナランクを26まで上げよう。"
    },
    {
        "id": 1112503,
        "seq": 11125030,
        "bondsGroupId": 11125,
        "assetbundleName": "honorname_1125_03",
        "name": "とっておきをいかが？",
        "description": "東雲彰人とMEIKOのキズナランクを46まで上げよう。"
    },
    {
        "id": 1121301,
        "seq": 11213010,
        "bondsGroupId": 11213,
        "assetbundleName": "honorname_1213_01",
        "name": "尊敬と親愛",
        "description": "青柳冬弥と天馬司のキズナランクを5まで上げよう。"
    },
    {
        "id": 1121302,
        "seq": 11213020,
        "bondsGroupId": 11213,
        "assetbundleName": "honorname_1213_02",
        "name": "ファン第２号",
        "description": "青柳冬弥と天馬司のキズナランクを26まで上げよう。"
    },
    {
        "id": 1121303,
        "seq": 11213030,
        "bondsGroupId": 11213,
        "assetbundleName": "honorname_1213_03",
        "name": "お前が笑ってくれたから",
        "description": "青柳冬弥と天馬司のキズナランクを46まで上げよう。"
    },
    {
        "id": 1122101,
        "seq": 11221010,
        "bondsGroupId": 11221,
        "assetbundleName": "honorname_1221_01",
        "name": "コーヒー一筋",
        "description": "青柳冬弥と初音ミクのキズナランクを5まで上げよう。"
    },
    {
        "id": 1122102,
        "seq": 11221020,
        "bondsGroupId": 11221,
        "assetbundleName": "honorname_1221_02",
        "name": "クールな安定感",
        "description": "青柳冬弥と初音ミクのキズナランクを26まで上げよう。"
    },
    {
        "id": 1122103,
        "seq": 11221030,
        "bondsGroupId": 11221,
        "assetbundleName": "honorname_1221_03",
        "name": "もっと想いをぶつけて",
        "description": "青柳冬弥と初音ミクのキズナランクを46まで上げよう。"
    },
    {
        "id": 1122301,
        "seq": 11223010,
        "bondsGroupId": 11223,
        "assetbundleName": "honorname_1223_01",
        "name": "ブラックで飲める",
        "description": "青柳冬弥と鏡音レンのキズナランクを5まで上げよう。"
    },
    {
        "id": 1122302,
        "seq": 11223020,
        "bondsGroupId": 11223,
        "assetbundleName": "honorname_1223_02",
        "name": "ワクワクしてきた",
        "description": "青柳冬弥と鏡音レンのキズナランクを26まで上げよう。"
    },
    {
        "id": 1122303,
        "seq": 11223030,
        "bondsGroupId": 11223,
        "assetbundleName": "honorname_1223_03",
        "name": "相棒は大事に",
        "description": "青柳冬弥と鏡音レンのキズナランクを46まで上げよう。"
    },
    {
        "id": 1122501,
        "seq": 11225010,
        "bondsGroupId": 11225,
        "assetbundleName": "honorname_1225_01",
        "name": "バリスタ",
        "description": "青柳冬弥とMEIKOのキズナランクを5まで上げよう。"
    },
    {
        "id": 1122502,
        "seq": 11225020,
        "bondsGroupId": 11225,
        "assetbundleName": "honorname_1225_02",
        "name": "憩いのコーヒー",
        "description": "青柳冬弥とMEIKOのキズナランクを26まで上げよう。"
    },
    {
        "id": 1122503,
        "seq": 11225030,
        "bondsGroupId": 11225,
        "assetbundleName": "honorname_1225_03",
        "name": "こだわる理由",
        "description": "青柳冬弥とMEIKOのキズナランクを46まで上げよう。"
    },
    {
        "id": 1131401,
        "seq": 11314010,
        "bondsGroupId": 11314,
        "assetbundleName": "honorname_1314_01",
        "name": "キラキラバビューン",
        "description": "天馬司と鳳えむのキズナランクを5まで上げよう。"
    },
    {
        "id": 1131402,
        "seq": 11314020,
        "bondsGroupId": 11314,
        "assetbundleName": "honorname_1314_02",
        "name": "人の話を聞け",
        "description": "天馬司と鳳えむのキズナランクを26まで上げよう。"
    },
    {
        "id": 1131403,
        "seq": 11314030,
        "bondsGroupId": 11314,
        "assetbundleName": "honorname_1314_03",
        "name": "あの日の観覧車",
        "description": "天馬司と鳳えむのキズナランクを46まで上げよう。"
    },
    {
        "id": 1131501,
        "seq": 11315010,
        "bondsGroupId": 11315,
        "assetbundleName": "honorname_1315_01",
        "name": "未来のスター",
        "description": "天馬司と草薙寧々のキズナランクを5まで上げよう。"
    },
    {
        "id": 1131502,
        "seq": 11315020,
        "bondsGroupId": 11315,
        "assetbundleName": "honorname_1315_02",
        "name": "保護者会",
        "description": "天馬司と草薙寧々のキズナランクを26まで上げよう。"
    },
    {
        "id": 1131503,
        "seq": 11315030,
        "bondsGroupId": 11315,
        "assetbundleName": "honorname_1315_03",
        "name": "なんだかんだ信頼してる",
        "description": "天馬司と草薙寧々のキズナランクを46まで上げよう。"
    },
    {
        "id": 1131601,
        "seq": 11316010,
        "bondsGroupId": 11316,
        "assetbundleName": "honorname_1316_01",
        "name": "変人ワンツー",
        "description": "天馬司と神代類のキズナランクを5まで上げよう。"
    },
    {
        "id": 1131602,
        "seq": 11316020,
        "bondsGroupId": 11316,
        "assetbundleName": "honorname_1316_02",
        "name": "トップ☆スター！？",
        "description": "天馬司と神代類のキズナランクを26まで上げよう。"
    },
    {
        "id": 1131603,
        "seq": 11316030,
        "bondsGroupId": 11316,
        "assetbundleName": "honorname_1316_03",
        "name": "最高のショー",
        "description": "天馬司と神代類のキズナランクを46まで上げよう。"
    },
    {
        "id": 1132101,
        "seq": 11321010,
        "bondsGroupId": 11321,
        "assetbundleName": "honorname_1321_01",
        "name": "ミクダヨー♪にびっくり",
        "description": "天馬司と初音ミクのキズナランクを5まで上げよう。"
    },
    {
        "id": 1132102,
        "seq": 11321020,
        "bondsGroupId": 11321,
        "assetbundleName": "honorname_1321_02",
        "name": "ムチャブリーズ",
        "description": "天馬司と初音ミクのキズナランクを26まで上げよう。"
    },
    {
        "id": 1132103,
        "seq": 11321030,
        "bondsGroupId": 11321,
        "assetbundleName": "honorname_1321_03",
        "name": "みんなを笑顔に",
        "description": "天馬司と初音ミクのキズナランクを46まで上げよう。"
    },
    {
        "id": 1132601,
        "seq": 11326010,
        "bondsGroupId": 11326,
        "assetbundleName": "honorname_1326_01",
        "name": "みんなの座長",
        "description": "天馬司とKAITOのキズナランクを5まで上げよう。"
    },
    {
        "id": 1132602,
        "seq": 11326020,
        "bondsGroupId": 11326,
        "assetbundleName": "honorname_1326_02",
        "name": "次なるショーを",
        "description": "天馬司とKAITOのキズナランクを26まで上げよう。"
    },
    {
        "id": 1132603,
        "seq": 11326030,
        "bondsGroupId": 11326,
        "assetbundleName": "honorname_1326_03",
        "name": "導くもの",
        "description": "天馬司とKAITOのキズナランクを46まで上げよう。"
    },
    {
        "id": 1141501,
        "seq": 11415010,
        "bondsGroupId": 11415,
        "assetbundleName": "honorname_1415_01",
        "name": "大切な友達",
        "description": "鳳えむと草薙寧々のキズナランクを5まで上げよう。"
    },
    {
        "id": 1141502,
        "seq": 11415020,
        "bondsGroupId": 11415,
        "assetbundleName": "honorname_1415_02",
        "name": "お昼一緒に食べたいな",
        "description": "鳳えむと草薙寧々のキズナランクを26まで上げよう。"
    },
    {
        "id": 1141503,
        "seq": 11415030,
        "bondsGroupId": 11415,
        "assetbundleName": "honorname_1415_03",
        "name": "太陽と人魚姫",
        "description": "鳳えむと草薙寧々のキズナランクを46まで上げよう。"
    },
    {
        "id": 1141601,
        "seq": 11416010,
        "bondsGroupId": 11416,
        "assetbundleName": "honorname_1416_01",
        "name": "好奇心旺盛",
        "description": "鳳えむと神代類のキズナランクを5まで上げよう。"
    },
    {
        "id": 1141602,
        "seq": 11416020,
        "bondsGroupId": 11416,
        "assetbundleName": "honorname_1416_02",
        "name": "たい焼きは真ん中派",
        "description": "鳳えむと神代類のキズナランクを26まで上げよう。"
    },
    {
        "id": 1141603,
        "seq": 11416030,
        "bondsGroupId": 11416,
        "assetbundleName": "honorname_1416_03",
        "name": "発想が奇想天外",
        "description": "鳳えむと神代類のキズナランクを46まで上げよう。"
    },
    {
        "id": 1142101,
        "seq": 11421010,
        "bondsGroupId": 11421,
        "assetbundleName": "honorname_1421_01",
        "name": "天真爛漫",
        "description": "鳳えむと初音ミクのキズナランクを5まで上げよう。"
    },
    {
        "id": 1142102,
        "seq": 11421020,
        "bondsGroupId": 11421,
        "assetbundleName": "honorname_1421_02",
        "name": "ハイテンションガールズ",
        "description": "鳳えむと初音ミクのキズナランクを26まで上げよう。"
    },
    {
        "id": 1142103,
        "seq": 11421030,
        "bondsGroupId": 11421,
        "assetbundleName": "honorname_1421_03",
        "name": "わんだほい",
        "description": "鳳えむと初音ミクのキズナランクを46まで上げよう。"
    },
    {
        "id": 1142601,
        "seq": 11426010,
        "bondsGroupId": 11426,
        "assetbundleName": "honorname_1426_01",
        "name": "頼れるお兄さん",
        "description": "鳳えむとKAITOのキズナランクを5まで上げよう。"
    },
    {
        "id": 1142602,
        "seq": 11426020,
        "bondsGroupId": 11426,
        "assetbundleName": "honorname_1426_02",
        "name": "ワンダーランドの兄妹",
        "description": "鳳えむとKAITOのキズナランクを26まで上げよう。"
    },
    {
        "id": 1142603,
        "seq": 11426030,
        "bondsGroupId": 11426,
        "assetbundleName": "honorname_1426_03",
        "name": "お兄さんと一緒",
        "description": "鳳えむとKAITOのキズナランクを46まで上げよう。"
    },
    {
        "id": 1151601,
        "seq": 11516010,
        "bondsGroupId": 11516,
        "assetbundleName": "honorname_1516_01",
        "name": "お隣さん",
        "description": "草薙寧々と神代類のキズナランクを5まで上げよう。"
    },
    {
        "id": 1151602,
        "seq": 11516020,
        "bondsGroupId": 11516,
        "assetbundleName": "honorname_1516_02",
        "name": "なりたかったもの",
        "description": "草薙寧々と神代類のキズナランクを26まで上げよう。"
    },
    {
        "id": 1151603,
        "seq": 11516030,
        "bondsGroupId": 11516,
        "assetbundleName": "honorname_1516_03",
        "name": "錬金術師と人魚姫",
        "description": "草薙寧々と神代類のキズナランクを46まで上げよう。"
    },
    {
        "id": 1152101,
        "seq": 11521010,
        "bondsGroupId": 11521,
        "assetbundleName": "honorname_1521_01",
        "name": "ロボダヨー",
        "description": "草薙寧々と初音ミクのキズナランクを5まで上げよう。"
    },
    {
        "id": 1152102,
        "seq": 11521020,
        "bondsGroupId": 11521,
        "assetbundleName": "honorname_1521_02",
        "name": "もっとお話、したいな",
        "description": "草薙寧々と初音ミクのキズナランクを26まで上げよう。"
    },
    {
        "id": 1152103,
        "seq": 11521030,
        "bondsGroupId": 11521,
        "assetbundleName": "honorname_1521_03",
        "name": "一緒に歌うのだー♪",
        "description": "草薙寧々と初音ミクのキズナランクを46まで上げよう。"
    },
    {
        "id": 1152601,
        "seq": 11526010,
        "bondsGroupId": 11526,
        "assetbundleName": "honorname_1526_01",
        "name": "ワンダショの理性",
        "description": "草薙寧々とKAITOのキズナランクを5まで上げよう。"
    },
    {
        "id": 1152602,
        "seq": 11526020,
        "bondsGroupId": 11526,
        "assetbundleName": "honorname_1526_02",
        "name": "一緒だと落ち着く",
        "description": "草薙寧々とKAITOのキズナランクを26まで上げよう。"
    },
    {
        "id": 1152603,
        "seq": 11526030,
        "bondsGroupId": 11526,
        "assetbundleName": "honorname_1526_03",
        "name": "ストップ暴走！",
        "description": "草薙寧々とKAITOのキズナランクを46まで上げよう。"
    },
    {
        "id": 1162001,
        "seq": 11620010,
        "bondsGroupId": 11620,
        "assetbundleName": "honorname_1620_01",
        "name": "屋上の出会い",
        "description": "神代類と暁山瑞希のキズナランクを5まで上げよう。"
    },
    {
        "id": 1162002,
        "seq": 11620020,
        "bondsGroupId": 11620,
        "assetbundleName": "honorname_1620_02",
        "name": "孤独の理解者",
        "description": "神代類と暁山瑞希のキズナランクを26まで上げよう。"
    },
    {
        "id": 1162003,
        "seq": 11620030,
        "bondsGroupId": 11620,
        "assetbundleName": "honorname_1620_03",
        "name": "居場所を守るために",
        "description": "神代類と暁山瑞希のキズナランクを46まで上げよう。"
    },
    {
        "id": 1162101,
        "seq": 11621010,
        "bondsGroupId": 11621,
        "assetbundleName": "honorname_1621_01",
        "name": "楽しいショーを",
        "description": "神代類と初音ミクのキズナランクを5まで上げよう。"
    },
    {
        "id": 1162102,
        "seq": 11621020,
        "bondsGroupId": 11621,
        "assetbundleName": "honorname_1621_02",
        "name": "頭の中が大爆発",
        "description": "神代類と初音ミクのキズナランクを26まで上げよう。"
    },
    {
        "id": 1162103,
        "seq": 11621030,
        "bondsGroupId": 11621,
        "assetbundleName": "honorname_1621_03",
        "name": "擬音でも通じます",
        "description": "神代類と初音ミクのキズナランクを46まで上げよう。"
    },
    {
        "id": 1162601,
        "seq": 11626010,
        "bondsGroupId": 11626,
        "assetbundleName": "honorname_1626_01",
        "name": "お兄さんズ",
        "description": "神代類とKAITOのキズナランクを5まで上げよう。"
    },
    {
        "id": 1162602,
        "seq": 11626020,
        "bondsGroupId": 11626,
        "assetbundleName": "honorname_1626_02",
        "name": "錬金術師",
        "description": "神代類とKAITOのキズナランクを26まで上げよう。"
    },
    {
        "id": 1162603,
        "seq": 11626030,
        "bondsGroupId": 11626,
        "assetbundleName": "honorname_1626_03",
        "name": "ショーのプレゼント",
        "description": "神代類とKAITOのキズナランクを46まで上げよう。"
    },
    {
        "id": 1171801,
        "seq": 11718010,
        "bondsGroupId": 11718,
        "assetbundleName": "honorname_1718_01",
        "name": "キミと灯す空",
        "description": "宵崎奏と朝比奈まふゆのキズナランクを5まで上げよう。"
    },
    {
        "id": 1171802,
        "seq": 11718020,
        "bondsGroupId": 11718,
        "assetbundleName": "honorname_1718_02",
        "name": "ふたりの呪い",
        "description": "宵崎奏と朝比奈まふゆのキズナランクを26まで上げよう。"
    },
    {
        "id": 1171803,
        "seq": 11718030,
        "bondsGroupId": 11718,
        "assetbundleName": "honorname_1718_03",
        "name": "必ず救うから",
        "description": "宵崎奏と朝比奈まふゆのキズナランクを46まで上げよう。"
    },
    {
        "id": 1171901,
        "seq": 11719010,
        "bondsGroupId": 11719,
        "assetbundleName": "honorname_1719_01",
        "name": "わたしが認めるよ",
        "description": "宵崎奏と東雲絵名のキズナランクを5まで上げよう。"
    },
    {
        "id": 1171902,
        "seq": 11719020,
        "bondsGroupId": 11719,
        "assetbundleName": "honorname_1719_02",
        "name": "あなたが必要",
        "description": "宵崎奏と東雲絵名のキズナランクを26まで上げよう。"
    },
    {
        "id": 1171903,
        "seq": 11719030,
        "bondsGroupId": 11719,
        "assetbundleName": "honorname_1719_03",
        "name": "灰色へ灯す光",
        "description": "宵崎奏と東雲絵名のキズナランクを46まで上げよう。"
    },
    {
        "id": 1172001,
        "seq": 11720010,
        "bondsGroupId": 11720,
        "assetbundleName": "honorname_1720_01",
        "name": "長髪命",
        "description": "宵崎奏と暁山瑞希のキズナランクを5まで上げよう。"
    },
    {
        "id": 1172002,
        "seq": 11720020,
        "bondsGroupId": 11720,
        "assetbundleName": "honorname_1720_02",
        "name": "ミュージック/ビデオ",
        "description": "宵崎奏と暁山瑞希のキズナランクを26まで上げよう。"
    },
    {
        "id": 1172003,
        "seq": 11720030,
        "bondsGroupId": 11720,
        "assetbundleName": "honorname_1720_03",
        "name": "今はまだ、この距離で",
        "description": "宵崎奏と暁山瑞希のキズナランクを46まで上げよう。"
    },
    {
        "id": 1172101,
        "seq": 11721010,
        "bondsGroupId": 11721,
        "assetbundleName": "honorname_1721_01",
        "name": "モニタ越しの出会い",
        "description": "宵崎奏と初音ミクのキズナランクを5まで上げよう。"
    },
    {
        "id": 1172102,
        "seq": 11721020,
        "bondsGroupId": 11721,
        "assetbundleName": "honorname_1721_02",
        "name": "ここで待ってる",
        "description": "宵崎奏と初音ミクのキズナランクを26まで上げよう。"
    },
    {
        "id": 1172103,
        "seq": 11721030,
        "bondsGroupId": 11721,
        "assetbundleName": "honorname_1721_03",
        "name": "救ってほしい",
        "description": "宵崎奏と初音ミクのキズナランクを46まで上げよう。"
    },
    {
        "id": 1181901,
        "seq": 11819010,
        "bondsGroupId": 11819,
        "assetbundleName": "honorname_1819_01",
        "name": "ケンカするほど仲がいい？",
        "description": "朝比奈まふゆと東雲絵名のキズナランクを5まで上げよう。"
    },
    {
        "id": 1181902,
        "seq": 11819020,
        "bondsGroupId": 11819,
        "assetbundleName": "honorname_1819_02",
        "name": "密かな羨望",
        "description": "朝比奈まふゆと東雲絵名のキズナランクを26まで上げよう。"
    },
    {
        "id": 1181903,
        "seq": 11819030,
        "bondsGroupId": 11819,
        "assetbundleName": "honorname_1819_03",
        "name": "紡ぐ言葉、描く想い",
        "description": "朝比奈まふゆと東雲絵名のキズナランクを46まで上げよう。"
    },
    {
        "id": 1182001,
        "seq": 11820010,
        "bondsGroupId": 11820,
        "assetbundleName": "honorname_1820_01",
        "name": "見抜く眼",
        "description": "朝比奈まふゆと暁山瑞希のキズナランクを5まで上げよう。"
    },
    {
        "id": 1182002,
        "seq": 11820020,
        "bondsGroupId": 11820,
        "assetbundleName": "honorname_1820_02",
        "name": "絡まった糸",
        "description": "朝比奈まふゆと暁山瑞希のキズナランクを26まで上げよう。"
    },
    {
        "id": 1182003,
        "seq": 11820030,
        "bondsGroupId": 11820,
        "assetbundleName": "honorname_1820_03",
        "name": "言葉にできない想い",
        "description": "朝比奈まふゆと暁山瑞希のキズナランクを46まで上げよう。"
    },
    {
        "id": 1182101,
        "seq": 11821010,
        "bondsGroupId": 11821,
        "assetbundleName": "honorname_1821_01",
        "name": "寄り添うぬくもり",
        "description": "朝比奈まふゆと初音ミクのキズナランクを5まで上げよう。"
    },
    {
        "id": 1182102,
        "seq": 11821020,
        "bondsGroupId": 11821,
        "assetbundleName": "honorname_1821_02",
        "name": "孤独なセカイ",
        "description": "朝比奈まふゆと初音ミクのキズナランクを26まで上げよう。"
    },
    {
        "id": 1182103,
        "seq": 11821030,
        "bondsGroupId": 11821,
        "assetbundleName": "honorname_1821_03",
        "name": "いつか、その日まで",
        "description": "朝比奈まふゆと初音ミクのキズナランクを46まで上げよう。"
    },
    {
        "id": 1192001,
        "seq": 11920010,
        "bondsGroupId": 11920,
        "assetbundleName": "honorname_1920_01",
        "name": "MVを作ろう",
        "description": "東雲絵名と暁山瑞希のキズナランクを5まで上げよう。"
    },
    {
        "id": 1192002,
        "seq": 11920020,
        "bondsGroupId": 11920,
        "assetbundleName": "honorname_1920_02",
        "name": "友達だから",
        "description": "東雲絵名と暁山瑞希のキズナランクを26まで上げよう。"
    },
    {
        "id": 1192003,
        "seq": 11920030,
        "bondsGroupId": 11920,
        "assetbundleName": "honorname_1920_03",
        "name": "いつか境界線を越えて",
        "description": "東雲絵名と暁山瑞希のキズナランクを46まで上げよう。"
    },
    {
        "id": 1192101,
        "seq": 11921010,
        "bondsGroupId": 11921,
        "assetbundleName": "honorname_1921_01",
        "name": "意外と世話焼き",
        "description": "東雲絵名と初音ミクのキズナランクを5まで上げよう。"
    },
    {
        "id": 1192102,
        "seq": 11921020,
        "bondsGroupId": 11921,
        "assetbundleName": "honorname_1921_02",
        "name": "楽しいぬり絵",
        "description": "東雲絵名と初音ミクのキズナランクを26まで上げよう。"
    },
    {
        "id": 1192103,
        "seq": 11921030,
        "bondsGroupId": 11921,
        "assetbundleName": "honorname_1921_03",
        "name": "お姉ちゃん力発揮",
        "description": "東雲絵名と初音ミクのキズナランクを46まで上げよう。"
    },
    {
        "id": 1202101,
        "seq": 12021010,
        "bondsGroupId": 12021,
        "assetbundleName": "honorname_2021_01",
        "name": "カワイイを教えたい",
        "description": "暁山瑞希と初音ミクのキズナランクを5まで上げよう。"
    },
    {
        "id": 1202102,
        "seq": 12021020,
        "bondsGroupId": 12021,
        "assetbundleName": "honorname_2021_02",
        "name": "あやとりしよう",
        "description": "暁山瑞希と初音ミクのキズナランクを26まで上げよう。"
    },
    {
        "id": 1202103,
        "seq": 12021030,
        "bondsGroupId": 12021,
        "assetbundleName": "honorname_2021_03",
        "name": "やさしい距離",
        "description": "暁山瑞希と初音ミクのキズナランクを46まで上げよう。"
    },
    {
        "id": 1212201,
        "seq": 12122010,
        "bondsGroupId": 12122,
        "assetbundleName": "honorname_2122_01",
        "name": "姉妹のようなふたり",
        "description": "初音ミクと鏡音リンのキズナランクを5まで上げよう。"
    },
    {
        "id": 1212202,
        "seq": 12122020,
        "bondsGroupId": 12122,
        "assetbundleName": "honorname_2122_02",
        "name": "同世代ガールズ",
        "description": "初音ミクと鏡音リンのキズナランクを26まで上げよう。"
    },
    {
        "id": 1212203,
        "seq": 12122030,
        "bondsGroupId": 12122,
        "assetbundleName": "honorname_2122_03",
        "name": "幼きディーヴァ達",
        "description": "初音ミクと鏡音リンのキズナランクを46まで上げよう。"
    },
    {
        "id": 1212301,
        "seq": 12123010,
        "bondsGroupId": 12123,
        "assetbundleName": "honorname_2123_01",
        "name": "姉弟のようなふたり",
        "description": "初音ミクと鏡音レンのキズナランクを5まで上げよう。"
    },
    {
        "id": 1212302,
        "seq": 12123020,
        "bondsGroupId": 12123,
        "assetbundleName": "honorname_2123_02",
        "name": "その日その日の味",
        "description": "初音ミクと鏡音レンのキズナランクを26まで上げよう。"
    },
    {
        "id": 1212303,
        "seq": 12123030,
        "bondsGroupId": 12123,
        "assetbundleName": "honorname_2123_03",
        "name": "よき理解者",
        "description": "初音ミクと鏡音レンのキズナランクを46まで上げよう。"
    },
    {
        "id": 1212401,
        "seq": 12124010,
        "bondsGroupId": 12124,
        "assetbundleName": "honorname_2124_01",
        "name": "ロングヘアの歌姫",
        "description": "初音ミクと巡音ルカのキズナランクを5まで上げよう。"
    },
    {
        "id": 1212402,
        "seq": 12124020,
        "bondsGroupId": 12124,
        "assetbundleName": "honorname_2124_02",
        "name": "キュート&クール",
        "description": "初音ミクと巡音ルカのキズナランクを26まで上げよう。"
    },
    {
        "id": 1212403,
        "seq": 12124030,
        "bondsGroupId": 12124,
        "assetbundleName": "honorname_2124_03",
        "name": "いつかのダンスホール",
        "description": "初音ミクと巡音ルカのキズナランクを46まで上げよう。"
    },
    {
        "id": 1212501,
        "seq": 12125010,
        "bondsGroupId": 12125,
        "assetbundleName": "honorname_2125_01",
        "name": "最強チーム",
        "description": "初音ミクとMEIKOのキズナランクを5まで上げよう。"
    },
    {
        "id": 1212502,
        "seq": 12125020,
        "bondsGroupId": 12125,
        "assetbundleName": "honorname_2125_02",
        "name": "パワフルシンガー",
        "description": "初音ミクとMEIKOのキズナランクを26まで上げよう。"
    },
    {
        "id": 1212503,
        "seq": 12125030,
        "bondsGroupId": 12125,
        "assetbundleName": "honorname_2125_03",
        "name": "double M",
        "description": "初音ミクとMEIKOのキズナランクを46まで上げよう。"
    },
    {
        "id": 1212601,
        "seq": 12126010,
        "bondsGroupId": 12126,
        "assetbundleName": "honorname_2126_01",
        "name": "寒色シンガーズ",
        "description": "初音ミクとKAITOのキズナランクを5まで上げよう。"
    },
    {
        "id": 1212602,
        "seq": 12126020,
        "bondsGroupId": 12126,
        "assetbundleName": "honorname_2126_02",
        "name": "ふたりのマジシャン",
        "description": "初音ミクとKAITOのキズナランクを26まで上げよう。"
    },
    {
        "id": 1212603,
        "seq": 12126030,
        "bondsGroupId": 12126,
        "assetbundleName": "honorname_2126_03",
        "name": "終わるからこそ、始まる",
        "description": "初音ミクとKAITOのキズナランクを46まで上げよう。"
    },
    {
        "id": 1222301,
        "seq": 12223010,
        "bondsGroupId": 12223,
        "assetbundleName": "honorname_2223_01",
        "name": "鏡音コンビ",
        "description": "鏡音リンと鏡音レンのキズナランクを5まで上げよう。"
    },
    {
        "id": 1222302,
        "seq": 12223020,
        "bondsGroupId": 12223,
        "assetbundleName": "honorname_2223_02",
        "name": "いつも一緒",
        "description": "鏡音リンと鏡音レンのキズナランクを26まで上げよう。"
    },
    {
        "id": 1222303,
        "seq": 12223030,
        "bondsGroupId": 12223,
        "assetbundleName": "honorname_2223_03",
        "name": "ヒートアップ",
        "description": "鏡音リンと鏡音レンのキズナランクを46まで上げよう。"
    },
    {
        "id": 1222401,
        "seq": 12224010,
        "bondsGroupId": 12224,
        "assetbundleName": "honorname_2224_01",
        "name": "ちょっとだけ背伸び",
        "description": "鏡音リンと巡音ルカのキズナランクを5まで上げよう。"
    },
    {
        "id": 1222402,
        "seq": 12224020,
        "bondsGroupId": 12224,
        "assetbundleName": "honorname_2224_02",
        "name": "ポップ＆クール",
        "description": "鏡音リンと巡音ルカのキズナランクを26まで上げよう。"
    },
    {
        "id": 1222403,
        "seq": 12224030,
        "bondsGroupId": 12224,
        "assetbundleName": "honorname_2224_03",
        "name": "頼り頼られ",
        "description": "鏡音リンと巡音ルカのキズナランクを46まで上げよう。"
    },
    {
        "id": 1222501,
        "seq": 12225010,
        "bondsGroupId": 12225,
        "assetbundleName": "honorname_2225_01",
        "name": "ガールズトーク",
        "description": "鏡音リンとMEIKOのキズナランクを5まで上げよう。"
    },
    {
        "id": 1222502,
        "seq": 12225020,
        "bondsGroupId": 12225,
        "assetbundleName": "honorname_2225_02",
        "name": "ふたつのレモンソーダ",
        "description": "鏡音リンとMEIKOのキズナランクを26まで上げよう。"
    },
    {
        "id": 1222503,
        "seq": 12225030,
        "bondsGroupId": 12225,
        "assetbundleName": "honorname_2225_03",
        "name": "セクシー&キュート",
        "description": "鏡音リンとMEIKOのキズナランクを46まで上げよう。"
    },
    {
        "id": 1222601,
        "seq": 12226010,
        "bondsGroupId": 12226,
        "assetbundleName": "honorname_2226_01",
        "name": "あったかマフラー",
        "description": "鏡音リンとKAITOのキズナランクを5まで上げよう。"
    },
    {
        "id": 1222602,
        "seq": 12226020,
        "bondsGroupId": 12226,
        "assetbundleName": "honorname_2226_02",
        "name": "いたずらしちゃうよ",
        "description": "鏡音リンとKAITOのキズナランクを26まで上げよう。"
    },
    {
        "id": 1222603,
        "seq": 12226030,
        "bondsGroupId": 12226,
        "assetbundleName": "honorname_2226_03",
        "name": "いつでも遊ぼう",
        "description": "鏡音リンとKAITOのキズナランクを46まで上げよう。"
    },
    {
        "id": 1232401,
        "seq": 12324010,
        "bondsGroupId": 12324,
        "assetbundleName": "honorname_2324_01",
        "name": "想いと歌をひとつに！",
        "description": "鏡音レンと巡音ルカのキズナランクを5まで上げよう。"
    },
    {
        "id": 1232402,
        "seq": 12324020,
        "bondsGroupId": 12324,
        "assetbundleName": "honorname_2324_02",
        "name": "みんなに届けましょ",
        "description": "鏡音レンと巡音ルカのキズナランクを26まで上げよう。"
    },
    {
        "id": 1232403,
        "seq": 12324030,
        "bondsGroupId": 12324,
        "assetbundleName": "honorname_2324_03",
        "name": "次もばっちり決めるよ",
        "description": "鏡音レンと巡音ルカのキズナランクを46まで上げよう。"
    },
    {
        "id": 1232501,
        "seq": 12325010,
        "bondsGroupId": 12325,
        "assetbundleName": "honorname_2325_01",
        "name": "STOPカラー",
        "description": "鏡音レンとMEIKOのキズナランクを5まで上げよう。"
    },
    {
        "id": 1232502,
        "seq": 12325020,
        "bondsGroupId": 12325,
        "assetbundleName": "honorname_2325_02",
        "name": "この調子でいくわよ！",
        "description": "鏡音レンとMEIKOのキズナランクを26まで上げよう。"
    },
    {
        "id": 1232503,
        "seq": 12325030,
        "bondsGroupId": 12325,
        "assetbundleName": "honorname_2325_03",
        "name": "お見通し",
        "description": "鏡音レンとMEIKOのキズナランクを46まで上げよう。"
    },
    {
        "id": 1232601,
        "seq": 12326010,
        "bondsGroupId": 12326,
        "assetbundleName": "honorname_2326_01",
        "name": "チーム男子",
        "description": "鏡音レンとKAITOのキズナランクを5まで上げよう。"
    },
    {
        "id": 1232602,
        "seq": 12326020,
        "bondsGroupId": 12326,
        "assetbundleName": "honorname_2326_02",
        "name": "シンガーボーイズ",
        "description": "鏡音レンとKAITOのキズナランクを26まで上げよう。"
    },
    {
        "id": 1232603,
        "seq": 12326030,
        "bondsGroupId": 12326,
        "assetbundleName": "honorname_2326_03",
        "name": "歌姫達には負けない",
        "description": "鏡音レンとKAITOのキズナランクを46まで上げよう。"
    },
    {
        "id": 1242501,
        "seq": 12425010,
        "bondsGroupId": 12425,
        "assetbundleName": "honorname_2425_01",
        "name": "綺麗なお姉さん",
        "description": "巡音ルカとMEIKOのキズナランクを5まで上げよう。"
    },
    {
        "id": 1242502,
        "seq": 12425020,
        "bondsGroupId": 12425,
        "assetbundleName": "honorname_2425_02",
        "name": "クールビューティー",
        "description": "巡音ルカとMEIKOのキズナランクを26まで上げよう。"
    },
    {
        "id": 1242503,
        "seq": 12425030,
        "bondsGroupId": 12425,
        "assetbundleName": "honorname_2425_03",
        "name": "想いに応えられるように",
        "description": "巡音ルカとMEIKOのキズナランクを46まで上げよう。"
    },
    {
        "id": 1242601,
        "seq": 12426010,
        "bondsGroupId": 12426,
        "assetbundleName": "honorname_2426_01",
        "name": "落ち着きのあるふたり",
        "description": "巡音ルカとKAITOのキズナランクを5まで上げよう。"
    },
    {
        "id": 1242602,
        "seq": 12426020,
        "bondsGroupId": 12426,
        "assetbundleName": "honorname_2426_02",
        "name": "練習のかいがあったよ",
        "description": "巡音ルカとKAITOのキズナランクを26まで上げよう。"
    },
    {
        "id": 1242603,
        "seq": 12426030,
        "bondsGroupId": 12426,
        "assetbundleName": "honorname_2426_03",
        "name": "今の表現、良かったわ",
        "description": "巡音ルカとKAITOのキズナランクを46まで上げよう。"
    },
    {
        "id": 1252601,
        "seq": 12526010,
        "bondsGroupId": 12526,
        "assetbundleName": "honorname_2526_01",
        "name": "はじまりのシンガー",
        "description": "MEIKOとKAITOのキズナランクを5まで上げよう。"
    },
    {
        "id": 1252602,
        "seq": 12526020,
        "bondsGroupId": 12526,
        "assetbundleName": "honorname_2526_02",
        "name": "アフォガード",
        "description": "MEIKOとKAITOのキズナランクを26まで上げよう。"
    },
    {
        "id": 1252603,
        "seq": 12526030,
        "bondsGroupId": 12526,
        "assetbundleName": "honorname_2526_03",
        "name": "年長組",
        "description": "MEIKOとKAITOのキズナランクを46まで上げよう。"
    }
]