[
    {
        "characterId": 1,
        "characterVoice": "野口瑠璃子",
        "birthday": "8月11日",
        "height": "161cm",
        "school": "宮益坂女子学園",
        "schoolYear": "１ーC",
        "hobby": "ミクの歌を聴くこと、育てているサボテンを眺める",
        "specialSkill": "りんごの皮むき",
        "favoriteFood": "焼きそばパン",
        "hatedFood": "グリーンピース",
        "weak": "絶叫アトラクション",
        "introduction": "クールに見えて、本当は友人想いの優しい少女。咲希、穂波、志歩とは幼馴染みだが、ある事情から穂波と志歩とは関係がぎくしゃくしている。ミクの歌を聴くことが好き。Leo/needではギターとボーカル担当。",
        "scenarioId": "self_ichika"
    },
    {
        "characterId": 2,
        "characterVoice": "礒部花凜",
        "birthday": "5月9日",
        "height": "159cm",
        "school": "宮益坂女子学園",
        "schoolYear": "１ーC",
        "hobby": "ファッション・メイク動画視聴、ビーズアクセサリー作り",
        "specialSkill": "ヘアアレンジ、お手玉",
        "favoriteFood": "スナック菓子",
        "hatedFood": "おかゆ",
        "weak": "一人ぼっち",
        "introduction": "いつも明るく、笑顔を絶やさないムードメーカー。生まれつき病弱だったせいで中学校はなかなか通えなかったが、ようやく元気になり、高校から復学する。久しぶりに再会できる幼馴染みたちとの楽しい高校生活を期待していたが……。Leo/needではキーボード担当。",
        "scenarioId": "self_saki"
    },
    {
        "characterId": 3,
        "characterVoice": "上田麗奈",
        "birthday": "10月27日",
        "height": "166cm",
        "school": "宮益坂女子学園",
        "schoolYear": "１ーB",
        "hobby": "飼い犬の散歩、家庭菜園",
        "specialSkill": "家事全般、水泳",
        "favoriteFood": "アップルパイ",
        "hatedFood": "チーズ",
        "weak": "絵を描くこと",
        "introduction": "文武両道の優等生で、包み込むような優しさを持つ。一歌、咲希、志歩とは幼馴染みだったが、中学時代のあることがきっかけで一歌たちとは距離を置くようになってしまう。Leo/needではドラム担当。",
        "scenarioId": "self_honami"
    },
    {
        "characterId": 4,
        "characterVoice": "中島由貴",
        "birthday": "1月8日",
        "height": "159cm",
        "school": "宮益坂女子学園",
        "schoolYear": "１ーA",
        "hobby": "好きなガールズバンドのライブに行く、ベースの練習・演奏",
        "specialSkill": "書道",
        "favoriteFood": "ラーメン、ハンバーグ",
        "hatedFood": "豆腐",
        "weak": "姉",
        "introduction": "馴れ合いを嫌う一匹狼。自分の好きなことに没頭し、周囲の人間にどう思われようが気にしない。そんな彼女も、かつては幼馴染みたちと行動を共にしており、友人たちのことも大切に思っていたのだが……。Leo/needではベース担当。",
        "scenarioId": "self_shiho"
    },
    {
        "characterId": 5,
        "characterVoice": "小倉唯",
        "birthday": "4月14日",
        "height": "158cm",
        "school": "宮益坂女子学園",
        "schoolYear": "１ーA",
        "hobby": "振りコピ、日記をつけること、動物の世話",
        "specialSkill": "キャッチフレーズをつけること",
        "favoriteFood": "サーモン",
        "hatedFood": "ブロッコリー",
        "weak": "落ち着いた行動",
        "introduction": "純粋でひたむきな頑張り屋。アイドルグループ『ASRUN』の桐谷遥を目にしてから、アイドルを目指すようになった。様々なオーディションを受けるが、落ち続けている。",
        "scenarioId": "self_minori"
    },
    {
        "characterId": 6,
        "characterVoice": "吉岡茉祐",
        "birthday": "10月5日",
        "height": "163cm",
        "school": "宮益坂女子学園",
        "schoolYear": "１ーC",
        "hobby": "ペンギングッズあつめ",
        "specialSkill": "バスケットボール",
        "favoriteFood": "甘いもの全般",
        "hatedFood": "ワサビ",
        "weak": "怠けること",
        "introduction": "国民的人気アイドルグループ『ASRUN』に所属。カリスマ的な存在で、グループ内でも絶大な人気を誇っていた。だが、グループの解散を機に芸能界を引退し、みのりが通う宮益坂女子学園に復学する。",
        "scenarioId": "self_haruka"
    },
    {
        "characterId": 7,
        "characterVoice": "降幡愛",
        "birthday": "3月19日",
        "height": "156cm",
        "school": "宮益坂女子学園",
        "schoolYear": "２ーD",
        "hobby": "アイドル研究、ショッピング",
        "specialSkill": "料理、子供の面倒を見ること",
        "favoriteFood": "和菓子",
        "hatedFood": "レバー",
        "weak": "ネコ（アレルギー）",
        "introduction": "バラエティ番組などに出演し、かつて人気を博していた元アイドル。自信家で強引な面もあるが、アイドルの仕事に愛と情熱と強い誇りを持っていた。今では、ある事情から事務所をやめ、アイドルも引退してしまっている。",
        "scenarioId": "self_airi"
    },
    {
        "characterId": 8,
        "characterVoice": "本泉莉奈",
        "birthday": "12月6日",
        "height": "168cm",
        "school": "宮益坂女子学園",
        "schoolYear": "２ーD",
        "hobby": "読書、散歩",
        "specialSkill": "弓道、刺繍",
        "favoriteFood": "うどん、湯葉",
        "hatedFood": "辛いもの全般",
        "weak": "地図を読むこと、機械の操作",
        "introduction": "人気アイドルグループ『Cheerful＊Days』に所属している現役アイドル。ミステリアスな大人の魅力を感じさせる容姿で、ファンを虜にしている。しかし、グループの仲間からは妬まれることも。愛莉とは研究生時代の同期。",
        "scenarioId": "self_shizuku"
    },
    {
        "characterId": 9,
        "characterVoice": "秋奈",
        "birthday": "3月2日",
        "height": "156cm",
        "school": "宮益坂女子学園",
        "schoolYear": "１ーA",
        "hobby": "父親が飼っているヘビのお世話",
        "specialSkill": "写真",
        "favoriteFood": "桃まん、ごま団子",
        "hatedFood": "酢の物",
        "weak": "人前に立つこと",
        "introduction": "とても内気で、自分に自信がない少女。ある日、偶然通りがかったライブカフェ&バーで杏とミュージシャンがセッションしているのを目撃。学校の音楽では聴いたことも見たこともない、ラップや激しいテンポの音楽に衝撃を受け、虜になってしまう。",
        "scenarioId": "self_kohane"
    },
    {
        "characterId": 10,
        "characterVoice": "鷲見友美ジェナ",
        "birthday": "7月26日",
        "height": "160cm",
        "school": "神山高校",
        "schoolYear": "１ーA",
        "hobby": "ミント栽培",
        "specialSkill": "コーヒーや紅茶を淹れること",
        "favoriteFood": "ラムレーズンのアイス",
        "hatedFood": "トマト",
        "weak": "幽霊、怪談話",
        "introduction": "サバサバとした勝気な性格。父は元ミュージシャンで、シブヤのストリートではかなり有名。そんな父がかつておこなったライブイベント『RAD WEEKEND』をこえる、最高のイベントを自分の手でつくることを夢見ている。",
        "scenarioId": "self_an"
    },
    {
        "characterId": 11,
        "characterVoice": "今井文也",
        "birthday": "11月12日",
        "height": "174cm",
        "school": "神山高校",
        "schoolYear": "１ーC",
        "hobby": "ファッションコーディネート",
        "specialSkill": "ヒューマンビートボックス",
        "favoriteFood": "パンケーキ、チーズケーキ",
        "hatedFood": "にんじん",
        "weak": "犬",
        "introduction": "杏の父に憧れて、中学時代から音楽活動をしている。相棒の冬弥とは『BAD DOGS』という名前でイベントハウスなどで歌っている。一見、人当たりがよさそうに見えるのだが……。",
        "scenarioId": "self_akito"
    },
    {
        "characterId": 12,
        "characterVoice": "伊東健人",
        "birthday": "5月25日",
        "height": "178cm",
        "school": "神山高校",
        "schoolYear": "１ーB",
        "hobby": "読書",
        "specialSkill": "ピアノ、バイオリン",
        "favoriteFood": "コーヒー、クッキー",
        "hatedFood": "イカ",
        "weak": "高い所",
        "introduction": "クールで無口。クラシック音楽に携わる厳格な父がおり、幼少期から英才教育を受けていたため、音楽センスは抜群。だが、父に嫌気がさし路上での音楽活動を始めた。",
        "scenarioId": "self_touya"
    },
    {
        "characterId": 13,
        "characterVoice": "廣瀬大介",
        "birthday": "5月17日",
        "height": "172cm",
        "school": "神山高校",
        "schoolYear": "２ーA",
        "hobby": "ミュージカル観劇、衣装づくり",
        "specialSkill": "どんな時も即カッコいいポーズができる、ピアノ",
        "favoriteFood": "アクアパッツァ、生姜焼き",
        "hatedFood": "ピーマン",
        "weak": "虫（特に多足）",
        "introduction": "自信過剰な目立ちたがり屋。調子に乗りやすく、また乗せられやすい。子供の頃に見た劇団のショーに憧れ、世界一のスターを目指している。病弱な妹・咲希を励まし、兄として頼れる一面も見せる。",
        "scenarioId": "self_tsukasa"
    },
    {
        "characterId": 14,
        "characterVoice": "木野日菜",
        "birthday": "9月9日",
        "height": "152cm",
        "school": "宮益坂女子学園",
        "schoolYear": "１ーB",
        "hobby": "ご近所探検",
        "specialSkill": "アクロバット、なんでも美味しく食べられる",
        "favoriteFood": "鯛焼き",
        "hatedFood": "なし！",
        "weak": "夕暮れ",
        "introduction": "底抜けに明るい、天真爛漫な性格。思い立ったら即アクションを起こしてしまうため、いつのまにか周囲を巻き込むこともしばしば。フェニックスワンダーランドのさびれたステージをどうにか復活させようと、一緒にステージに立ってくれる人を探している。",
        "scenarioId": "self_emu"
    },
    {
        "characterId": 15,
        "characterVoice": "Machico",
        "birthday": "7月20日",
        "height": "156cm",
        "school": "神山高校",
        "schoolYear": "１ーB",
        "hobby": "対戦ゲーム、ミュージカル・映画鑑賞",
        "specialSkill": "歌、機械の操作全般",
        "favoriteFood": "グレープフルーツ",
        "hatedFood": "ミント味の食べ物",
        "weak": "人通りの多い場所",
        "introduction": "類の推薦でメンバーに加わることになった毒舌少女。ミュージカルの舞台を夢見ているその歌声はとても高校生とは思えないレベル。しかし、なぜか司やえむの前には姿を現さず、ネネロボというロボを操作し、自分の代わりにステージに立たせている。",
        "scenarioId": "self_nene"
    },
    {
        "characterId": 16,
        "characterVoice": "土岐隼一",
        "birthday": "6月24日",
        "height": "180cm",
        "school": "神山高校",
        "schoolYear": "２ーB",
        "hobby": "ショーの演出を考えること、バルーンアート",
        "specialSkill": "発明",
        "favoriteFood": "ラムネ菓子",
        "hatedFood": "野菜全般",
        "weak": "掃除、単純作業",
        "introduction": "マイペースな天才。寧々とは家も隣同士で、幼馴染み。ステージの演出を手掛ける一方で、得意な機械いじりや発明を活かしてショー用のロボットを作っている。独特の発想をするため周囲からは変人扱いされることが多い。",
        "scenarioId": "self_rui"
    },
    {
        "characterId": 17,
        "characterVoice": "楠木ともり",
        "birthday": "2月10日",
        "height": "154cm",
        "school": "通信制高校",
        "schoolYear": "ー",
        "hobby": "音楽を探して聴くこと、映画や漫画、アニメ、美術作品を見ること",
        "specialSkill": "感覚で時間を計れる",
        "favoriteFood": "カップ麺、缶詰",
        "hatedFood": "パクチーや納豆など、においが独特な物",
        "weak": "直射日光、家事全般",
        "introduction": "自分の音楽が大切な人を絶望させてしまったトラウマを持つ。その経験から、「誰かを幸せにする曲をつくり続けなければならない」と考えるようになり、『25時、ナイトコードで。』を結成。主に作曲を担当している。",
        "scenarioId": "self_kanade"
    },
    {
        "characterId": 18,
        "characterVoice": "田辺留依",
        "birthday": "1月27日",
        "height": "162cm",
        "school": "宮益坂女子学園",
        "schoolYear": "２ーB",
        "hobby": "アクアリウム",
        "specialSkill": "英会話",
        "favoriteFood": "お母さんの手料理",
        "hatedFood": "わからない",
        "weak": "わからない",
        "introduction": "明るくユーモアもあり、誰からも頼られる優等生。サークルメンバーの中で、唯一学校にも普通に通っている。サークル活動の中でも、作詞を担当しながら様々な気遣いを見せる。一見、完璧な優等生に見えるが……？",
        "scenarioId": "self_mafuyu"
    },
    {
        "characterId": 19,
        "characterVoice": "鈴木みのり",
        "birthday": "4月30日",
        "height": "158cm",
        "school": "神山高校（夜間定時制）",
        "schoolYear": "２ーD",
        "hobby": "絵を描くこと、自撮り＆SNSにアップ、エゴサーチ",
        "specialSkill": "ファッション小物のリサーチ、料理の食材当て",
        "favoriteFood": "パンケーキ、チーズケーキ",
        "hatedFood": "にんじん",
        "weak": "朝起きること",
        "introduction": "承認されたいという気持ちが強く、SNS依存気味。父親は有名な画家で、自身も絵を描いて投稿していた。それを見つけた奏に声をかけられメンバーに。サークルでは主に動画用のイラストを担当している。",
        "scenarioId": "self_ena"
    },
    {
        "characterId": 20,
        "characterVoice": "佐藤日向",
        "birthday": "8月27日",
        "height": "163cm",
        "school": "神山高校",
        "schoolYear": "１ーA",
        "hobby": "動画素材集め、コラージュ",
        "specialSkill": "洋服のアレンジ",
        "favoriteFood": "カレーライス、フライドポテト",
        "hatedFood": "きのこ系",
        "weak": "熱い食べ物",
        "introduction": "可愛いものが大好きな気分屋。たまたま聴いた奏の曲に惹かれるものを感じ、MVをつくって投稿する。それが奏自身の目に留まり、動画担当として誘われた。サークルメンバーの誰も知らない秘密がある。",
        "scenarioId": "self_mizuki"
    },
    {
        "characterId": 21,
        "birthday": "8月31日",
        "height": "158cm",
        "introduction": "ブルーグリーンのツインテールが特徴的な少女バーチャル・シンガー。ハツラツとした明るく可愛い歌声で様々なジャンルの歌を歌う。バーチャル・シンガーの中でも、世代を問わず世界的に名前が知られている。",
        "scenarioId": "self_miku"
    },
    {
        "characterId": 22,
        "birthday": "12月27日",
        "height": "152cm",
        "introduction": "大きなリボンを着けたブロンドボブヘアが特徴的な少女バーチャル・シンガー。鏡音レンとはツイン・ボーカル。キュートで元気な見た目にぴったりな、チャーミングな歌声を持っている。",
        "scenarioId": "self_rin"
    },
    {
        "characterId": 23,
        "birthday": "12月27日",
        "height": "156cm",
        "introduction": "短く後ろに結ばれたブロンドヘアが特徴的な少年バーチャル・シンガー。鏡音リンとはツイン・ボーカル。少年らしい芯のあるパワフルな歌声の中に感情表現の豊かさもかね備えている。",
        "scenarioId": "self_len"
    },
    {
        "characterId": 24,
        "birthday": "1月30日",
        "height": "162cm",
        "introduction": "ピンクのロングヘアが特徴的な女性バーチャル・シンガー。落ちついた物腰によく合う柔らかい歌声を持つ一方、時には情熱的な歌声を聴かせることも。バイリンガルで、日本語と英語で歌うことができる。",
        "scenarioId": "self_luka"
    },
    {
        "characterId": 25,
        "birthday": "11月5日",
        "height": "167cm",
        "introduction": "栗色のショートボブと、赤いショート丈のトップスとミニスカートが特徴的な女性バーチャル・シンガー。安定感のある抜群の歌唱力と、女性ならではの優しく温かみのある声質を持っている。",
        "scenarioId": "self_meiko"
    },
    {
        "characterId": 26,
        "birthday": "2月17日",
        "height": "175cm",
        "introduction": "若干外ハネしたダークブルーの髪と、青いロングマフラーの衣装が特徴的な男性バーチャル・シンガー。清涼感のある素直な歌声で、男性らしい厚みのある低音から伸びのある高音まで歌いわける。",
        "scenarioId": "self_kaito"
    }
]