[
    {
        "id": 1,
        "eventId": 18,
        "cheerfulCarnivalTeamPointTermType": "cheerful_carnival_team_point_1st",
        "cheerfulCarnivalResultType": "victory",
        "resourceBoxId": 1
    },
    {
        "id": 2,
        "eventId": 18,
        "cheerfulCarnivalTeamPointTermType": "cheerful_carnival_team_point_1st",
        "cheerfulCarnivalResultType": "defeat",
        "resourceBoxId": 2
    },
    {
        "id": 3,
        "eventId": 18,
        "cheerfulCarnivalTeamPointTermType": "cheerful_carnival_team_point_1st",
        "cheerfulCarnivalResultType": "draw",
        "resourceBoxId": 2
    },
    {
        "id": 4,
        "eventId": 18,
        "cheerfulCarnivalTeamPointTermType": "cheerful_carnival_team_point_2nd",
        "cheerfulCarnivalResultType": "victory",
        "resourceBoxId": 1
    },
    {
        "id": 5,
        "eventId": 18,
        "cheerfulCarnivalTeamPointTermType": "cheerful_carnival_team_point_2nd",
        "cheerfulCarnivalResultType": "defeat",
        "resourceBoxId": 2
    },
    {
        "id": 6,
        "eventId": 18,
        "cheerfulCarnivalTeamPointTermType": "cheerful_carnival_team_point_2nd",
        "cheerfulCarnivalResultType": "draw",
        "resourceBoxId": 2
    },
    {
        "id": 7,
        "eventId": 18,
        "cheerfulCarnivalTeamPointTermType": "cheerful_carnival_team_point_final",
        "cheerfulCarnivalResultType": "victory",
        "resourceBoxId": 3
    },
    {
        "id": 8,
        "eventId": 18,
        "cheerfulCarnivalTeamPointTermType": "cheerful_carnival_team_point_final",
        "cheerfulCarnivalResultType": "defeat",
        "resourceBoxId": 4
    },
    {
        "id": 9,
        "eventId": 21,
        "cheerfulCarnivalTeamPointTermType": "cheerful_carnival_team_point_1st",
        "cheerfulCarnivalResultType": "victory",
        "resourceBoxId": 1
    },
    {
        "id": 10,
        "eventId": 21,
        "cheerfulCarnivalTeamPointTermType": "cheerful_carnival_team_point_1st",
        "cheerfulCarnivalResultType": "defeat",
        "resourceBoxId": 2
    },
    {
        "id": 11,
        "eventId": 21,
        "cheerfulCarnivalTeamPointTermType": "cheerful_carnival_team_point_1st",
        "cheerfulCarnivalResultType": "draw",
        "resourceBoxId": 2
    },
    {
        "id": 12,
        "eventId": 21,
        "cheerfulCarnivalTeamPointTermType": "cheerful_carnival_team_point_2nd",
        "cheerfulCarnivalResultType": "victory",
        "resourceBoxId": 1
    },
    {
        "id": 13,
        "eventId": 21,
        "cheerfulCarnivalTeamPointTermType": "cheerful_carnival_team_point_2nd",
        "cheerfulCarnivalResultType": "defeat",
        "resourceBoxId": 2
    },
    {
        "id": 14,
        "eventId": 21,
        "cheerfulCarnivalTeamPointTermType": "cheerful_carnival_team_point_2nd",
        "cheerfulCarnivalResultType": "draw",
        "resourceBoxId": 2
    },
    {
        "id": 15,
        "eventId": 21,
        "cheerfulCarnivalTeamPointTermType": "cheerful_carnival_team_point_final",
        "cheerfulCarnivalResultType": "victory",
        "resourceBoxId": 3
    },
    {
        "id": 16,
        "eventId": 21,
        "cheerfulCarnivalTeamPointTermType": "cheerful_carnival_team_point_final",
        "cheerfulCarnivalResultType": "defeat",
        "resourceBoxId": 4
    },
    {
        "id": 17,
        "eventId": 24,
        "cheerfulCarnivalTeamPointTermType": "cheerful_carnival_team_point_1st",
        "cheerfulCarnivalResultType": "victory",
        "resourceBoxId": 1
    },
    {
        "id": 18,
        "eventId": 24,
        "cheerfulCarnivalTeamPointTermType": "cheerful_carnival_team_point_1st",
        "cheerfulCarnivalResultType": "defeat",
        "resourceBoxId": 2
    },
    {
        "id": 19,
        "eventId": 24,
        "cheerfulCarnivalTeamPointTermType": "cheerful_carnival_team_point_1st",
        "cheerfulCarnivalResultType": "draw",
        "resourceBoxId": 2
    },
    {
        "id": 20,
        "eventId": 24,
        "cheerfulCarnivalTeamPointTermType": "cheerful_carnival_team_point_2nd",
        "cheerfulCarnivalResultType": "victory",
        "resourceBoxId": 1
    },
    {
        "id": 21,
        "eventId": 24,
        "cheerfulCarnivalTeamPointTermType": "cheerful_carnival_team_point_2nd",
        "cheerfulCarnivalResultType": "defeat",
        "resourceBoxId": 2
    },
    {
        "id": 22,
        "eventId": 24,
        "cheerfulCarnivalTeamPointTermType": "cheerful_carnival_team_point_2nd",
        "cheerfulCarnivalResultType": "draw",
        "resourceBoxId": 2
    },
    {
        "id": 23,
        "eventId": 24,
        "cheerfulCarnivalTeamPointTermType": "cheerful_carnival_team_point_final",
        "cheerfulCarnivalResultType": "victory",
        "resourceBoxId": 3
    },
    {
        "id": 24,
        "eventId": 24,
        "cheerfulCarnivalTeamPointTermType": "cheerful_carnival_team_point_final",
        "cheerfulCarnivalResultType": "defeat",
        "resourceBoxId": 4
    },
    {
        "id": 25,
        "eventId": 27,
        "cheerfulCarnivalTeamPointTermType": "cheerful_carnival_team_point_1st",
        "cheerfulCarnivalResultType": "victory",
        "resourceBoxId": 1
    },
    {
        "id": 26,
        "eventId": 27,
        "cheerfulCarnivalTeamPointTermType": "cheerful_carnival_team_point_1st",
        "cheerfulCarnivalResultType": "defeat",
        "resourceBoxId": 2
    },
    {
        "id": 27,
        "eventId": 27,
        "cheerfulCarnivalTeamPointTermType": "cheerful_carnival_team_point_1st",
        "cheerfulCarnivalResultType": "draw",
        "resourceBoxId": 2
    },
    {
        "id": 28,
        "eventId": 27,
        "cheerfulCarnivalTeamPointTermType": "cheerful_carnival_team_point_2nd",
        "cheerfulCarnivalResultType": "victory",
        "resourceBoxId": 1
    },
    {
        "id": 29,
        "eventId": 27,
        "cheerfulCarnivalTeamPointTermType": "cheerful_carnival_team_point_2nd",
        "cheerfulCarnivalResultType": "defeat",
        "resourceBoxId": 2
    },
    {
        "id": 30,
        "eventId": 27,
        "cheerfulCarnivalTeamPointTermType": "cheerful_carnival_team_point_2nd",
        "cheerfulCarnivalResultType": "draw",
        "resourceBoxId": 2
    },
    {
        "id": 31,
        "eventId": 27,
        "cheerfulCarnivalTeamPointTermType": "cheerful_carnival_team_point_final",
        "cheerfulCarnivalResultType": "victory",
        "resourceBoxId": 3
    },
    {
        "id": 32,
        "eventId": 27,
        "cheerfulCarnivalTeamPointTermType": "cheerful_carnival_team_point_final",
        "cheerfulCarnivalResultType": "defeat",
        "resourceBoxId": 4
    },
    {
        "id": 33,
        "eventId": 30,
        "cheerfulCarnivalTeamPointTermType": "cheerful_carnival_team_point_1st",
        "cheerfulCarnivalResultType": "victory",
        "resourceBoxId": 17
    },
    {
        "id": 34,
        "eventId": 30,
        "cheerfulCarnivalTeamPointTermType": "cheerful_carnival_team_point_1st",
        "cheerfulCarnivalResultType": "defeat",
        "resourceBoxId": 18
    },
    {
        "id": 35,
        "eventId": 30,
        "cheerfulCarnivalTeamPointTermType": "cheerful_carnival_team_point_1st",
        "cheerfulCarnivalResultType": "draw",
        "resourceBoxId": 18
    },
    {
        "id": 36,
        "eventId": 30,
        "cheerfulCarnivalTeamPointTermType": "cheerful_carnival_team_point_2nd",
        "cheerfulCarnivalResultType": "victory",
        "resourceBoxId": 17
    },
    {
        "id": 37,
        "eventId": 30,
        "cheerfulCarnivalTeamPointTermType": "cheerful_carnival_team_point_2nd",
        "cheerfulCarnivalResultType": "defeat",
        "resourceBoxId": 18
    },
    {
        "id": 38,
        "eventId": 30,
        "cheerfulCarnivalTeamPointTermType": "cheerful_carnival_team_point_2nd",
        "cheerfulCarnivalResultType": "draw",
        "resourceBoxId": 18
    },
    {
        "id": 39,
        "eventId": 30,
        "cheerfulCarnivalTeamPointTermType": "cheerful_carnival_team_point_final",
        "cheerfulCarnivalResultType": "victory",
        "resourceBoxId": 19
    },
    {
        "id": 40,
        "eventId": 30,
        "cheerfulCarnivalTeamPointTermType": "cheerful_carnival_team_point_final",
        "cheerfulCarnivalResultType": "defeat",
        "resourceBoxId": 20
    },
    {
        "id": 41,
        "eventId": 33,
        "cheerfulCarnivalTeamPointTermType": "cheerful_carnival_team_point_1st",
        "cheerfulCarnivalResultType": "victory",
        "resourceBoxId": 21
    },
    {
        "id": 42,
        "eventId": 33,
        "cheerfulCarnivalTeamPointTermType": "cheerful_carnival_team_point_1st",
        "cheerfulCarnivalResultType": "defeat",
        "resourceBoxId": 22
    },
    {
        "id": 43,
        "eventId": 33,
        "cheerfulCarnivalTeamPointTermType": "cheerful_carnival_team_point_1st",
        "cheerfulCarnivalResultType": "draw",
        "resourceBoxId": 22
    },
    {
        "id": 44,
        "eventId": 33,
        "cheerfulCarnivalTeamPointTermType": "cheerful_carnival_team_point_2nd",
        "cheerfulCarnivalResultType": "victory",
        "resourceBoxId": 21
    },
    {
        "id": 45,
        "eventId": 33,
        "cheerfulCarnivalTeamPointTermType": "cheerful_carnival_team_point_2nd",
        "cheerfulCarnivalResultType": "defeat",
        "resourceBoxId": 22
    },
    {
        "id": 46,
        "eventId": 33,
        "cheerfulCarnivalTeamPointTermType": "cheerful_carnival_team_point_2nd",
        "cheerfulCarnivalResultType": "draw",
        "resourceBoxId": 22
    },
    {
        "id": 47,
        "eventId": 33,
        "cheerfulCarnivalTeamPointTermType": "cheerful_carnival_team_point_final",
        "cheerfulCarnivalResultType": "victory",
        "resourceBoxId": 23
    },
    {
        "id": 48,
        "eventId": 33,
        "cheerfulCarnivalTeamPointTermType": "cheerful_carnival_team_point_final",
        "cheerfulCarnivalResultType": "defeat",
        "resourceBoxId": 24
    },
    {
        "id": 49,
        "eventId": 36,
        "cheerfulCarnivalTeamPointTermType": "cheerful_carnival_team_point_1st",
        "cheerfulCarnivalResultType": "victory",
        "resourceBoxId": 25
    },
    {
        "id": 50,
        "eventId": 36,
        "cheerfulCarnivalTeamPointTermType": "cheerful_carnival_team_point_1st",
        "cheerfulCarnivalResultType": "defeat",
        "resourceBoxId": 26
    },
    {
        "id": 51,
        "eventId": 36,
        "cheerfulCarnivalTeamPointTermType": "cheerful_carnival_team_point_1st",
        "cheerfulCarnivalResultType": "draw",
        "resourceBoxId": 26
    },
    {
        "id": 52,
        "eventId": 36,
        "cheerfulCarnivalTeamPointTermType": "cheerful_carnival_team_point_2nd",
        "cheerfulCarnivalResultType": "victory",
        "resourceBoxId": 25
    },
    {
        "id": 53,
        "eventId": 36,
        "cheerfulCarnivalTeamPointTermType": "cheerful_carnival_team_point_2nd",
        "cheerfulCarnivalResultType": "defeat",
        "resourceBoxId": 26
    },
    {
        "id": 54,
        "eventId": 36,
        "cheerfulCarnivalTeamPointTermType": "cheerful_carnival_team_point_2nd",
        "cheerfulCarnivalResultType": "draw",
        "resourceBoxId": 26
    },
    {
        "id": 55,
        "eventId": 36,
        "cheerfulCarnivalTeamPointTermType": "cheerful_carnival_team_point_final",
        "cheerfulCarnivalResultType": "victory",
        "resourceBoxId": 27
    },
    {
        "id": 56,
        "eventId": 36,
        "cheerfulCarnivalTeamPointTermType": "cheerful_carnival_team_point_final",
        "cheerfulCarnivalResultType": "defeat",
        "resourceBoxId": 28
    },
    {
        "id": 57,
        "eventId": 39,
        "cheerfulCarnivalTeamPointTermType": "cheerful_carnival_team_point_1st",
        "cheerfulCarnivalResultType": "victory",
        "resourceBoxId": 29
    },
    {
        "id": 58,
        "eventId": 39,
        "cheerfulCarnivalTeamPointTermType": "cheerful_carnival_team_point_1st",
        "cheerfulCarnivalResultType": "defeat",
        "resourceBoxId": 30
    },
    {
        "id": 59,
        "eventId": 39,
        "cheerfulCarnivalTeamPointTermType": "cheerful_carnival_team_point_1st",
        "cheerfulCarnivalResultType": "draw",
        "resourceBoxId": 30
    },
    {
        "id": 60,
        "eventId": 39,
        "cheerfulCarnivalTeamPointTermType": "cheerful_carnival_team_point_2nd",
        "cheerfulCarnivalResultType": "victory",
        "resourceBoxId": 29
    },
    {
        "id": 61,
        "eventId": 39,
        "cheerfulCarnivalTeamPointTermType": "cheerful_carnival_team_point_2nd",
        "cheerfulCarnivalResultType": "defeat",
        "resourceBoxId": 30
    },
    {
        "id": 62,
        "eventId": 39,
        "cheerfulCarnivalTeamPointTermType": "cheerful_carnival_team_point_2nd",
        "cheerfulCarnivalResultType": "draw",
        "resourceBoxId": 30
    },
    {
        "id": 63,
        "eventId": 39,
        "cheerfulCarnivalTeamPointTermType": "cheerful_carnival_team_point_final",
        "cheerfulCarnivalResultType": "victory",
        "resourceBoxId": 31
    },
    {
        "id": 64,
        "eventId": 39,
        "cheerfulCarnivalTeamPointTermType": "cheerful_carnival_team_point_final",
        "cheerfulCarnivalResultType": "defeat",
        "resourceBoxId": 32
    },
    {
        "id": 65,
        "eventId": 42,
        "cheerfulCarnivalTeamPointTermType": "cheerful_carnival_team_point_1st",
        "cheerfulCarnivalResultType": "victory",
        "resourceBoxId": 33
    },
    {
        "id": 66,
        "eventId": 42,
        "cheerfulCarnivalTeamPointTermType": "cheerful_carnival_team_point_1st",
        "cheerfulCarnivalResultType": "defeat",
        "resourceBoxId": 34
    },
    {
        "id": 67,
        "eventId": 42,
        "cheerfulCarnivalTeamPointTermType": "cheerful_carnival_team_point_1st",
        "cheerfulCarnivalResultType": "draw",
        "resourceBoxId": 34
    },
    {
        "id": 68,
        "eventId": 42,
        "cheerfulCarnivalTeamPointTermType": "cheerful_carnival_team_point_2nd",
        "cheerfulCarnivalResultType": "victory",
        "resourceBoxId": 33
    },
    {
        "id": 69,
        "eventId": 42,
        "cheerfulCarnivalTeamPointTermType": "cheerful_carnival_team_point_2nd",
        "cheerfulCarnivalResultType": "defeat",
        "resourceBoxId": 34
    },
    {
        "id": 70,
        "eventId": 42,
        "cheerfulCarnivalTeamPointTermType": "cheerful_carnival_team_point_2nd",
        "cheerfulCarnivalResultType": "draw",
        "resourceBoxId": 34
    },
    {
        "id": 71,
        "eventId": 42,
        "cheerfulCarnivalTeamPointTermType": "cheerful_carnival_team_point_final",
        "cheerfulCarnivalResultType": "victory",
        "resourceBoxId": 35
    },
    {
        "id": 72,
        "eventId": 42,
        "cheerfulCarnivalTeamPointTermType": "cheerful_carnival_team_point_final",
        "cheerfulCarnivalResultType": "defeat",
        "resourceBoxId": 36
    },
    {
        "id": 73,
        "eventId": 45,
        "cheerfulCarnivalTeamPointTermType": "cheerful_carnival_team_point_1st",
        "cheerfulCarnivalResultType": "victory",
        "resourceBoxId": 37
    },
    {
        "id": 74,
        "eventId": 45,
        "cheerfulCarnivalTeamPointTermType": "cheerful_carnival_team_point_1st",
        "cheerfulCarnivalResultType": "defeat",
        "resourceBoxId": 38
    },
    {
        "id": 75,
        "eventId": 45,
        "cheerfulCarnivalTeamPointTermType": "cheerful_carnival_team_point_1st",
        "cheerfulCarnivalResultType": "draw",
        "resourceBoxId": 38
    },
    {
        "id": 76,
        "eventId": 45,
        "cheerfulCarnivalTeamPointTermType": "cheerful_carnival_team_point_2nd",
        "cheerfulCarnivalResultType": "victory",
        "resourceBoxId": 37
    },
    {
        "id": 77,
        "eventId": 45,
        "cheerfulCarnivalTeamPointTermType": "cheerful_carnival_team_point_2nd",
        "cheerfulCarnivalResultType": "defeat",
        "resourceBoxId": 38
    },
    {
        "id": 78,
        "eventId": 45,
        "cheerfulCarnivalTeamPointTermType": "cheerful_carnival_team_point_2nd",
        "cheerfulCarnivalResultType": "draw",
        "resourceBoxId": 38
    },
    {
        "id": 79,
        "eventId": 45,
        "cheerfulCarnivalTeamPointTermType": "cheerful_carnival_team_point_final",
        "cheerfulCarnivalResultType": "victory",
        "resourceBoxId": 39
    },
    {
        "id": 80,
        "eventId": 45,
        "cheerfulCarnivalTeamPointTermType": "cheerful_carnival_team_point_final",
        "cheerfulCarnivalResultType": "defeat",
        "resourceBoxId": 40
    },
    {
        "id": 81,
        "eventId": 48,
        "cheerfulCarnivalTeamPointTermType": "cheerful_carnival_team_point_1st",
        "cheerfulCarnivalResultType": "victory",
        "resourceBoxId": 41
    },
    {
        "id": 82,
        "eventId": 48,
        "cheerfulCarnivalTeamPointTermType": "cheerful_carnival_team_point_1st",
        "cheerfulCarnivalResultType": "defeat",
        "resourceBoxId": 42
    },
    {
        "id": 83,
        "eventId": 48,
        "cheerfulCarnivalTeamPointTermType": "cheerful_carnival_team_point_1st",
        "cheerfulCarnivalResultType": "draw",
        "resourceBoxId": 42
    },
    {
        "id": 84,
        "eventId": 48,
        "cheerfulCarnivalTeamPointTermType": "cheerful_carnival_team_point_2nd",
        "cheerfulCarnivalResultType": "victory",
        "resourceBoxId": 41
    },
    {
        "id": 85,
        "eventId": 48,
        "cheerfulCarnivalTeamPointTermType": "cheerful_carnival_team_point_2nd",
        "cheerfulCarnivalResultType": "defeat",
        "resourceBoxId": 42
    },
    {
        "id": 86,
        "eventId": 48,
        "cheerfulCarnivalTeamPointTermType": "cheerful_carnival_team_point_2nd",
        "cheerfulCarnivalResultType": "draw",
        "resourceBoxId": 42
    },
    {
        "id": 87,
        "eventId": 48,
        "cheerfulCarnivalTeamPointTermType": "cheerful_carnival_team_point_final",
        "cheerfulCarnivalResultType": "victory",
        "resourceBoxId": 43
    },
    {
        "id": 88,
        "eventId": 48,
        "cheerfulCarnivalTeamPointTermType": "cheerful_carnival_team_point_final",
        "cheerfulCarnivalResultType": "defeat",
        "resourceBoxId": 44
    },
    {
        "id": 89,
        "eventId": 51,
        "cheerfulCarnivalTeamPointTermType": "cheerful_carnival_team_point_1st",
        "cheerfulCarnivalResultType": "victory",
        "resourceBoxId": 45
    },
    {
        "id": 90,
        "eventId": 51,
        "cheerfulCarnivalTeamPointTermType": "cheerful_carnival_team_point_1st",
        "cheerfulCarnivalResultType": "defeat",
        "resourceBoxId": 46
    },
    {
        "id": 91,
        "eventId": 51,
        "cheerfulCarnivalTeamPointTermType": "cheerful_carnival_team_point_1st",
        "cheerfulCarnivalResultType": "draw",
        "resourceBoxId": 46
    },
    {
        "id": 92,
        "eventId": 51,
        "cheerfulCarnivalTeamPointTermType": "cheerful_carnival_team_point_2nd",
        "cheerfulCarnivalResultType": "victory",
        "resourceBoxId": 45
    },
    {
        "id": 93,
        "eventId": 51,
        "cheerfulCarnivalTeamPointTermType": "cheerful_carnival_team_point_2nd",
        "cheerfulCarnivalResultType": "defeat",
        "resourceBoxId": 46
    },
    {
        "id": 94,
        "eventId": 51,
        "cheerfulCarnivalTeamPointTermType": "cheerful_carnival_team_point_2nd",
        "cheerfulCarnivalResultType": "draw",
        "resourceBoxId": 46
    },
    {
        "id": 95,
        "eventId": 51,
        "cheerfulCarnivalTeamPointTermType": "cheerful_carnival_team_point_final",
        "cheerfulCarnivalResultType": "victory",
        "resourceBoxId": 47
    },
    {
        "id": 96,
        "eventId": 51,
        "cheerfulCarnivalTeamPointTermType": "cheerful_carnival_team_point_final",
        "cheerfulCarnivalResultType": "defeat",
        "resourceBoxId": 48
    },
    {
        "id": 97,
        "eventId": 54,
        "cheerfulCarnivalTeamPointTermType": "cheerful_carnival_team_point_1st",
        "cheerfulCarnivalResultType": "victory",
        "resourceBoxId": 49
    },
    {
        "id": 98,
        "eventId": 54,
        "cheerfulCarnivalTeamPointTermType": "cheerful_carnival_team_point_1st",
        "cheerfulCarnivalResultType": "defeat",
        "resourceBoxId": 50
    },
    {
        "id": 99,
        "eventId": 54,
        "cheerfulCarnivalTeamPointTermType": "cheerful_carnival_team_point_1st",
        "cheerfulCarnivalResultType": "draw",
        "resourceBoxId": 50
    },
    {
        "id": 100,
        "eventId": 54,
        "cheerfulCarnivalTeamPointTermType": "cheerful_carnival_team_point_2nd",
        "cheerfulCarnivalResultType": "victory",
        "resourceBoxId": 49
    },
    {
        "id": 101,
        "eventId": 54,
        "cheerfulCarnivalTeamPointTermType": "cheerful_carnival_team_point_2nd",
        "cheerfulCarnivalResultType": "defeat",
        "resourceBoxId": 50
    },
    {
        "id": 102,
        "eventId": 54,
        "cheerfulCarnivalTeamPointTermType": "cheerful_carnival_team_point_2nd",
        "cheerfulCarnivalResultType": "draw",
        "resourceBoxId": 50
    },
    {
        "id": 103,
        "eventId": 54,
        "cheerfulCarnivalTeamPointTermType": "cheerful_carnival_team_point_final",
        "cheerfulCarnivalResultType": "victory",
        "resourceBoxId": 51
    },
    {
        "id": 104,
        "eventId": 54,
        "cheerfulCarnivalTeamPointTermType": "cheerful_carnival_team_point_final",
        "cheerfulCarnivalResultType": "defeat",
        "resourceBoxId": 52
    },
    {
        "id": 105,
        "eventId": 57,
        "cheerfulCarnivalTeamPointTermType": "cheerful_carnival_team_point_1st",
        "cheerfulCarnivalResultType": "victory",
        "resourceBoxId": 53
    },
    {
        "id": 106,
        "eventId": 57,
        "cheerfulCarnivalTeamPointTermType": "cheerful_carnival_team_point_1st",
        "cheerfulCarnivalResultType": "defeat",
        "resourceBoxId": 54
    },
    {
        "id": 107,
        "eventId": 57,
        "cheerfulCarnivalTeamPointTermType": "cheerful_carnival_team_point_1st",
        "cheerfulCarnivalResultType": "draw",
        "resourceBoxId": 54
    },
    {
        "id": 108,
        "eventId": 57,
        "cheerfulCarnivalTeamPointTermType": "cheerful_carnival_team_point_2nd",
        "cheerfulCarnivalResultType": "victory",
        "resourceBoxId": 53
    },
    {
        "id": 109,
        "eventId": 57,
        "cheerfulCarnivalTeamPointTermType": "cheerful_carnival_team_point_2nd",
        "cheerfulCarnivalResultType": "defeat",
        "resourceBoxId": 54
    },
    {
        "id": 110,
        "eventId": 57,
        "cheerfulCarnivalTeamPointTermType": "cheerful_carnival_team_point_2nd",
        "cheerfulCarnivalResultType": "draw",
        "resourceBoxId": 54
    },
    {
        "id": 111,
        "eventId": 57,
        "cheerfulCarnivalTeamPointTermType": "cheerful_carnival_team_point_final",
        "cheerfulCarnivalResultType": "victory",
        "resourceBoxId": 55
    },
    {
        "id": 112,
        "eventId": 57,
        "cheerfulCarnivalTeamPointTermType": "cheerful_carnival_team_point_final",
        "cheerfulCarnivalResultType": "defeat",
        "resourceBoxId": 56
    },
    {
        "id": 113,
        "eventId": 60,
        "cheerfulCarnivalTeamPointTermType": "cheerful_carnival_team_point_1st",
        "cheerfulCarnivalResultType": "victory",
        "resourceBoxId": 57
    },
    {
        "id": 114,
        "eventId": 60,
        "cheerfulCarnivalTeamPointTermType": "cheerful_carnival_team_point_1st",
        "cheerfulCarnivalResultType": "defeat",
        "resourceBoxId": 58
    },
    {
        "id": 115,
        "eventId": 60,
        "cheerfulCarnivalTeamPointTermType": "cheerful_carnival_team_point_1st",
        "cheerfulCarnivalResultType": "draw",
        "resourceBoxId": 58
    },
    {
        "id": 116,
        "eventId": 60,
        "cheerfulCarnivalTeamPointTermType": "cheerful_carnival_team_point_2nd",
        "cheerfulCarnivalResultType": "victory",
        "resourceBoxId": 57
    },
    {
        "id": 117,
        "eventId": 60,
        "cheerfulCarnivalTeamPointTermType": "cheerful_carnival_team_point_2nd",
        "cheerfulCarnivalResultType": "defeat",
        "resourceBoxId": 58
    },
    {
        "id": 118,
        "eventId": 60,
        "cheerfulCarnivalTeamPointTermType": "cheerful_carnival_team_point_2nd",
        "cheerfulCarnivalResultType": "draw",
        "resourceBoxId": 58
    },
    {
        "id": 119,
        "eventId": 60,
        "cheerfulCarnivalTeamPointTermType": "cheerful_carnival_team_point_final",
        "cheerfulCarnivalResultType": "victory",
        "resourceBoxId": 59
    },
    {
        "id": 120,
        "eventId": 60,
        "cheerfulCarnivalTeamPointTermType": "cheerful_carnival_team_point_final",
        "cheerfulCarnivalResultType": "defeat",
        "resourceBoxId": 60
    }
]