[
    {
        "id": 1,
        "eventId": 18,
        "seq": 1,
        "teamName": "おだんご",
        "assetbundleName": "event_ohanami_2021_item_1"
    },
    {
        "id": 2,
        "eventId": 18,
        "seq": 2,
        "teamName": "さくらもち",
        "assetbundleName": "event_ohanami_2021_item_2"
    },
    {
        "id": 3,
        "eventId": 21,
        "seq": 1,
        "teamName": "パンケーキ",
        "assetbundleName": "event_stray_2021_item_1"
    },
    {
        "id": 4,
        "eventId": 21,
        "seq": 2,
        "teamName": "チーズケーキ",
        "assetbundleName": "event_stray_2021_item_2"
    },
    {
        "id": 5,
        "eventId": 24,
        "seq": 1,
        "teamName": "洋装",
        "assetbundleName": "event_bridal_2021_item_1"
    },
    {
        "id": 6,
        "eventId": 24,
        "seq": 2,
        "teamName": "和装",
        "assetbundleName": "event_bridal_2021_item_2"
    },
    {
        "id": 7,
        "eventId": 27,
        "seq": 1,
        "teamName": "屋上",
        "assetbundleName": "event_unnamed_2021_item_1"
    },
    {
        "id": 8,
        "eventId": 27,
        "seq": 2,
        "teamName": "教室",
        "assetbundleName": "event_unnamed_2021_item_2"
    },
    {
        "id": 9,
        "eventId": 30,
        "seq": 1,
        "teamName": "ボート",
        "assetbundleName": "event_summer_2021_item_1"
    },
    {
        "id": 10,
        "eventId": 30,
        "seq": 2,
        "teamName": "浮き輪",
        "assetbundleName": "event_summer_2021_item_2"
    },
    {
        "id": 11,
        "eventId": 33,
        "seq": 1,
        "teamName": "栗",
        "assetbundleName": "event_moonrabbit_2021_item_1"
    },
    {
        "id": 12,
        "eventId": 33,
        "seq": 2,
        "teamName": "柿",
        "assetbundleName": "event_moonrabbit_2021_item_2"
    },
    {
        "id": 13,
        "eventId": 36,
        "seq": 1,
        "teamName": "缶バッジ",
        "assetbundleName": "event_scramble_2021_item_1"
    },
    {
        "id": 14,
        "eventId": 36,
        "seq": 2,
        "teamName": "アクリルキーホルダー",
        "assetbundleName": "event_scramble_2021_item_2"
    },
    {
        "id": 15,
        "eventId": 39,
        "seq": 1,
        "teamName": "カレーライス",
        "assetbundleName": "event_ashiato_2021_item_1"
    },
    {
        "id": 16,
        "eventId": 39,
        "seq": 2,
        "teamName": "フライドポテト",
        "assetbundleName": "event_ashiato_2021_item_2"
    },
    {
        "id": 17,
        "eventId": 42,
        "seq": 1,
        "teamName": "雪",
        "assetbundleName": "event_melody_2021_item_1"
    },
    {
        "id": 18,
        "eventId": 42,
        "seq": 2,
        "teamName": "イルミネーション",
        "assetbundleName": "event_melody_2021_item_2"
    },
    {
        "id": 19,
        "eventId": 45,
        "seq": 1,
        "teamName": "かるた",
        "assetbundleName": "event_prayer_2022_item_1"
    },
    {
        "id": 20,
        "eventId": 45,
        "seq": 2,
        "teamName": "福笑い",
        "assetbundleName": "event_prayer_2022_item_2"
    },
    {
        "id": 21,
        "eventId": 48,
        "seq": 1,
        "teamName": "あげる派",
        "assetbundleName": "event_valentine_2022_item_1"
    },
    {
        "id": 22,
        "eventId": 48,
        "seq": 2,
        "teamName": "もらう派",
        "assetbundleName": "event_valentine_2022_item_2"
    },
    {
        "id": 23,
        "eventId": 51,
        "seq": 1,
        "teamName": "ビター",
        "assetbundleName": "event_whiteday_2022_item_1"
    },
    {
        "id": 24,
        "eventId": 51,
        "seq": 2,
        "teamName": "ミルク",
        "assetbundleName": "event_whiteday_2022_item_2"
    },
    {
        "id": 25,
        "eventId": 54,
        "seq": 1,
        "teamName": "桜ラテ",
        "assetbundleName": "event_sakura_2022_item_1"
    },
    {
        "id": 26,
        "eventId": 54,
        "seq": 2,
        "teamName": "桜スムージー",
        "assetbundleName": "event_sakura_2022_item_2"
    },
    {
        "id": 27,
        "eventId": 57,
        "seq": 1,
        "teamName": "盛り上がる曲",
        "assetbundleName": "event_painful_2022_item_1"
    },
    {
        "id": 28,
        "eventId": 57,
        "seq": 2,
        "teamName": "しっとりした曲",
        "assetbundleName": "event_painful_2022_item_2"
    },
    {
        "id": 29,
        "eventId": 60,
        "seq": 1,
        "teamName": "チャペル",
        "assetbundleName": "event_happiness_2022_item_1"
    },
    {
        "id": 30,
        "eventId": 60,
        "seq": 2,
        "teamName": "ガーデン",
        "assetbundleName": "event_happiness_2022_item_2"
    }
]