[
    {
        "id": 1,
        "name": "お正月コレクションBOX",
        "startAt": 1640930400000,
        "endAt": 1641967199000,
        "assetbundleName": "collection_gacha_new_year_2022",
        "description": "「お正月コレクションBOX」が登場！\n\n「お正月コレクションBOX」からはお正月限定のコレクションアイテムとして、各ユニットやキャラクターをモチーフとした絵馬やお守りが出現します。\n\n絵馬やお守りは期間限定のコレクションアイテムとなります。\n獲得したコレクションアイテムはカスタムプロフィールの素材として使用することができます。\n",
        "notice": "・クリスタルは無償分から先に消費されます。\n・コレクションBOXで出現するコレクションは重複する場合があります。重複したコレクションについてはカスタムプロフィールで複数使用することができます。\n・コレクションBOXは提供割合に基づき1回ごとに抽選を行います。例えば提供割合1%のコレクションが100回中1回必ず出現するという仕組みではありません。\n・コレクションBOXの提供割合につきましては、提供割合タブにてご確認ください。\n・提供割合タブで表示している確率は表示上小数点第4位にて四捨五入しているため、すべてを合算しても100％にならない場合があります。\n・コレクションBOX実行後に強制終了、もしくは回線が切断され正常に結果画面が表示されなかった場合でも、コレクションは獲得されております。カスタムプロフィールのコレクションをご確認ください。\n・本コレクションBOXで登場した期間限定コレクションは今後再登場する可能性があります。再登場予定については現在未定です。\n・開催スケジュールは予告なく変更する場合がございます。",
        "customProfileGachaBehaviors": [
            {
                "id": 1,
                "customProfileGachaId": 1,
                "seq": 1,
                "costResourceType": "virtual_coin",
                "costResourceQuantity": 3000,
                "spinCount": 10
            },
            {
                "id": 2,
                "customProfileGachaId": 1,
                "seq": 2,
                "costResourceType": "jewel",
                "costResourceQuantity": 100,
                "spinCount": 1
            },
            {
                "id": 3,
                "customProfileGachaId": 1,
                "seq": 3,
                "costResourceType": "jewel",
                "costResourceQuantity": 1000,
                "spinCount": 10
            }
        ],
        "customProfileGachaDetails": [
            {
                "id": 1,
                "customProfileGachaId": 1,
                "customProfileResourceType": "collection",
                "customProfileResourceId": 2,
                "customProfileResourceQuantity": 1,
                "weight": 1
            },
            {
                "id": 2,
                "customProfileGachaId": 1,
                "customProfileResourceType": "collection",
                "customProfileResourceId": 3,
                "customProfileResourceQuantity": 1,
                "weight": 1
            },
            {
                "id": 3,
                "customProfileGachaId": 1,
                "customProfileResourceType": "collection",
                "customProfileResourceId": 4,
                "customProfileResourceQuantity": 1,
                "weight": 1
            },
            {
                "id": 4,
                "customProfileGachaId": 1,
                "customProfileResourceType": "collection",
                "customProfileResourceId": 5,
                "customProfileResourceQuantity": 1,
                "weight": 1
            },
            {
                "id": 5,
                "customProfileGachaId": 1,
                "customProfileResourceType": "collection",
                "customProfileResourceId": 6,
                "customProfileResourceQuantity": 1,
                "weight": 1
            },
            {
                "id": 6,
                "customProfileGachaId": 1,
                "customProfileResourceType": "collection",
                "customProfileResourceId": 7,
                "customProfileResourceQuantity": 1,
                "weight": 1
            },
            {
                "id": 7,
                "customProfileGachaId": 1,
                "customProfileResourceType": "collection",
                "customProfileResourceId": 8,
                "customProfileResourceQuantity": 1,
                "weight": 1
            },
            {
                "id": 8,
                "customProfileGachaId": 1,
                "customProfileResourceType": "collection",
                "customProfileResourceId": 9,
                "customProfileResourceQuantity": 1,
                "weight": 1
            },
            {
                "id": 9,
                "customProfileGachaId": 1,
                "customProfileResourceType": "collection",
                "customProfileResourceId": 10,
                "customProfileResourceQuantity": 1,
                "weight": 1
            },
            {
                "id": 10,
                "customProfileGachaId": 1,
                "customProfileResourceType": "collection",
                "customProfileResourceId": 11,
                "customProfileResourceQuantity": 1,
                "weight": 1
            },
            {
                "id": 11,
                "customProfileGachaId": 1,
                "customProfileResourceType": "collection",
                "customProfileResourceId": 12,
                "customProfileResourceQuantity": 1,
                "weight": 1
            },
            {
                "id": 12,
                "customProfileGachaId": 1,
                "customProfileResourceType": "collection",
                "customProfileResourceId": 13,
                "customProfileResourceQuantity": 1,
                "weight": 1
            },
            {
                "id": 13,
                "customProfileGachaId": 1,
                "customProfileResourceType": "collection",
                "customProfileResourceId": 14,
                "customProfileResourceQuantity": 1,
                "weight": 1
            },
            {
                "id": 14,
                "customProfileGachaId": 1,
                "customProfileResourceType": "collection",
                "customProfileResourceId": 15,
                "customProfileResourceQuantity": 1,
                "weight": 1
            },
            {
                "id": 15,
                "customProfileGachaId": 1,
                "customProfileResourceType": "collection",
                "customProfileResourceId": 16,
                "customProfileResourceQuantity": 1,
                "weight": 1
            },
            {
                "id": 16,
                "customProfileGachaId": 1,
                "customProfileResourceType": "collection",
                "customProfileResourceId": 17,
                "customProfileResourceQuantity": 1,
                "weight": 1
            },
            {
                "id": 17,
                "customProfileGachaId": 1,
                "customProfileResourceType": "collection",
                "customProfileResourceId": 18,
                "customProfileResourceQuantity": 1,
                "weight": 1
            },
            {
                "id": 18,
                "customProfileGachaId": 1,
                "customProfileResourceType": "collection",
                "customProfileResourceId": 19,
                "customProfileResourceQuantity": 1,
                "weight": 1
            },
            {
                "id": 19,
                "customProfileGachaId": 1,
                "customProfileResourceType": "collection",
                "customProfileResourceId": 20,
                "customProfileResourceQuantity": 1,
                "weight": 1
            },
            {
                "id": 20,
                "customProfileGachaId": 1,
                "customProfileResourceType": "collection",
                "customProfileResourceId": 21,
                "customProfileResourceQuantity": 1,
                "weight": 1
            },
            {
                "id": 21,
                "customProfileGachaId": 1,
                "customProfileResourceType": "collection",
                "customProfileResourceId": 22,
                "customProfileResourceQuantity": 1,
                "weight": 1
            },
            {
                "id": 22,
                "customProfileGachaId": 1,
                "customProfileResourceType": "collection",
                "customProfileResourceId": 23,
                "customProfileResourceQuantity": 1,
                "weight": 1
            },
            {
                "id": 23,
                "customProfileGachaId": 1,
                "customProfileResourceType": "collection",
                "customProfileResourceId": 24,
                "customProfileResourceQuantity": 1,
                "weight": 1
            },
            {
                "id": 24,
                "customProfileGachaId": 1,
                "customProfileResourceType": "collection",
                "customProfileResourceId": 25,
                "customProfileResourceQuantity": 1,
                "weight": 1
            },
            {
                "id": 25,
                "customProfileGachaId": 1,
                "customProfileResourceType": "collection",
                "customProfileResourceId": 26,
                "customProfileResourceQuantity": 1,
                "weight": 1
            },
            {
                "id": 26,
                "customProfileGachaId": 1,
                "customProfileResourceType": "collection",
                "customProfileResourceId": 27,
                "customProfileResourceQuantity": 1,
                "weight": 1
            },
            {
                "id": 27,
                "customProfileGachaId": 1,
                "customProfileResourceType": "collection",
                "customProfileResourceId": 28,
                "customProfileResourceQuantity": 1,
                "weight": 1
            },
            {
                "id": 28,
                "customProfileGachaId": 1,
                "customProfileResourceType": "collection",
                "customProfileResourceId": 29,
                "customProfileResourceQuantity": 1,
                "weight": 1
            },
            {
                "id": 29,
                "customProfileGachaId": 1,
                "customProfileResourceType": "collection",
                "customProfileResourceId": 30,
                "customProfileResourceQuantity": 1,
                "weight": 1
            },
            {
                "id": 30,
                "customProfileGachaId": 1,
                "customProfileResourceType": "collection",
                "customProfileResourceId": 31,
                "customProfileResourceQuantity": 1,
                "weight": 1
            },
            {
                "id": 31,
                "customProfileGachaId": 1,
                "customProfileResourceType": "collection",
                "customProfileResourceId": 32,
                "customProfileResourceQuantity": 1,
                "weight": 1
            },
            {
                "id": 32,
                "customProfileGachaId": 1,
                "customProfileResourceType": "collection",
                "customProfileResourceId": 33,
                "customProfileResourceQuantity": 1,
                "weight": 1
            },
            {
                "id": 33,
                "customProfileGachaId": 1,
                "customProfileResourceType": "collection",
                "customProfileResourceId": 34,
                "customProfileResourceQuantity": 1,
                "weight": 1
            },
            {
                "id": 34,
                "customProfileGachaId": 1,
                "customProfileResourceType": "collection",
                "customProfileResourceId": 35,
                "customProfileResourceQuantity": 1,
                "weight": 1
            },
            {
                "id": 35,
                "customProfileGachaId": 1,
                "customProfileResourceType": "collection",
                "customProfileResourceId": 36,
                "customProfileResourceQuantity": 1,
                "weight": 1
            },
            {
                "id": 36,
                "customProfileGachaId": 1,
                "customProfileResourceType": "collection",
                "customProfileResourceId": 37,
                "customProfileResourceQuantity": 1,
                "weight": 1
            },
            {
                "id": 37,
                "customProfileGachaId": 1,
                "customProfileResourceType": "collection",
                "customProfileResourceId": 38,
                "customProfileResourceQuantity": 1,
                "weight": 1
            },
            {
                "id": 38,
                "customProfileGachaId": 1,
                "customProfileResourceType": "collection",
                "customProfileResourceId": 39,
                "customProfileResourceQuantity": 1,
                "weight": 1
            },
            {
                "id": 39,
                "customProfileGachaId": 1,
                "customProfileResourceType": "collection",
                "customProfileResourceId": 40,
                "customProfileResourceQuantity": 1,
                "weight": 1
            },
            {
                "id": 40,
                "customProfileGachaId": 1,
                "customProfileResourceType": "collection",
                "customProfileResourceId": 41,
                "customProfileResourceQuantity": 1,
                "weight": 1
            },
            {
                "id": 41,
                "customProfileGachaId": 1,
                "customProfileResourceType": "collection",
                "customProfileResourceId": 42,
                "customProfileResourceQuantity": 1,
                "weight": 1
            },
            {
                "id": 42,
                "customProfileGachaId": 1,
                "customProfileResourceType": "collection",
                "customProfileResourceId": 43,
                "customProfileResourceQuantity": 1,
                "weight": 1
            },
            {
                "id": 43,
                "customProfileGachaId": 1,
                "customProfileResourceType": "collection",
                "customProfileResourceId": 44,
                "customProfileResourceQuantity": 1,
                "weight": 1
            },
            {
                "id": 44,
                "customProfileGachaId": 1,
                "customProfileResourceType": "collection",
                "customProfileResourceId": 45,
                "customProfileResourceQuantity": 1,
                "weight": 1
            },
            {
                "id": 45,
                "customProfileGachaId": 1,
                "customProfileResourceType": "collection",
                "customProfileResourceId": 46,
                "customProfileResourceQuantity": 1,
                "weight": 1
            },
            {
                "id": 46,
                "customProfileGachaId": 1,
                "customProfileResourceType": "collection",
                "customProfileResourceId": 47,
                "customProfileResourceQuantity": 1,
                "weight": 1
            },
            {
                "id": 47,
                "customProfileGachaId": 1,
                "customProfileResourceType": "collection",
                "customProfileResourceId": 48,
                "customProfileResourceQuantity": 1,
                "weight": 1
            },
            {
                "id": 48,
                "customProfileGachaId": 1,
                "customProfileResourceType": "collection",
                "customProfileResourceId": 49,
                "customProfileResourceQuantity": 1,
                "weight": 1
            },
            {
                "id": 49,
                "customProfileGachaId": 1,
                "customProfileResourceType": "collection",
                "customProfileResourceId": 50,
                "customProfileResourceQuantity": 1,
                "weight": 1
            },
            {
                "id": 50,
                "customProfileGachaId": 1,
                "customProfileResourceType": "collection",
                "customProfileResourceId": 51,
                "customProfileResourceQuantity": 1,
                "weight": 1
            },
            {
                "id": 51,
                "customProfileGachaId": 1,
                "customProfileResourceType": "collection",
                "customProfileResourceId": 52,
                "customProfileResourceQuantity": 1,
                "weight": 1
            },
            {
                "id": 52,
                "customProfileGachaId": 1,
                "customProfileResourceType": "collection",
                "customProfileResourceId": 53,
                "customProfileResourceQuantity": 1,
                "weight": 1
            },
            {
                "id": 53,
                "customProfileGachaId": 1,
                "customProfileResourceType": "collection",
                "customProfileResourceId": 54,
                "customProfileResourceQuantity": 1,
                "weight": 1
            },
            {
                "id": 54,
                "customProfileGachaId": 1,
                "customProfileResourceType": "collection",
                "customProfileResourceId": 55,
                "customProfileResourceQuantity": 1,
                "weight": 1
            },
            {
                "id": 55,
                "customProfileGachaId": 1,
                "customProfileResourceType": "collection",
                "customProfileResourceId": 56,
                "customProfileResourceQuantity": 1,
                "weight": 1
            },
            {
                "id": 56,
                "customProfileGachaId": 1,
                "customProfileResourceType": "collection",
                "customProfileResourceId": 57,
                "customProfileResourceQuantity": 1,
                "weight": 1
            },
            {
                "id": 57,
                "customProfileGachaId": 1,
                "customProfileResourceType": "collection",
                "customProfileResourceId": 58,
                "customProfileResourceQuantity": 1,
                "weight": 1
            },
            {
                "id": 58,
                "customProfileGachaId": 1,
                "customProfileResourceType": "collection",
                "customProfileResourceId": 59,
                "customProfileResourceQuantity": 1,
                "weight": 1
            },
            {
                "id": 59,
                "customProfileGachaId": 1,
                "customProfileResourceType": "collection",
                "customProfileResourceId": 60,
                "customProfileResourceQuantity": 1,
                "weight": 1
            },
            {
                "id": 60,
                "customProfileGachaId": 1,
                "customProfileResourceType": "collection",
                "customProfileResourceId": 61,
                "customProfileResourceQuantity": 1,
                "weight": 1
            },
            {
                "id": 61,
                "customProfileGachaId": 1,
                "customProfileResourceType": "collection",
                "customProfileResourceId": 62,
                "customProfileResourceQuantity": 1,
                "weight": 1
            },
            {
                "id": 62,
                "customProfileGachaId": 1,
                "customProfileResourceType": "collection",
                "customProfileResourceId": 63,
                "customProfileResourceQuantity": 1,
                "weight": 1
            },
            {
                "id": 63,
                "customProfileGachaId": 1,
                "customProfileResourceType": "collection",
                "customProfileResourceId": 64,
                "customProfileResourceQuantity": 1,
                "weight": 1
            },
            {
                "id": 64,
                "customProfileGachaId": 1,
                "customProfileResourceType": "collection",
                "customProfileResourceId": 65,
                "customProfileResourceQuantity": 1,
                "weight": 1
            }
        ]
    },
    {
        "id": 2,
        "name": "「コネクトライブ Vivid BAD SQUAD 1st CRASH」コレクションBOX",
        "startAt": 1654236000000,
        "endAt": 1655013599000,
        "assetbundleName": "collection_gacha_1st_vbs",
        "description": "『「コネクトライブ Vivid BAD SQUAD 1st CRASH」\nコレクションBOX』が登場！\n\n『「コネクトライブ Vivid BAD SQUAD 1st CRASH」\nコレクションBOX』からは期間限定のコレクションアイテムとして、缶バッジやアクリルスタンド、ライブグッズをモチーフとしたアイテムが出現します。\n獲得したコレクションアイテムはカスタムプロフィールの素材として使用することができます。\n",
        "notice": "・クリスタルは無償分から先に消費されます。\n・コレクションBOXで出現するコレクションは重複する場合があります。重複したコレクションについてはカスタムプロフィールで複数使用することができます。\n・コレクションBOXは提供割合に基づき1回ごとに抽選を行います。例えば提供割合1%のコレクションが100回中1回必ず出現するという仕組みではありません。\n・コレクションBOXの提供割合につきましては、提供割合タブにてご確認ください。\n・提供割合タブで表示している確率は表示上小数点第4位にて四捨五入しているため、すべてを合算しても100％にならない場合があります。\n・コレクションBOX実行後に強制終了、もしくは回線が切断され正常に結果画面が表示されなかった場合でも、コレクションは獲得されております。カスタムプロフィールのコレクションをご確認ください。\n・本コレクションBOXで登場した期間限定コレクションは今後再登場する可能性があります。再登場予定については現在未定です。\n・開催スケジュールは予告なく変更する場合がございます。",
        "customProfileGachaBehaviors": [
            {
                "id": 4,
                "customProfileGachaId": 2,
                "seq": 1,
                "costResourceType": "virtual_coin",
                "costResourceQuantity": 3000,
                "spinCount": 10
            },
            {
                "id": 5,
                "customProfileGachaId": 2,
                "seq": 2,
                "costResourceType": "jewel",
                "costResourceQuantity": 1000,
                "spinCount": 10
            },
            {
                "id": 6,
                "customProfileGachaId": 2,
                "seq": 3,
                "costResourceType": "jewel",
                "costResourceQuantity": 100,
                "spinCount": 1
            }
        ],
        "customProfileGachaDetails": [
            {
                "id": 65,
                "customProfileGachaId": 2,
                "customProfileResourceType": "collection",
                "customProfileResourceId": 69,
                "customProfileResourceQuantity": 1,
                "weight": 1
            },
            {
                "id": 66,
                "customProfileGachaId": 2,
                "customProfileResourceType": "collection",
                "customProfileResourceId": 70,
                "customProfileResourceQuantity": 1,
                "weight": 1
            },
            {
                "id": 67,
                "customProfileGachaId": 2,
                "customProfileResourceType": "collection",
                "customProfileResourceId": 71,
                "customProfileResourceQuantity": 1,
                "weight": 1
            },
            {
                "id": 68,
                "customProfileGachaId": 2,
                "customProfileResourceType": "collection",
                "customProfileResourceId": 72,
                "customProfileResourceQuantity": 1,
                "weight": 1
            },
            {
                "id": 69,
                "customProfileGachaId": 2,
                "customProfileResourceType": "collection",
                "customProfileResourceId": 73,
                "customProfileResourceQuantity": 1,
                "weight": 1
            },
            {
                "id": 70,
                "customProfileGachaId": 2,
                "customProfileResourceType": "collection",
                "customProfileResourceId": 74,
                "customProfileResourceQuantity": 1,
                "weight": 1
            },
            {
                "id": 71,
                "customProfileGachaId": 2,
                "customProfileResourceType": "collection",
                "customProfileResourceId": 75,
                "customProfileResourceQuantity": 1,
                "weight": 1
            },
            {
                "id": 72,
                "customProfileGachaId": 2,
                "customProfileResourceType": "collection",
                "customProfileResourceId": 76,
                "customProfileResourceQuantity": 1,
                "weight": 1
            },
            {
                "id": 73,
                "customProfileGachaId": 2,
                "customProfileResourceType": "collection",
                "customProfileResourceId": 77,
                "customProfileResourceQuantity": 1,
                "weight": 1
            },
            {
                "id": 74,
                "customProfileGachaId": 2,
                "customProfileResourceType": "collection",
                "customProfileResourceId": 78,
                "customProfileResourceQuantity": 1,
                "weight": 1
            },
            {
                "id": 75,
                "customProfileGachaId": 2,
                "customProfileResourceType": "collection",
                "customProfileResourceId": 79,
                "customProfileResourceQuantity": 1,
                "weight": 1
            },
            {
                "id": 76,
                "customProfileGachaId": 2,
                "customProfileResourceType": "collection",
                "customProfileResourceId": 80,
                "customProfileResourceQuantity": 1,
                "weight": 1
            },
            {
                "id": 77,
                "customProfileGachaId": 2,
                "customProfileResourceType": "collection",
                "customProfileResourceId": 81,
                "customProfileResourceQuantity": 1,
                "weight": 1
            },
            {
                "id": 78,
                "customProfileGachaId": 2,
                "customProfileResourceType": "collection",
                "customProfileResourceId": 82,
                "customProfileResourceQuantity": 1,
                "weight": 1
            },
            {
                "id": 79,
                "customProfileGachaId": 2,
                "customProfileResourceType": "collection",
                "customProfileResourceId": 83,
                "customProfileResourceQuantity": 1,
                "weight": 1
            },
            {
                "id": 80,
                "customProfileGachaId": 2,
                "customProfileResourceType": "collection",
                "customProfileResourceId": 84,
                "customProfileResourceQuantity": 1,
                "weight": 1
            },
            {
                "id": 81,
                "customProfileGachaId": 2,
                "customProfileResourceType": "collection",
                "customProfileResourceId": 85,
                "customProfileResourceQuantity": 1,
                "weight": 1
            },
            {
                "id": 82,
                "customProfileGachaId": 2,
                "customProfileResourceType": "collection",
                "customProfileResourceId": 86,
                "customProfileResourceQuantity": 1,
                "weight": 1
            },
            {
                "id": 83,
                "customProfileGachaId": 2,
                "customProfileResourceType": "collection",
                "customProfileResourceId": 87,
                "customProfileResourceQuantity": 1,
                "weight": 1
            },
            {
                "id": 84,
                "customProfileGachaId": 2,
                "customProfileResourceType": "collection",
                "customProfileResourceId": 88,
                "customProfileResourceQuantity": 1,
                "weight": 1
            }
        ]
    }
]