[
    {
        "customProfileResourceType": "player_info",
        "id": 1,
        "seq": 7,
        "name": "Twitter",
        "resourceLoadType": "prefab",
        "resourceLoadVal": "CustomProfile/ContentView/General",
        "fileName": "Twitter"
    },
    {
        "customProfileResourceType": "player_info",
        "id": 2,
        "seq": 3,
        "name": "総合力",
        "resourceLoadType": "prefab",
        "resourceLoadVal": "CustomProfile/ContentView/General",
        "fileName": "TotalPower"
    },
    {
        "customProfileResourceType": "player_info",
        "id": 3,
        "seq": 9,
        "name": "メインユニット",
        "resourceLoadType": "prefab",
        "resourceLoadVal": "CustomProfile/ContentView/General",
        "fileName": "Deck"
    },
    {
        "customProfileResourceType": "player_info",
        "id": 4,
        "seq": 2,
        "name": "ひと言",
        "resourceLoadType": "prefab",
        "resourceLoadVal": "CustomProfile/ContentView/General",
        "fileName": "Comment"
    },
    {
        "customProfileResourceType": "player_info",
        "id": 5,
        "seq": 4,
        "name": "リーダーメンバー",
        "resourceLoadType": "prefab",
        "resourceLoadVal": "CustomProfile/ContentView/General",
        "fileName": "LeaderCard"
    },
    {
        "customProfileResourceType": "player_info",
        "id": 6,
        "seq": 8,
        "name": "称号",
        "resourceLoadType": "prefab",
        "resourceLoadVal": "CustomProfile/ContentView/General",
        "fileName": "HonorDeck"
    },
    {
        "customProfileResourceType": "player_info",
        "id": 9,
        "seq": 5,
        "name": "MVP・SUPERSTAR",
        "resourceLoadType": "prefab",
        "resourceLoadVal": "CustomProfile/ContentView/General",
        "fileName": "MultiLive"
    },
    {
        "customProfileResourceType": "player_info",
        "id": 10,
        "seq": 11,
        "name": "チャレンジライブ",
        "resourceLoadType": "prefab",
        "resourceLoadVal": "CustomProfile/ContentView/General",
        "fileName": "ChallengeLive"
    },
    {
        "customProfileResourceType": "player_info",
        "id": 11,
        "seq": 6,
        "name": "キャラクターランク・チャレンジステージ",
        "resourceLoadType": "prefab",
        "resourceLoadVal": "CustomProfile/ContentView/General",
        "fileName": "CharacterRankAndChallengeStage"
    },
    {
        "customProfileResourceType": "player_info",
        "id": 12,
        "seq": 10,
        "name": "楽曲情報",
        "resourceLoadType": "prefab",
        "resourceLoadVal": "CustomProfile/ContentView/General",
        "fileName": "MusicClearInfo"
    },
    {
        "customProfileResourceType": "player_info",
        "id": 13,
        "seq": 1,
        "name": "プレイヤー名",
        "resourceLoadType": "prefab",
        "resourceLoadVal": "CustomProfile/ContentView/General",
        "fileName": "EditUserName"
    }
]