[
    {
        "customProfileResourceType": "collection",
        "id": 1,
        "seq": 10,
        "name": "おみくじ",
        "resourceLoadType": "assetbundle",
        "resourceLoadVal": "lottery_game/new_year_2022",
        "fileName": "Prefabs/Omikuji",
        "customProfileResourceCollectionType": "omikuji",
        "groupId": 1
    },
    {
        "customProfileResourceType": "collection",
        "id": 2,
        "seq": 20,
        "name": "バーチャル・シンガーの絵馬",
        "resourceLoadType": "assetbundle",
        "resourceLoadVal": "custom_profile/other/ema",
        "fileName": "ema_piapro"
    },
    {
        "customProfileResourceType": "collection",
        "id": 3,
        "seq": 30,
        "name": "Leo/needの絵馬",
        "resourceLoadType": "assetbundle",
        "resourceLoadVal": "custom_profile/other/ema",
        "fileName": "ema_leoneed"
    },
    {
        "customProfileResourceType": "collection",
        "id": 4,
        "seq": 40,
        "name": "MORE MORE JUMP！の絵馬",
        "resourceLoadType": "assetbundle",
        "resourceLoadVal": "custom_profile/other/ema",
        "fileName": "ema_morejump"
    },
    {
        "customProfileResourceType": "collection",
        "id": 5,
        "seq": 50,
        "name": "Vivid BAD SQUADの絵馬",
        "resourceLoadType": "assetbundle",
        "resourceLoadVal": "custom_profile/other/ema",
        "fileName": "ema_vivibad"
    },
    {
        "customProfileResourceType": "collection",
        "id": 6,
        "seq": 60,
        "name": "ワンダーランズ×ショウタイムの絵馬",
        "resourceLoadType": "assetbundle",
        "resourceLoadVal": "custom_profile/other/ema",
        "fileName": "ema_wonder"
    },
    {
        "customProfileResourceType": "collection",
        "id": 7,
        "seq": 70,
        "name": "25時、ナイトコードで。の絵馬",
        "resourceLoadType": "assetbundle",
        "resourceLoadVal": "custom_profile/other/ema",
        "fileName": "ema_25night"
    },
    {
        "customProfileResourceType": "collection",
        "id": 8,
        "seq": 80,
        "name": "ミクの絵馬",
        "resourceLoadType": "assetbundle",
        "resourceLoadVal": "custom_profile/other/ema",
        "fileName": "ema_miku"
    },
    {
        "customProfileResourceType": "collection",
        "id": 9,
        "seq": 90,
        "name": "リンの絵馬",
        "resourceLoadType": "assetbundle",
        "resourceLoadVal": "custom_profile/other/ema",
        "fileName": "ema_rin"
    },
    {
        "customProfileResourceType": "collection",
        "id": 10,
        "seq": 100,
        "name": "レンの絵馬",
        "resourceLoadType": "assetbundle",
        "resourceLoadVal": "custom_profile/other/ema",
        "fileName": "ema_len"
    },
    {
        "customProfileResourceType": "collection",
        "id": 11,
        "seq": 110,
        "name": "ルカの絵馬",
        "resourceLoadType": "assetbundle",
        "resourceLoadVal": "custom_profile/other/ema",
        "fileName": "ema_luka"
    },
    {
        "customProfileResourceType": "collection",
        "id": 12,
        "seq": 120,
        "name": "MEIKOの絵馬",
        "resourceLoadType": "assetbundle",
        "resourceLoadVal": "custom_profile/other/ema",
        "fileName": "ema_meiko"
    },
    {
        "customProfileResourceType": "collection",
        "id": 13,
        "seq": 130,
        "name": "KAITOの絵馬",
        "resourceLoadType": "assetbundle",
        "resourceLoadVal": "custom_profile/other/ema",
        "fileName": "ema_kaito"
    },
    {
        "customProfileResourceType": "collection",
        "id": 14,
        "seq": 140,
        "name": "一歌の絵馬",
        "resourceLoadType": "assetbundle",
        "resourceLoadVal": "custom_profile/other/ema",
        "fileName": "ema_ichika"
    },
    {
        "customProfileResourceType": "collection",
        "id": 15,
        "seq": 150,
        "name": "咲希の絵馬",
        "resourceLoadType": "assetbundle",
        "resourceLoadVal": "custom_profile/other/ema",
        "fileName": "ema_saki"
    },
    {
        "customProfileResourceType": "collection",
        "id": 16,
        "seq": 160,
        "name": "穂波の絵馬",
        "resourceLoadType": "assetbundle",
        "resourceLoadVal": "custom_profile/other/ema",
        "fileName": "ema_honami"
    },
    {
        "customProfileResourceType": "collection",
        "id": 17,
        "seq": 170,
        "name": "志歩の絵馬",
        "resourceLoadType": "assetbundle",
        "resourceLoadVal": "custom_profile/other/ema",
        "fileName": "ema_shiho"
    },
    {
        "customProfileResourceType": "collection",
        "id": 18,
        "seq": 180,
        "name": "みのりの絵馬",
        "resourceLoadType": "assetbundle",
        "resourceLoadVal": "custom_profile/other/ema",
        "fileName": "ema_minori"
    },
    {
        "customProfileResourceType": "collection",
        "id": 19,
        "seq": 190,
        "name": "遥の絵馬",
        "resourceLoadType": "assetbundle",
        "resourceLoadVal": "custom_profile/other/ema",
        "fileName": "ema_haruka"
    },
    {
        "customProfileResourceType": "collection",
        "id": 20,
        "seq": 200,
        "name": "愛莉の絵馬",
        "resourceLoadType": "assetbundle",
        "resourceLoadVal": "custom_profile/other/ema",
        "fileName": "ema_airi"
    },
    {
        "customProfileResourceType": "collection",
        "id": 21,
        "seq": 210,
        "name": "雫の絵馬",
        "resourceLoadType": "assetbundle",
        "resourceLoadVal": "custom_profile/other/ema",
        "fileName": "ema_shizuku"
    },
    {
        "customProfileResourceType": "collection",
        "id": 22,
        "seq": 220,
        "name": "こはねの絵馬",
        "resourceLoadType": "assetbundle",
        "resourceLoadVal": "custom_profile/other/ema",
        "fileName": "ema_kohane"
    },
    {
        "customProfileResourceType": "collection",
        "id": 23,
        "seq": 230,
        "name": "杏の絵馬",
        "resourceLoadType": "assetbundle",
        "resourceLoadVal": "custom_profile/other/ema",
        "fileName": "ema_an"
    },
    {
        "customProfileResourceType": "collection",
        "id": 24,
        "seq": 240,
        "name": "彰人の絵馬",
        "resourceLoadType": "assetbundle",
        "resourceLoadVal": "custom_profile/other/ema",
        "fileName": "ema_akito"
    },
    {
        "customProfileResourceType": "collection",
        "id": 25,
        "seq": 250,
        "name": "冬弥の絵馬",
        "resourceLoadType": "assetbundle",
        "resourceLoadVal": "custom_profile/other/ema",
        "fileName": "ema_toya"
    },
    {
        "customProfileResourceType": "collection",
        "id": 26,
        "seq": 260,
        "name": "司の絵馬",
        "resourceLoadType": "assetbundle",
        "resourceLoadVal": "custom_profile/other/ema",
        "fileName": "ema_tukasa"
    },
    {
        "customProfileResourceType": "collection",
        "id": 27,
        "seq": 270,
        "name": "えむの絵馬",
        "resourceLoadType": "assetbundle",
        "resourceLoadVal": "custom_profile/other/ema",
        "fileName": "ema_emu"
    },
    {
        "customProfileResourceType": "collection",
        "id": 28,
        "seq": 280,
        "name": "寧々の絵馬",
        "resourceLoadType": "assetbundle",
        "resourceLoadVal": "custom_profile/other/ema",
        "fileName": "ema_nene"
    },
    {
        "customProfileResourceType": "collection",
        "id": 29,
        "seq": 290,
        "name": "類の絵馬",
        "resourceLoadType": "assetbundle",
        "resourceLoadVal": "custom_profile/other/ema",
        "fileName": "ema_rui"
    },
    {
        "customProfileResourceType": "collection",
        "id": 30,
        "seq": 300,
        "name": "奏の絵馬",
        "resourceLoadType": "assetbundle",
        "resourceLoadVal": "custom_profile/other/ema",
        "fileName": "ema_kanade"
    },
    {
        "customProfileResourceType": "collection",
        "id": 31,
        "seq": 310,
        "name": "まふゆの絵馬",
        "resourceLoadType": "assetbundle",
        "resourceLoadVal": "custom_profile/other/ema",
        "fileName": "ema_mafuyu"
    },
    {
        "customProfileResourceType": "collection",
        "id": 32,
        "seq": 320,
        "name": "絵名の絵馬",
        "resourceLoadType": "assetbundle",
        "resourceLoadVal": "custom_profile/other/ema",
        "fileName": "ema_ena"
    },
    {
        "customProfileResourceType": "collection",
        "id": 33,
        "seq": 330,
        "name": "瑞希の絵馬",
        "resourceLoadType": "assetbundle",
        "resourceLoadVal": "custom_profile/other/ema",
        "fileName": "ema_mizuki"
    },
    {
        "customProfileResourceType": "collection",
        "id": 34,
        "seq": 340,
        "name": "バーチャル・シンガーのお守り",
        "resourceLoadType": "assetbundle",
        "resourceLoadVal": "custom_profile/other/amulet",
        "fileName": "amulet_piapro"
    },
    {
        "customProfileResourceType": "collection",
        "id": 35,
        "seq": 350,
        "name": "Leo/needのお守り",
        "resourceLoadType": "assetbundle",
        "resourceLoadVal": "custom_profile/other/amulet",
        "fileName": "amulet_leoneed"
    },
    {
        "customProfileResourceType": "collection",
        "id": 36,
        "seq": 360,
        "name": "MORE MORE JUMP！のお守り",
        "resourceLoadType": "assetbundle",
        "resourceLoadVal": "custom_profile/other/amulet",
        "fileName": "amulet_morejump"
    },
    {
        "customProfileResourceType": "collection",
        "id": 37,
        "seq": 370,
        "name": "Vivid BAD SQUADのお守り",
        "resourceLoadType": "assetbundle",
        "resourceLoadVal": "custom_profile/other/amulet",
        "fileName": "amulet_vivibad"
    },
    {
        "customProfileResourceType": "collection",
        "id": 38,
        "seq": 380,
        "name": "ワンダーランズ×ショウタイムのお守り",
        "resourceLoadType": "assetbundle",
        "resourceLoadVal": "custom_profile/other/amulet",
        "fileName": "amulet_wonder"
    },
    {
        "customProfileResourceType": "collection",
        "id": 39,
        "seq": 390,
        "name": "25時、ナイトコードで。のお守り",
        "resourceLoadType": "assetbundle",
        "resourceLoadVal": "custom_profile/other/amulet",
        "fileName": "amulet_25night"
    },
    {
        "customProfileResourceType": "collection",
        "id": 40,
        "seq": 400,
        "name": "ミクのお守り",
        "resourceLoadType": "assetbundle",
        "resourceLoadVal": "custom_profile/other/amulet",
        "fileName": "amulet_miku"
    },
    {
        "customProfileResourceType": "collection",
        "id": 41,
        "seq": 410,
        "name": "リンのお守り",
        "resourceLoadType": "assetbundle",
        "resourceLoadVal": "custom_profile/other/amulet",
        "fileName": "amulet_rin"
    },
    {
        "customProfileResourceType": "collection",
        "id": 42,
        "seq": 420,
        "name": "レンのお守り",
        "resourceLoadType": "assetbundle",
        "resourceLoadVal": "custom_profile/other/amulet",
        "fileName": "amulet_len"
    },
    {
        "customProfileResourceType": "collection",
        "id": 43,
        "seq": 430,
        "name": "ルカのお守り",
        "resourceLoadType": "assetbundle",
        "resourceLoadVal": "custom_profile/other/amulet",
        "fileName": "amulet_luka"
    },
    {
        "customProfileResourceType": "collection",
        "id": 44,
        "seq": 440,
        "name": "MEIKOのお守り",
        "resourceLoadType": "assetbundle",
        "resourceLoadVal": "custom_profile/other/amulet",
        "fileName": "amulet_meiko"
    },
    {
        "customProfileResourceType": "collection",
        "id": 45,
        "seq": 450,
        "name": "KAITOのお守り",
        "resourceLoadType": "assetbundle",
        "resourceLoadVal": "custom_profile/other/amulet",
        "fileName": "amulet_kaito"
    },
    {
        "customProfileResourceType": "collection",
        "id": 46,
        "seq": 460,
        "name": "一歌のお守り",
        "resourceLoadType": "assetbundle",
        "resourceLoadVal": "custom_profile/other/amulet",
        "fileName": "amulet_ichika"
    },
    {
        "customProfileResourceType": "collection",
        "id": 47,
        "seq": 470,
        "name": "咲希のお守り",
        "resourceLoadType": "assetbundle",
        "resourceLoadVal": "custom_profile/other/amulet",
        "fileName": "amulet_saki"
    },
    {
        "customProfileResourceType": "collection",
        "id": 48,
        "seq": 480,
        "name": "穂波のお守り",
        "resourceLoadType": "assetbundle",
        "resourceLoadVal": "custom_profile/other/amulet",
        "fileName": "amulet_honami"
    },
    {
        "customProfileResourceType": "collection",
        "id": 49,
        "seq": 490,
        "name": "志歩のお守り",
        "resourceLoadType": "assetbundle",
        "resourceLoadVal": "custom_profile/other/amulet",
        "fileName": "amulet_shiho"
    },
    {
        "customProfileResourceType": "collection",
        "id": 50,
        "seq": 500,
        "name": "みのりのお守り",
        "resourceLoadType": "assetbundle",
        "resourceLoadVal": "custom_profile/other/amulet",
        "fileName": "amulet_minori"
    },
    {
        "customProfileResourceType": "collection",
        "id": 51,
        "seq": 510,
        "name": "遥のお守り",
        "resourceLoadType": "assetbundle",
        "resourceLoadVal": "custom_profile/other/amulet",
        "fileName": "amulet_haruka"
    },
    {
        "customProfileResourceType": "collection",
        "id": 52,
        "seq": 520,
        "name": "愛莉のお守り",
        "resourceLoadType": "assetbundle",
        "resourceLoadVal": "custom_profile/other/amulet",
        "fileName": "amulet_airi"
    },
    {
        "customProfileResourceType": "collection",
        "id": 53,
        "seq": 530,
        "name": "雫のお守り",
        "resourceLoadType": "assetbundle",
        "resourceLoadVal": "custom_profile/other/amulet",
        "fileName": "amulet_shizuku"
    },
    {
        "customProfileResourceType": "collection",
        "id": 54,
        "seq": 540,
        "name": "こはねのお守り",
        "resourceLoadType": "assetbundle",
        "resourceLoadVal": "custom_profile/other/amulet",
        "fileName": "amulet_kohane"
    },
    {
        "customProfileResourceType": "collection",
        "id": 55,
        "seq": 550,
        "name": "杏のお守り",
        "resourceLoadType": "assetbundle",
        "resourceLoadVal": "custom_profile/other/amulet",
        "fileName": "amulet_an"
    },
    {
        "customProfileResourceType": "collection",
        "id": 56,
        "seq": 560,
        "name": "彰人のお守り",
        "resourceLoadType": "assetbundle",
        "resourceLoadVal": "custom_profile/other/amulet",
        "fileName": "amulet_akito"
    },
    {
        "customProfileResourceType": "collection",
        "id": 57,
        "seq": 570,
        "name": "冬弥のお守り",
        "resourceLoadType": "assetbundle",
        "resourceLoadVal": "custom_profile/other/amulet",
        "fileName": "amulet_toya"
    },
    {
        "customProfileResourceType": "collection",
        "id": 58,
        "seq": 580,
        "name": "司のお守り",
        "resourceLoadType": "assetbundle",
        "resourceLoadVal": "custom_profile/other/amulet",
        "fileName": "amulet_tukasa"
    },
    {
        "customProfileResourceType": "collection",
        "id": 59,
        "seq": 590,
        "name": "えむのお守り",
        "resourceLoadType": "assetbundle",
        "resourceLoadVal": "custom_profile/other/amulet",
        "fileName": "amulet_emu"
    },
    {
        "customProfileResourceType": "collection",
        "id": 60,
        "seq": 600,
        "name": "寧々のお守り",
        "resourceLoadType": "assetbundle",
        "resourceLoadVal": "custom_profile/other/amulet",
        "fileName": "amulet_nene"
    },
    {
        "customProfileResourceType": "collection",
        "id": 61,
        "seq": 610,
        "name": "類のお守り",
        "resourceLoadType": "assetbundle",
        "resourceLoadVal": "custom_profile/other/amulet",
        "fileName": "amulet_rui"
    },
    {
        "customProfileResourceType": "collection",
        "id": 62,
        "seq": 620,
        "name": "奏のお守り",
        "resourceLoadType": "assetbundle",
        "resourceLoadVal": "custom_profile/other/amulet",
        "fileName": "amulet_kanade"
    },
    {
        "customProfileResourceType": "collection",
        "id": 63,
        "seq": 630,
        "name": "まふゆのお守り",
        "resourceLoadType": "assetbundle",
        "resourceLoadVal": "custom_profile/other/amulet",
        "fileName": "amulet_mafuyu"
    },
    {
        "customProfileResourceType": "collection",
        "id": 64,
        "seq": 640,
        "name": "絵名のお守り",
        "resourceLoadType": "assetbundle",
        "resourceLoadVal": "custom_profile/other/amulet",
        "fileName": "amulet_ena"
    },
    {
        "customProfileResourceType": "collection",
        "id": 65,
        "seq": 650,
        "name": "瑞希のお守り",
        "resourceLoadType": "assetbundle",
        "resourceLoadVal": "custom_profile/other/amulet",
        "fileName": "amulet_mizuki"
    },
    {
        "customProfileResourceType": "collection",
        "id": 66,
        "seq": 660,
        "name": "「CRASH」銀テープ",
        "resourceLoadType": "assetbundle",
        "resourceLoadVal": "custom_profile/collection/crash",
        "fileName": "crash_tape"
    },
    {
        "customProfileResourceType": "collection",
        "id": 67,
        "seq": 670,
        "name": "「CRASH」ライブロゴステッカー",
        "resourceLoadType": "assetbundle",
        "resourceLoadVal": "custom_profile/collection/crash",
        "fileName": "crash_logo"
    },
    {
        "customProfileResourceType": "collection",
        "id": 68,
        "seq": 680,
        "name": "「CRASH」キービジュアルステッカー",
        "resourceLoadType": "assetbundle",
        "resourceLoadVal": "custom_profile/collection/crash",
        "fileName": "crash_keyvisual"
    },
    {
        "customProfileResourceType": "collection",
        "id": 69,
        "seq": 690,
        "name": "「CRASH」タペストリー",
        "resourceLoadType": "assetbundle",
        "resourceLoadVal": "custom_profile/collection/crash",
        "fileName": "crash_tapestry"
    },
    {
        "customProfileResourceType": "collection",
        "id": 70,
        "seq": 700,
        "name": "「CRASH」こはねの缶バッジ",
        "resourceLoadType": "assetbundle",
        "resourceLoadVal": "custom_profile/collection/crash",
        "fileName": "crash_kohane_canbadge",
        "customProfileResourceCollectionType": "can_badge"
    },
    {
        "customProfileResourceType": "collection",
        "id": 71,
        "seq": 710,
        "name": "「CRASH」杏の缶バッジ",
        "resourceLoadType": "assetbundle",
        "resourceLoadVal": "custom_profile/collection/crash",
        "fileName": "crash_an_canbadge",
        "customProfileResourceCollectionType": "can_badge"
    },
    {
        "customProfileResourceType": "collection",
        "id": 72,
        "seq": 720,
        "name": "「CRASH」彰人の缶バッジ",
        "resourceLoadType": "assetbundle",
        "resourceLoadVal": "custom_profile/collection/crash",
        "fileName": "crash_akito_canbadge",
        "customProfileResourceCollectionType": "can_badge"
    },
    {
        "customProfileResourceType": "collection",
        "id": 73,
        "seq": 730,
        "name": "「CRASH」冬弥の缶バッジ",
        "resourceLoadType": "assetbundle",
        "resourceLoadVal": "custom_profile/collection/crash",
        "fileName": "crash_toya_canbadge",
        "customProfileResourceCollectionType": "can_badge"
    },
    {
        "customProfileResourceType": "collection",
        "id": 74,
        "seq": 740,
        "name": "「CRASH」ミクの缶バッジ",
        "resourceLoadType": "assetbundle",
        "resourceLoadVal": "custom_profile/collection/crash",
        "fileName": "crash_miku_canbadge",
        "customProfileResourceCollectionType": "can_badge"
    },
    {
        "customProfileResourceType": "collection",
        "id": 75,
        "seq": 750,
        "name": "「CRASH」レンの缶バッジ",
        "resourceLoadType": "assetbundle",
        "resourceLoadVal": "custom_profile/collection/crash",
        "fileName": "crash_len_canbadge",
        "customProfileResourceCollectionType": "can_badge"
    },
    {
        "customProfileResourceType": "collection",
        "id": 76,
        "seq": 760,
        "name": "「CRASH」ルカの缶バッジ",
        "resourceLoadType": "assetbundle",
        "resourceLoadVal": "custom_profile/collection/crash",
        "fileName": "crash_luka_canbadge",
        "customProfileResourceCollectionType": "can_badge"
    },
    {
        "customProfileResourceType": "collection",
        "id": 77,
        "seq": 770,
        "name": "「CRASH」KAITOの缶バッジ",
        "resourceLoadType": "assetbundle",
        "resourceLoadVal": "custom_profile/collection/crash",
        "fileName": "crash_kaito_canbadge",
        "customProfileResourceCollectionType": "can_badge"
    },
    {
        "customProfileResourceType": "collection",
        "id": 78,
        "seq": 780,
        "name": "「CRASH」こはねのアクリルスタンド",
        "resourceLoadType": "assetbundle",
        "resourceLoadVal": "custom_profile/collection/crash",
        "fileName": "crash_kohane_acrylicstand"
    },
    {
        "customProfileResourceType": "collection",
        "id": 79,
        "seq": 790,
        "name": "「CRASH」杏のアクリルスタンド",
        "resourceLoadType": "assetbundle",
        "resourceLoadVal": "custom_profile/collection/crash",
        "fileName": "crash_an_acrylicstand"
    },
    {
        "customProfileResourceType": "collection",
        "id": 80,
        "seq": 800,
        "name": "「CRASH」彰人のアクリルスタンド",
        "resourceLoadType": "assetbundle",
        "resourceLoadVal": "custom_profile/collection/crash",
        "fileName": "crash_akito_acrylicstand"
    },
    {
        "customProfileResourceType": "collection",
        "id": 81,
        "seq": 810,
        "name": "「CRASH」冬弥のアクリルスタンド",
        "resourceLoadType": "assetbundle",
        "resourceLoadVal": "custom_profile/collection/crash",
        "fileName": "crash_toya_acrylicstand"
    },
    {
        "customProfileResourceType": "collection",
        "id": 82,
        "seq": 820,
        "name": "「CRASH」ミクのアクリルスタンド",
        "resourceLoadType": "assetbundle",
        "resourceLoadVal": "custom_profile/collection/crash",
        "fileName": "crash_miku_acrylicstand"
    },
    {
        "customProfileResourceType": "collection",
        "id": 83,
        "seq": 830,
        "name": "「CRASH」レンのアクリルスタンド",
        "resourceLoadType": "assetbundle",
        "resourceLoadVal": "custom_profile/collection/crash",
        "fileName": "crash_len_acrylicstand"
    },
    {
        "customProfileResourceType": "collection",
        "id": 84,
        "seq": 840,
        "name": "「CRASH」ルカのアクリルスタンド",
        "resourceLoadType": "assetbundle",
        "resourceLoadVal": "custom_profile/collection/crash",
        "fileName": "crash_luka_acrylicstand"
    },
    {
        "customProfileResourceType": "collection",
        "id": 85,
        "seq": 850,
        "name": "「CRASH」KAITOのアクリルスタンド",
        "resourceLoadType": "assetbundle",
        "resourceLoadVal": "custom_profile/collection/crash",
        "fileName": "crash_kaito_acrylicstand"
    },
    {
        "customProfileResourceType": "collection",
        "id": 86,
        "seq": 860,
        "name": "「CRASH」キーホルダー",
        "resourceLoadType": "assetbundle",
        "resourceLoadVal": "custom_profile/collection/crash",
        "fileName": "crash_keyholder"
    },
    {
        "customProfileResourceType": "collection",
        "id": 87,
        "seq": 870,
        "name": "「CRASH」チケットホルダー",
        "resourceLoadType": "assetbundle",
        "resourceLoadVal": "custom_profile/collection/crash",
        "fileName": "crash_ticketholder"
    },
    {
        "customProfileResourceType": "collection",
        "id": 88,
        "seq": 880,
        "name": "「CRASH」タオル",
        "resourceLoadType": "assetbundle",
        "resourceLoadVal": "custom_profile/collection/crash",
        "fileName": "crash_towel"
    }
]