[
    {
        "eventId": 1,
        "musicId": 64,
        "seq": 1,
        "releaseConditionId": 1
    },
    {
        "eventId": 2,
        "musicId": 62,
        "seq": 1,
        "releaseConditionId": 1
    },
    {
        "eventId": 3,
        "musicId": 52,
        "seq": 1,
        "releaseConditionId": 1
    },
    {
        "eventId": 5,
        "musicId": 99,
        "seq": 1,
        "releaseConditionId": 1
    },
    {
        "eventId": 6,
        "musicId": 55,
        "seq": 1,
        "releaseConditionId": 1
    },
    {
        "eventId": 8,
        "musicId": 103,
        "seq": 1,
        "releaseConditionId": 1
    },
    {
        "eventId": 10,
        "musicId": 97,
        "seq": 1,
        "releaseConditionId": 1
    },
    {
        "eventId": 11,
        "musicId": 89,
        "seq": 1,
        "releaseConditionId": 1
    },
    {
        "eventId": 12,
        "musicId": 101,
        "seq": 1,
        "releaseConditionId": 1
    },
    {
        "eventId": 14,
        "musicId": 90,
        "seq": 1,
        "releaseConditionId": 1
    },
    {
        "eventId": 15,
        "musicId": 105,
        "seq": 1,
        "releaseConditionId": 1
    },
    {
        "eventId": 17,
        "musicId": 112,
        "seq": 1,
        "releaseConditionId": 1
    },
    {
        "eventId": 19,
        "musicId": 116,
        "seq": 1,
        "releaseConditionId": 1
    },
    {
        "eventId": 20,
        "musicId": 132,
        "seq": 1,
        "releaseConditionId": 1
    },
    {
        "eventId": 21,
        "musicId": 126,
        "seq": 1,
        "releaseConditionId": 1
    },
    {
        "eventId": 23,
        "musicId": 144,
        "seq": 1,
        "releaseConditionId": 1
    },
    {
        "eventId": 25,
        "musicId": 127,
        "seq": 1,
        "releaseConditionId": 1
    },
    {
        "eventId": 26,
        "musicId": 149,
        "seq": 1,
        "releaseConditionId": 1
    },
    {
        "eventId": 27,
        "musicId": 130,
        "seq": 1,
        "releaseConditionId": 1
    },
    {
        "eventId": 28,
        "musicId": 156,
        "seq": 1,
        "releaseConditionId": 1
    },
    {
        "eventId": 31,
        "musicId": 140,
        "seq": 1,
        "releaseConditionId": 1
    },
    {
        "eventId": 32,
        "musicId": 166,
        "seq": 1,
        "releaseConditionId": 1
    },
    {
        "eventId": 34,
        "musicId": 173,
        "seq": 1,
        "releaseConditionId": 1
    },
    {
        "eventId": 35,
        "musicId": 142,
        "seq": 1,
        "releaseConditionId": 1
    },
    {
        "eventId": 38,
        "musicId": 160,
        "seq": 1,
        "releaseConditionId": 1
    },
    {
        "eventId": 39,
        "musicId": 187,
        "seq": 1,
        "releaseConditionId": 1
    },
    {
        "eventId": 40,
        "musicId": 159,
        "seq": 1,
        "releaseConditionId": 1
    },
    {
        "eventId": 43,
        "musicId": 193,
        "seq": 1,
        "releaseConditionId": 1
    },
    {
        "eventId": 44,
        "musicId": 180,
        "seq": 1,
        "releaseConditionId": 1
    },
    {
        "eventId": 46,
        "musicId": 178,
        "seq": 1,
        "releaseConditionId": 1
    },
    {
        "eventId": 47,
        "musicId": 203,
        "seq": 1,
        "releaseConditionId": 1
    },
    {
        "eventId": 49,
        "musicId": 182,
        "seq": 1,
        "releaseConditionId": 1
    },
    {
        "eventId": 50,
        "musicId": 207,
        "seq": 1,
        "releaseConditionId": 1
    },
    {
        "eventId": 52,
        "musicId": 209,
        "seq": 1,
        "releaseConditionId": 1
    },
    {
        "eventId": 53,
        "musicId": 189,
        "seq": 1,
        "releaseConditionId": 1
    },
    {
        "eventId": 55,
        "musicId": 224,
        "seq": 1,
        "releaseConditionId": 1
    },
    {
        "eventId": 56,
        "musicId": 196,
        "seq": 1,
        "releaseConditionId": 1
    },
    {
        "eventId": 57,
        "musicId": 211,
        "seq": 1,
        "releaseConditionId": 1
    },
    {
        "eventId": 59,
        "musicId": 239,
        "seq": 1,
        "releaseConditionId": 1
    },
    {
        "eventId": 37,
        "musicId": 244,
        "seq": 1,
        "releaseConditionId": 1
    }
]