[
    {
        "id": 1,
        "name": "一歌ファン",
        "honorType": "character"
    },
    {
        "id": 2,
        "name": "咲希ファン",
        "honorType": "character"
    },
    {
        "id": 3,
        "name": "穂波ファン",
        "honorType": "character"
    },
    {
        "id": 4,
        "name": "志歩ファン",
        "honorType": "character"
    },
    {
        "id": 5,
        "name": "みのりファン",
        "honorType": "character"
    },
    {
        "id": 6,
        "name": "遥ファン",
        "honorType": "character"
    },
    {
        "id": 7,
        "name": "愛莉ファン",
        "honorType": "character"
    },
    {
        "id": 8,
        "name": "雫ファン",
        "honorType": "character"
    },
    {
        "id": 9,
        "name": "こはねファン",
        "honorType": "character"
    },
    {
        "id": 10,
        "name": "杏ファン",
        "honorType": "character"
    },
    {
        "id": 11,
        "name": "彰人ファン",
        "honorType": "character"
    },
    {
        "id": 12,
        "name": "冬弥ファン",
        "honorType": "character"
    },
    {
        "id": 13,
        "name": "司ファン",
        "honorType": "character"
    },
    {
        "id": 14,
        "name": "えむファン",
        "honorType": "character"
    },
    {
        "id": 15,
        "name": "寧々ファン",
        "honorType": "character"
    },
    {
        "id": 16,
        "name": "類ファン",
        "honorType": "character"
    },
    {
        "id": 17,
        "name": "奏ファン",
        "honorType": "character"
    },
    {
        "id": 18,
        "name": "まふゆファン",
        "honorType": "character"
    },
    {
        "id": 19,
        "name": "絵名ファン",
        "honorType": "character"
    },
    {
        "id": 20,
        "name": "瑞希ファン",
        "honorType": "character"
    },
    {
        "id": 21,
        "name": "ミクファン",
        "honorType": "character"
    },
    {
        "id": 22,
        "name": "リンファン",
        "honorType": "character"
    },
    {
        "id": 23,
        "name": "レンファン",
        "honorType": "character"
    },
    {
        "id": 24,
        "name": "ルカファン",
        "honorType": "character"
    },
    {
        "id": 25,
        "name": "MEIKOファン",
        "honorType": "character"
    },
    {
        "id": 26,
        "name": "KAITOファン",
        "honorType": "character"
    },
    {
        "id": 27,
        "name": "39！",
        "honorType": "achievement"
    },
    {
        "id": 28,
        "name": "3939！",
        "honorType": "achievement"
    },
    {
        "id": 29,
        "name": "一人前",
        "honorType": "achievement"
    },
    {
        "id": 30,
        "name": "ベテラン",
        "honorType": "achievement"
    },
    {
        "id": 31,
        "name": "皆勤賞",
        "honorType": "achievement"
    },
    {
        "id": 32,
        "name": "昔からいる",
        "honorType": "achievement"
    },
    {
        "id": 33,
        "name": "もうひとつの歌声",
        "honorType": "achievement"
    },
    {
        "id": 34,
        "name": "箱推し",
        "honorType": "achievement"
    },
    {
        "id": 35,
        "name": "アイテムマイスター",
        "honorType": "achievement"
    },
    {
        "id": 36,
        "name": "みんな大好き",
        "honorType": "achievement"
    },
    {
        "id": 37,
        "name": "完璧主義",
        "honorType": "achievement"
    },
    {
        "id": 38,
        "name": "皆伝",
        "honorType": "achievement"
    },
    {
        "id": 39,
        "name": "真・皆伝",
        "honorType": "achievement"
    },
    {
        "id": 40,
        "name": "安全第一",
        "honorType": "achievement"
    },
    {
        "id": 41,
        "name": "ネバーギブアップ",
        "honorType": "achievement"
    },
    {
        "id": 42,
        "name": "腱鞘炎",
        "honorType": "achievement"
    },
    {
        "id": 43,
        "name": "ミリオネア",
        "honorType": "achievement"
    },
    {
        "id": 44,
        "name": "みんなでフルコンボ！",
        "honorType": "achievement"
    },
    {
        "id": 45,
        "name": "シンクロニシティ",
        "honorType": "achievement"
    },
    {
        "id": 46,
        "name": "ドッペルゲンガー",
        "honorType": "achievement"
    },
    {
        "id": 47,
        "name": "あいさつが大事",
        "honorType": "achievement"
    },
    {
        "id": 49,
        "name": "出会いと別れ",
        "honorType": "achievement"
    },
    {
        "id": 50,
        "name": "スタンプコレクター",
        "honorType": "achievement"
    },
    {
        "id": 51,
        "name": "なんでも知ってる",
        "honorType": "achievement"
    },
    {
        "id": 52,
        "name": "ちゃんと読んでる",
        "honorType": "achievement"
    },
    {
        "id": 53,
        "name": "高校1年生",
        "honorType": "achievement"
    },
    {
        "id": 54,
        "name": "高校2年生",
        "honorType": "achievement"
    },
    {
        "id": 55,
        "name": "宮女生徒",
        "honorType": "achievement"
    },
    {
        "id": 56,
        "name": "神山生徒",
        "honorType": "achievement"
    },
    {
        "id": 57,
        "name": "ボーイズマスター",
        "honorType": "achievement"
    },
    {
        "id": 58,
        "name": "MVP",
        "honorType": "achievement"
    },
    {
        "id": 59,
        "name": "SUPER STAR",
        "honorType": "achievement"
    },
    {
        "id": 60,
        "name": "ファッションリーダー",
        "honorType": "achievement"
    },
    {
        "id": 71,
        "name": "雨上がりの一番星",
        "honorType": "event"
    },
    {
        "id": 72,
        "name": "Leo/need応援隊",
        "honorType": "achievement"
    },
    {
        "id": 73,
        "name": "MORE MORE JUMP！応援隊",
        "honorType": "achievement"
    },
    {
        "id": 74,
        "name": "Vivid BAD SQUAD応援隊",
        "honorType": "achievement"
    },
    {
        "id": 75,
        "name": "ワンダーランズ×ショウタイム応援隊",
        "honorType": "achievement"
    },
    {
        "id": 76,
        "name": "25時、ナイトコードで。応援隊",
        "honorType": "achievement"
    },
    {
        "id": 77,
        "name": "バーチャル・シンガー応援隊",
        "honorType": "achievement"
    },
    {
        "id": 78,
        "name": "HAPPY BIRTHDAY 一歌 2021.8.11",
        "honorType": "event"
    },
    {
        "id": 79,
        "name": "HAPPY BIRTHDAY 咲希 2021.5.9",
        "honorType": "event"
    },
    {
        "id": 80,
        "name": "HAPPY BIRTHDAY 穂波 2020.10.27",
        "honorType": "event"
    },
    {
        "id": 81,
        "name": "HAPPY BIRTHDAY 志歩 2021.1.8",
        "honorType": "event"
    },
    {
        "id": 82,
        "name": "HAPPY BIRTHDAY みのり 2021.4.14",
        "honorType": "event"
    },
    {
        "id": 83,
        "name": "HAPPY BIRTHDAY 遥 2020.10.5",
        "honorType": "event"
    },
    {
        "id": 84,
        "name": "HAPPY BIRTHDAY 愛莉 2021.3.19",
        "honorType": "event"
    },
    {
        "id": 85,
        "name": "HAPPY BIRTHDAY 雫 2020.12.6",
        "honorType": "event"
    },
    {
        "id": 86,
        "name": "HAPPY BIRTHDAY こはね 2021.3.2",
        "honorType": "event"
    },
    {
        "id": 87,
        "name": "HAPPY BIRTHDAY 杏 2021.7.26",
        "honorType": "event"
    },
    {
        "id": 88,
        "name": "HAPPY BIRTHDAY 彰人 2020.11.12",
        "honorType": "event"
    },
    {
        "id": 89,
        "name": "HAPPY BIRTHDAY 冬弥 2021.5.25",
        "honorType": "event"
    },
    {
        "id": 90,
        "name": "HAPPY BIRTHDAY 司 2021.5.17",
        "honorType": "event"
    },
    {
        "id": 91,
        "name": "HAPPY BIRTHDAY えむ 2021.9.9",
        "honorType": "event"
    },
    {
        "id": 92,
        "name": "HAPPY BIRTHDAY 寧々 2021.7.20",
        "honorType": "event"
    },
    {
        "id": 93,
        "name": "HAPPY BIRTHDAY 類 2021.6.24",
        "honorType": "event"
    },
    {
        "id": 94,
        "name": "HAPPY BIRTHDAY 奏 2021.2.10",
        "honorType": "event"
    },
    {
        "id": 95,
        "name": "HAPPY BIRTHDAY まふゆ 2021.1.27",
        "honorType": "event"
    },
    {
        "id": 96,
        "name": "HAPPY BIRTHDAY 絵名 2021.4.30",
        "honorType": "event"
    },
    {
        "id": 97,
        "name": "HAPPY BIRTHDAY 瑞希 2021.8.27",
        "honorType": "event"
    },
    {
        "id": 98,
        "name": "HAPPY ANNIVERSARY ミク 2021.8.31",
        "honorType": "event"
    },
    {
        "id": 99,
        "name": "HAPPY ANNIVERSARY リン 2020.12.27",
        "honorType": "event"
    },
    {
        "id": 100,
        "name": "HAPPY ANNIVERSARY レン 2020.12.27",
        "honorType": "event"
    },
    {
        "id": 101,
        "name": "HAPPY ANNIVERSARY ルカ 2021.1.30",
        "honorType": "event"
    },
    {
        "id": 102,
        "name": "HAPPY ANNIVERSARY MEIKO 2020.11.5",
        "honorType": "event"
    },
    {
        "id": 103,
        "name": "HAPPY ANNIVERSARY KAITO 2021.2.17",
        "honorType": "event"
    },
    {
        "id": 104,
        "name": "囚われのマリオネット",
        "honorType": "event"
    },
    {
        "id": 105,
        "name": "全力！ワンダーハロウィン！",
        "honorType": "event"
    },
    {
        "id": 106,
        "name": "ハロウィン2020",
        "honorType": "event"
    },
    {
        "id": 107,
        "name": "走れ！体育祭！～実行委員は大忙し～",
        "honorType": "event"
    },
    {
        "id": 108,
        "name": "ここからRE:START！",
        "honorType": "event"
    },
    {
        "id": 110,
        "name": "プラチナ",
        "honorType": "achievement"
    },
    {
        "id": 111,
        "name": "いつか、背中あわせのリリックを",
        "honorType": "event"
    },
    {
        "id": 112,
        "name": "KAMIKOU FESTIVAL！",
        "honorType": "event"
    },
    {
        "id": 113,
        "name": "聖なる夜に、この歌声を",
        "honorType": "event"
    },
    {
        "id": 114,
        "name": "クリスマス2020",
        "honorType": "event"
    },
    {
        "id": 115,
        "name": "RAGE プロジェクトセカイ 2020 Winter powered by AQUOS",
        "honorType": "event"
    },
    {
        "id": 116,
        "name": "2021カウントダウンライブ",
        "honorType": "event"
    },
    {
        "id": 117,
        "name": "セカイのハッピーニューイヤー！",
        "honorType": "event"
    },
    {
        "id": 118,
        "name": "揺れるまま、でも君は前へ",
        "honorType": "event"
    },
    {
        "id": 119,
        "name": "Color of Myself！",
        "honorType": "event"
    },
    {
        "id": 120,
        "name": "Period of NOCTURNE",
        "honorType": "event"
    },
    {
        "id": 121,
        "name": "フレンド募集中",
        "honorType": "achievement"
    },
    {
        "id": 122,
        "name": "友達100人できるかな",
        "honorType": "achievement"
    },
    {
        "id": 123,
        "name": "ベストフレンド",
        "honorType": "achievement"
    },
    {
        "id": 124,
        "name": "バレンタイン2021",
        "honorType": "event"
    },
    {
        "id": 125,
        "name": "響くトワイライトパレード",
        "honorType": "event"
    },
    {
        "id": 126,
        "name": "満たされないペイルカラー",
        "honorType": "event"
    },
    {
        "id": 127,
        "name": "スマイルオブドリーマー",
        "honorType": "event"
    },
    {
        "id": 128,
        "name": "ホワイトデー2021",
        "honorType": "event"
    },
    {
        "id": 129,
        "name": "天馬さんちのひな祭り",
        "honorType": "event"
    },
    {
        "id": 130,
        "name": "届け！HOPEFUL STAGE♪",
        "honorType": "event"
    },
    {
        "id": 131,
        "name": "君と歌う、桜舞う世界で",
        "honorType": "event"
    },
    {
        "id": 132,
        "name": "シークレット・ディスタンス",
        "honorType": "event"
    },
    {
        "id": 133,
        "name": "Resonate with you",
        "honorType": "event"
    },
    {
        "id": 134,
        "name": "ダイヤモンド",
        "honorType": "achievement"
    },
    {
        "id": 135,
        "name": "STRAY BAD DOG",
        "honorType": "event"
    },
    {
        "id": 136,
        "name": "お悩み聞かせて！わくわくピクニック",
        "honorType": "event"
    },
    {
        "id": 137,
        "name": "頑張るあなたにBreak Time！",
        "honorType": "event"
    },
    {
        "id": 138,
        "name": "純白の貴方へ、誓いの歌を！",
        "honorType": "event"
    },
    {
        "id": 139,
        "name": "ワンダーマジカルショウタイム！",
        "honorType": "event"
    },
    {
        "id": 140,
        "name": "カーネーション・リコレクション",
        "honorType": "event",
        "backgroundAssetbundleName": "honor_bg_event_carnation"
    },
    {
        "id": 141,
        "name": "七夕2021",
        "honorType": "event"
    },
    {
        "id": 142,
        "name": "Unnamed Harmony",
        "honorType": "event",
        "backgroundAssetbundleName": "honor_bg_event_unnamed"
    },
    {
        "id": 143,
        "name": "Awakening Beat",
        "honorType": "event",
        "backgroundAssetbundleName": "honor_bg_event_awakening"
    },
    {
        "id": 144,
        "name": "夏祭り、鳴り響く音は",
        "honorType": "event",
        "backgroundAssetbundleName": "honor_bg_event_natsumatsuri"
    },
    {
        "id": 145,
        "name": "きっと最高のsummer！",
        "honorType": "event",
        "backgroundAssetbundleName": "honor_bg_event_summer"
    },
    {
        "id": 146,
        "name": "ハッピー・ラブリー・エブリデイ！",
        "honorType": "event",
        "backgroundAssetbundleName": "honor_bg_event_everyday"
    },
    {
        "id": 147,
        "name": "マーメイドにあこがれて",
        "honorType": "event",
        "backgroundAssetbundleName": "honor_bg_event_mermaid"
    },
    {
        "id": 148,
        "name": "ふたり、月うさぎ",
        "honorType": "event",
        "backgroundAssetbundleName": "honor_bg_event_moonrabbit"
    },
    {
        "id": 149,
        "name": "Knock the Future!!",
        "honorType": "event",
        "backgroundAssetbundleName": "honor_bg_event_future"
    },
    {
        "id": 150,
        "name": "灯のミラージュ",
        "honorType": "event",
        "backgroundAssetbundleName": "honor_bg_event_mirage"
    },
    {
        "id": 151,
        "name": "1周年記念",
        "honorType": "event"
    },
    {
        "id": 152,
        "name": "スクランブル・ファンフェスタ！",
        "honorType": "event",
        "backgroundAssetbundleName": "honor_bg_event_scramble"
    },
    {
        "id": 154,
        "name": "HAPPY BIRTHDAY 咲希 2022.5.9",
        "honorType": "event"
    },
    {
        "id": 155,
        "name": "HAPPY BIRTHDAY 穂波 2021.10.27",
        "honorType": "event"
    },
    {
        "id": 156,
        "name": "HAPPY BIRTHDAY 志歩 2022.1.8",
        "honorType": "event"
    },
    {
        "id": 157,
        "name": "HAPPY BIRTHDAY みのり 2022.4.14",
        "honorType": "event"
    },
    {
        "id": 158,
        "name": "HAPPY BIRTHDAY 遥 2021.10.5",
        "honorType": "event"
    },
    {
        "id": 159,
        "name": "HAPPY BIRTHDAY 愛莉 2022.3.19",
        "honorType": "event"
    },
    {
        "id": 160,
        "name": "HAPPY BIRTHDAY 雫 2021.12.6",
        "honorType": "event"
    },
    {
        "id": 161,
        "name": "HAPPY BIRTHDAY こはね 2022.3.2",
        "honorType": "event"
    },
    {
        "id": 163,
        "name": "HAPPY BIRTHDAY 彰人 2021.11.12",
        "honorType": "event"
    },
    {
        "id": 164,
        "name": "HAPPY BIRTHDAY 冬弥 2022.5.25",
        "honorType": "event"
    },
    {
        "id": 165,
        "name": "HAPPY BIRTHDAY 司 2022.5.17",
        "honorType": "event"
    },
    {
        "id": 169,
        "name": "HAPPY BIRTHDAY 奏 2022.2.10",
        "honorType": "event"
    },
    {
        "id": 170,
        "name": "HAPPY BIRTHDAY まふゆ 2022.1.27",
        "honorType": "event"
    },
    {
        "id": 171,
        "name": "HAPPY BIRTHDAY 絵名 2022.4.30",
        "honorType": "event"
    },
    {
        "id": 174,
        "name": "HAPPY ANNIVERSARY リン 2021.12.27",
        "honorType": "event"
    },
    {
        "id": 175,
        "name": "HAPPY ANNIVERSARY レン 2021.12.27",
        "honorType": "event"
    },
    {
        "id": 176,
        "name": "HAPPY ANNIVERSARY ルカ 2022.1.30",
        "honorType": "event"
    },
    {
        "id": 177,
        "name": "HAPPY ANNIVERSARY MEIKO 2021.11.5",
        "honorType": "event"
    },
    {
        "id": 178,
        "name": "HAPPY ANNIVERSARY KAITO 2022.2.17",
        "honorType": "event"
    },
    {
        "id": 179,
        "name": "プロジェクトセカイ Championship 2021 Autumn",
        "honorType": "event"
    },
    {
        "id": 180,
        "name": "プロジェクトセカイ スペシャルチームマッチ2021",
        "honorType": "event"
    },
    {
        "id": 181,
        "name": "ルビー",
        "honorType": "achievement"
    },
    {
        "id": 182,
        "name": "ハロウィン2021",
        "honorType": "event"
    },
    {
        "id": 183,
        "name": "Bout for Beside You",
        "honorType": "event",
        "backgroundAssetbundleName": "honor_bg_event_besideyou"
    },
    {
        "id": 184,
        "name": "Revival my dream",
        "honorType": "event",
        "backgroundAssetbundleName": "honor_bg_event_revival"
    },
    {
        "id": 185,
        "name": "ボクのあしあと キミのゆくさき",
        "honorType": "event",
        "backgroundAssetbundleName": "honor_bg_event_ashiato"
    },
    {
        "id": 186,
        "name": "揺るがぬ想い、今言葉にして",
        "honorType": "event",
        "backgroundAssetbundleName": "honor_bg_event_stage"
    },
    {
        "id": 187,
        "name": "バディ・ファニー・スペンドタイム♪",
        "honorType": "event",
        "backgroundAssetbundleName": "honor_bg_event_buddy"
    },
    {
        "id": 188,
        "name": "交わる旋律 灯るぬくもり",
        "honorType": "event",
        "backgroundAssetbundleName": "honor_bg_event_melody"
    },
    {
        "id": 189,
        "name": "MOREMOREMakingXmas",
        "honorType": "event",
        "backgroundAssetbundleName": "honor_bg_event_makingxmas"
    },
    {
        "id": 190,
        "name": "Same Dreams,Same Colors",
        "honorType": "event",
        "backgroundAssetbundleName": "honor_bg_event_camp"
    },
    {
        "id": 191,
        "name": "クリスマス2021",
        "honorType": "event"
    },
    {
        "id": 192,
        "name": "カウントダウン2022",
        "honorType": "event"
    },
    {
        "id": 193,
        "name": "祈りの先 願う明日は",
        "honorType": "event",
        "backgroundAssetbundleName": "honor_bg_event_prayer"
    },
    {
        "id": 194,
        "name": "POP IN MY HEART!!",
        "honorType": "event",
        "backgroundAssetbundleName": "honor_bg_event_nikkori"
    },
    {
        "id": 195,
        "name": "いつか、絶望の底から",
        "honorType": "event",
        "backgroundAssetbundleName": "honor_bg_event_tricolo"
    },
    {
        "id": 196,
        "name": "秘密の♡バレンタイン大作戦！",
        "honorType": "event",
        "backgroundAssetbundleName": "honor_bg_event_valentine"
    },
    {
        "id": 197,
        "name": "Legend still vivid",
        "honorType": "event",
        "backgroundAssetbundleName": "honor_bg_event_legend"
    },
    {
        "id": 198,
        "name": "バレンタイン2022",
        "honorType": "event"
    },
    {
        "id": 199,
        "name": "あの日、空は遠かった",
        "honorType": "event",
        "backgroundAssetbundleName": "honor_bg_event_peaky"
    },
    {
        "id": 200,
        "name": "怪盗紳士のハラハラ！？ホワイトデー",
        "honorType": "event",
        "backgroundAssetbundleName": "honor_bg_event_whiteday"
    },
    {
        "id": 201,
        "name": "Cast Spell on You",
        "honorType": "event",
        "backgroundAssetbundleName": "honor_bg_event_castspell"
    },
    {
        "id": 202,
        "name": "ホワイトデー2022",
        "honorType": "event"
    },
    {
        "id": 203,
        "name": "空白のキャンバスに描く私は",
        "honorType": "event",
        "backgroundAssetbundleName": "honor_bg_event_canvas"
    },
    {
        "id": 204,
        "name": "プロジェクトセカイ Championship 2022 Spring",
        "honorType": "event"
    },
    {
        "id": 205,
        "name": "セカイの桜、つながる想い",
        "honorType": "event",
        "backgroundAssetbundleName": "honor_bg_event_sakura"
    },
    {
        "id": 206,
        "name": "まばゆい光のステージで",
        "honorType": "event",
        "backgroundAssetbundleName": "honor_bg_event_star"
    },
    {
        "id": 207,
        "name": "Live with memories",
        "honorType": "event",
        "backgroundAssetbundleName": "honor_bg_event_memories"
    },
    {
        "id": 208,
        "name": "つなぐPainful Hope",
        "honorType": "event",
        "backgroundAssetbundleName": "honor_bg_event_painful"
    },
    {
        "id": 209,
        "name": "白熱！神高応援団！",
        "honorType": "event",
        "backgroundAssetbundleName": "honor_bg_event_cheerteam"
    },
    {
        "id": 210,
        "name": "THE POWER OF UNITY",
        "honorType": "event",
        "backgroundAssetbundleName": "honor_bg_event_unity"
    },
    {
        "id": 211,
        "name": "青空に願うユア・ハピネス！",
        "honorType": "event",
        "backgroundAssetbundleName": "honor_bg_event_happiness"
    },
    {
        "id": 212,
        "name": "コネクトライブ Vivid BAD SQUAD 1st CRASH",
        "honorType": "event"
    }
]