[
    {
        "id": 1,
        "musicDifficulty": "easy",
        "combo": 30
    },
    {
        "id": 2,
        "musicDifficulty": "normal",
        "combo": 50
    },
    {
        "id": 3,
        "musicDifficulty": "hard",
        "combo": 70
    },
    {
        "id": 4,
        "musicDifficulty": "expert",
        "combo": 100
    },
    {
        "id": 5,
        "musicDifficulty": "master",
        "combo": 120
    }
]