[
    {
        "id": 1,
        "levelType": "card_skill_1",
        "level": 1,
        "totalExp": 0
    },
    {
        "id": 2,
        "levelType": "card_skill_1",
        "level": 2,
        "totalExp": 1
    },
    {
        "id": 3,
        "levelType": "card_skill_1",
        "level": 3,
        "totalExp": 3
    },
    {
        "id": 4,
        "levelType": "card_skill_1",
        "level": 4,
        "totalExp": 5
    },
    {
        "id": 5,
        "levelType": "card_skill_2",
        "level": 1,
        "totalExp": 0
    },
    {
        "id": 6,
        "levelType": "card_skill_2",
        "level": 2,
        "totalExp": 5
    },
    {
        "id": 7,
        "levelType": "card_skill_2",
        "level": 3,
        "totalExp": 15
    },
    {
        "id": 8,
        "levelType": "card_skill_2",
        "level": 4,
        "totalExp": 25
    },
    {
        "id": 9,
        "levelType": "card_skill_3",
        "level": 1,
        "totalExp": 0
    },
    {
        "id": 10,
        "levelType": "card_skill_3",
        "level": 2,
        "totalExp": 25
    },
    {
        "id": 11,
        "levelType": "card_skill_3",
        "level": 3,
        "totalExp": 100
    },
    {
        "id": 12,
        "levelType": "card_skill_3",
        "level": 4,
        "totalExp": 250
    },
    {
        "id": 13,
        "levelType": "card_skill_4",
        "level": 1,
        "totalExp": 0
    },
    {
        "id": 14,
        "levelType": "card_skill_4",
        "level": 2,
        "totalExp": 1000
    },
    {
        "id": 15,
        "levelType": "card_skill_4",
        "level": 3,
        "totalExp": 4000
    },
    {
        "id": 16,
        "levelType": "card_skill_4",
        "level": 4,
        "totalExp": 10000
    },
    {
        "id": 17,
        "levelType": "card",
        "level": 1,
        "totalExp": 0
    },
    {
        "id": 18,
        "levelType": "card",
        "level": 2,
        "totalExp": 3000
    },
    {
        "id": 19,
        "levelType": "card",
        "level": 3,
        "totalExp": 7000
    },
    {
        "id": 20,
        "levelType": "card",
        "level": 4,
        "totalExp": 12000
    },
    {
        "id": 21,
        "levelType": "card",
        "level": 5,
        "totalExp": 17400
    },
    {
        "id": 22,
        "levelType": "card",
        "level": 6,
        "totalExp": 23200
    },
    {
        "id": 23,
        "levelType": "card",
        "level": 7,
        "totalExp": 29400
    },
    {
        "id": 24,
        "levelType": "card",
        "level": 8,
        "totalExp": 36000
    },
    {
        "id": 25,
        "levelType": "card",
        "level": 9,
        "totalExp": 43000
    },
    {
        "id": 26,
        "levelType": "card",
        "level": 10,
        "totalExp": 50400
    },
    {
        "id": 27,
        "levelType": "card",
        "level": 11,
        "totalExp": 58200
    },
    {
        "id": 28,
        "levelType": "card",
        "level": 12,
        "totalExp": 66400
    },
    {
        "id": 29,
        "levelType": "card",
        "level": 13,
        "totalExp": 75000
    },
    {
        "id": 30,
        "levelType": "card",
        "level": 14,
        "totalExp": 84000
    },
    {
        "id": 31,
        "levelType": "card",
        "level": 15,
        "totalExp": 93400
    },
    {
        "id": 32,
        "levelType": "card",
        "level": 16,
        "totalExp": 103200
    },
    {
        "id": 33,
        "levelType": "card",
        "level": 17,
        "totalExp": 113400
    },
    {
        "id": 34,
        "levelType": "card",
        "level": 18,
        "totalExp": 124000
    },
    {
        "id": 35,
        "levelType": "card",
        "level": 19,
        "totalExp": 135000
    },
    {
        "id": 36,
        "levelType": "card",
        "level": 20,
        "totalExp": 146400
    },
    {
        "id": 37,
        "levelType": "card",
        "level": 21,
        "totalExp": 158200
    },
    {
        "id": 38,
        "levelType": "card",
        "level": 22,
        "totalExp": 170400
    },
    {
        "id": 39,
        "levelType": "card",
        "level": 23,
        "totalExp": 183000
    },
    {
        "id": 40,
        "levelType": "card",
        "level": 24,
        "totalExp": 196000
    },
    {
        "id": 41,
        "levelType": "card",
        "level": 25,
        "totalExp": 209400
    },
    {
        "id": 42,
        "levelType": "card",
        "level": 26,
        "totalExp": 223200
    },
    {
        "id": 43,
        "levelType": "card",
        "level": 27,
        "totalExp": 237400
    },
    {
        "id": 44,
        "levelType": "card",
        "level": 28,
        "totalExp": 252000
    },
    {
        "id": 45,
        "levelType": "card",
        "level": 29,
        "totalExp": 267000
    },
    {
        "id": 46,
        "levelType": "card",
        "level": 30,
        "totalExp": 282400
    },
    {
        "id": 47,
        "levelType": "card",
        "level": 31,
        "totalExp": 298200
    },
    {
        "id": 48,
        "levelType": "card",
        "level": 32,
        "totalExp": 314400
    },
    {
        "id": 49,
        "levelType": "card",
        "level": 33,
        "totalExp": 331000
    },
    {
        "id": 50,
        "levelType": "card",
        "level": 34,
        "totalExp": 348000
    },
    {
        "id": 51,
        "levelType": "card",
        "level": 35,
        "totalExp": 365400
    },
    {
        "id": 52,
        "levelType": "card",
        "level": 36,
        "totalExp": 383200
    },
    {
        "id": 53,
        "levelType": "card",
        "level": 37,
        "totalExp": 401400
    },
    {
        "id": 54,
        "levelType": "card",
        "level": 38,
        "totalExp": 420000
    },
    {
        "id": 55,
        "levelType": "card",
        "level": 39,
        "totalExp": 439000
    },
    {
        "id": 56,
        "levelType": "card",
        "level": 40,
        "totalExp": 458400
    },
    {
        "id": 57,
        "levelType": "card",
        "level": 41,
        "totalExp": 478200
    },
    {
        "id": 58,
        "levelType": "card",
        "level": 42,
        "totalExp": 498400
    },
    {
        "id": 59,
        "levelType": "card",
        "level": 43,
        "totalExp": 519000
    },
    {
        "id": 60,
        "levelType": "card",
        "level": 44,
        "totalExp": 540000
    },
    {
        "id": 61,
        "levelType": "card",
        "level": 45,
        "totalExp": 561400
    },
    {
        "id": 62,
        "levelType": "card",
        "level": 46,
        "totalExp": 583200
    },
    {
        "id": 63,
        "levelType": "card",
        "level": 47,
        "totalExp": 605400
    },
    {
        "id": 64,
        "levelType": "card",
        "level": 48,
        "totalExp": 628000
    },
    {
        "id": 65,
        "levelType": "card",
        "level": 49,
        "totalExp": 651000
    },
    {
        "id": 66,
        "levelType": "card",
        "level": 50,
        "totalExp": 674400
    },
    {
        "id": 67,
        "levelType": "card",
        "level": 51,
        "totalExp": 698200
    },
    {
        "id": 68,
        "levelType": "card",
        "level": 52,
        "totalExp": 722400
    },
    {
        "id": 69,
        "levelType": "card",
        "level": 53,
        "totalExp": 747000
    },
    {
        "id": 70,
        "levelType": "card",
        "level": 54,
        "totalExp": 772000
    },
    {
        "id": 71,
        "levelType": "card",
        "level": 55,
        "totalExp": 797400
    },
    {
        "id": 72,
        "levelType": "card",
        "level": 56,
        "totalExp": 823200
    },
    {
        "id": 73,
        "levelType": "card",
        "level": 57,
        "totalExp": 849400
    },
    {
        "id": 74,
        "levelType": "card",
        "level": 58,
        "totalExp": 876000
    },
    {
        "id": 75,
        "levelType": "card",
        "level": 59,
        "totalExp": 903000
    },
    {
        "id": 76,
        "levelType": "card",
        "level": 60,
        "totalExp": 930400
    },
    {
        "id": 101,
        "levelType": "user",
        "level": 1,
        "totalExp": 0
    },
    {
        "id": 102,
        "levelType": "user",
        "level": 2,
        "totalExp": 10
    },
    {
        "id": 103,
        "levelType": "user",
        "level": 3,
        "totalExp": 8020
    },
    {
        "id": 104,
        "levelType": "user",
        "level": 4,
        "totalExp": 16520
    },
    {
        "id": 105,
        "levelType": "user",
        "level": 5,
        "totalExp": 25520
    },
    {
        "id": 106,
        "levelType": "user",
        "level": 6,
        "totalExp": 35020
    },
    {
        "id": 107,
        "levelType": "user",
        "level": 7,
        "totalExp": 45020
    },
    {
        "id": 108,
        "levelType": "user",
        "level": 8,
        "totalExp": 55520
    },
    {
        "id": 109,
        "levelType": "user",
        "level": 9,
        "totalExp": 66520
    },
    {
        "id": 110,
        "levelType": "user",
        "level": 10,
        "totalExp": 78020
    },
    {
        "id": 111,
        "levelType": "user",
        "level": 11,
        "totalExp": 90020
    },
    {
        "id": 112,
        "levelType": "user",
        "level": 12,
        "totalExp": 102520
    },
    {
        "id": 113,
        "levelType": "user",
        "level": 13,
        "totalExp": 115520
    },
    {
        "id": 114,
        "levelType": "user",
        "level": 14,
        "totalExp": 129520
    },
    {
        "id": 115,
        "levelType": "user",
        "level": 15,
        "totalExp": 144520
    },
    {
        "id": 116,
        "levelType": "user",
        "level": 16,
        "totalExp": 160520
    },
    {
        "id": 117,
        "levelType": "user",
        "level": 17,
        "totalExp": 177000
    },
    {
        "id": 118,
        "levelType": "user",
        "level": 18,
        "totalExp": 193960
    },
    {
        "id": 119,
        "levelType": "user",
        "level": 19,
        "totalExp": 211400
    },
    {
        "id": 120,
        "levelType": "user",
        "level": 20,
        "totalExp": 229320
    },
    {
        "id": 121,
        "levelType": "user",
        "level": 21,
        "totalExp": 247720
    },
    {
        "id": 122,
        "levelType": "user",
        "level": 22,
        "totalExp": 266600
    },
    {
        "id": 123,
        "levelType": "user",
        "level": 23,
        "totalExp": 285960
    },
    {
        "id": 124,
        "levelType": "user",
        "level": 24,
        "totalExp": 305800
    },
    {
        "id": 125,
        "levelType": "user",
        "level": 25,
        "totalExp": 326120
    },
    {
        "id": 126,
        "levelType": "user",
        "level": 26,
        "totalExp": 346920
    },
    {
        "id": 127,
        "levelType": "user",
        "level": 27,
        "totalExp": 368200
    },
    {
        "id": 128,
        "levelType": "user",
        "level": 28,
        "totalExp": 389960
    },
    {
        "id": 129,
        "levelType": "user",
        "level": 29,
        "totalExp": 412200
    },
    {
        "id": 130,
        "levelType": "user",
        "level": 30,
        "totalExp": 434920
    },
    {
        "id": 131,
        "levelType": "user",
        "level": 31,
        "totalExp": 458120
    },
    {
        "id": 132,
        "levelType": "user",
        "level": 32,
        "totalExp": 481800
    },
    {
        "id": 133,
        "levelType": "user",
        "level": 33,
        "totalExp": 505960
    },
    {
        "id": 134,
        "levelType": "user",
        "level": 34,
        "totalExp": 530600
    },
    {
        "id": 135,
        "levelType": "user",
        "level": 35,
        "totalExp": 555720
    },
    {
        "id": 136,
        "levelType": "user",
        "level": 36,
        "totalExp": 581320
    },
    {
        "id": 137,
        "levelType": "user",
        "level": 37,
        "totalExp": 607400
    },
    {
        "id": 138,
        "levelType": "user",
        "level": 38,
        "totalExp": 633960
    },
    {
        "id": 139,
        "levelType": "user",
        "level": 39,
        "totalExp": 661000
    },
    {
        "id": 140,
        "levelType": "user",
        "level": 40,
        "totalExp": 688520
    },
    {
        "id": 141,
        "levelType": "user",
        "level": 41,
        "totalExp": 716520
    },
    {
        "id": 142,
        "levelType": "user",
        "level": 42,
        "totalExp": 745000
    },
    {
        "id": 143,
        "levelType": "user",
        "level": 43,
        "totalExp": 773960
    },
    {
        "id": 144,
        "levelType": "user",
        "level": 44,
        "totalExp": 803400
    },
    {
        "id": 145,
        "levelType": "user",
        "level": 45,
        "totalExp": 833320
    },
    {
        "id": 146,
        "levelType": "user",
        "level": 46,
        "totalExp": 863720
    },
    {
        "id": 147,
        "levelType": "user",
        "level": 47,
        "totalExp": 894600
    },
    {
        "id": 148,
        "levelType": "user",
        "level": 48,
        "totalExp": 925960
    },
    {
        "id": 149,
        "levelType": "user",
        "level": 49,
        "totalExp": 957800
    },
    {
        "id": 150,
        "levelType": "user",
        "level": 50,
        "totalExp": 990120
    },
    {
        "id": 151,
        "levelType": "user",
        "level": 51,
        "totalExp": 1022920
    },
    {
        "id": 152,
        "levelType": "user",
        "level": 52,
        "totalExp": 1056200
    },
    {
        "id": 153,
        "levelType": "user",
        "level": 53,
        "totalExp": 1089960
    },
    {
        "id": 154,
        "levelType": "user",
        "level": 54,
        "totalExp": 1124200
    },
    {
        "id": 155,
        "levelType": "user",
        "level": 55,
        "totalExp": 1158920
    },
    {
        "id": 156,
        "levelType": "user",
        "level": 56,
        "totalExp": 1194120
    },
    {
        "id": 157,
        "levelType": "user",
        "level": 57,
        "totalExp": 1229800
    },
    {
        "id": 158,
        "levelType": "user",
        "level": 58,
        "totalExp": 1265960
    },
    {
        "id": 159,
        "levelType": "user",
        "level": 59,
        "totalExp": 1302600
    },
    {
        "id": 160,
        "levelType": "user",
        "level": 60,
        "totalExp": 1339720
    },
    {
        "id": 161,
        "levelType": "user",
        "level": 61,
        "totalExp": 1377320
    },
    {
        "id": 162,
        "levelType": "user",
        "level": 62,
        "totalExp": 1415400
    },
    {
        "id": 163,
        "levelType": "user",
        "level": 63,
        "totalExp": 1453960
    },
    {
        "id": 164,
        "levelType": "user",
        "level": 64,
        "totalExp": 1493000
    },
    {
        "id": 165,
        "levelType": "user",
        "level": 65,
        "totalExp": 1532520
    },
    {
        "id": 166,
        "levelType": "user",
        "level": 66,
        "totalExp": 1572520
    },
    {
        "id": 167,
        "levelType": "user",
        "level": 67,
        "totalExp": 1613000
    },
    {
        "id": 168,
        "levelType": "user",
        "level": 68,
        "totalExp": 1653960
    },
    {
        "id": 169,
        "levelType": "user",
        "level": 69,
        "totalExp": 1695400
    },
    {
        "id": 170,
        "levelType": "user",
        "level": 70,
        "totalExp": 1737320
    },
    {
        "id": 171,
        "levelType": "user",
        "level": 71,
        "totalExp": 1779720
    },
    {
        "id": 172,
        "levelType": "user",
        "level": 72,
        "totalExp": 1822600
    },
    {
        "id": 173,
        "levelType": "user",
        "level": 73,
        "totalExp": 1865960
    },
    {
        "id": 174,
        "levelType": "user",
        "level": 74,
        "totalExp": 1909800
    },
    {
        "id": 175,
        "levelType": "user",
        "level": 75,
        "totalExp": 1954120
    },
    {
        "id": 176,
        "levelType": "user",
        "level": 76,
        "totalExp": 1998920
    },
    {
        "id": 177,
        "levelType": "user",
        "level": 77,
        "totalExp": 2044200
    },
    {
        "id": 178,
        "levelType": "user",
        "level": 78,
        "totalExp": 2089960
    },
    {
        "id": 179,
        "levelType": "user",
        "level": 79,
        "totalExp": 2136200
    },
    {
        "id": 180,
        "levelType": "user",
        "level": 80,
        "totalExp": 2182920
    },
    {
        "id": 181,
        "levelType": "user",
        "level": 81,
        "totalExp": 2230120
    },
    {
        "id": 182,
        "levelType": "user",
        "level": 82,
        "totalExp": 2277800
    },
    {
        "id": 183,
        "levelType": "user",
        "level": 83,
        "totalExp": 2325960
    },
    {
        "id": 184,
        "levelType": "user",
        "level": 84,
        "totalExp": 2374600
    },
    {
        "id": 185,
        "levelType": "user",
        "level": 85,
        "totalExp": 2423720
    },
    {
        "id": 186,
        "levelType": "user",
        "level": 86,
        "totalExp": 2473320
    },
    {
        "id": 187,
        "levelType": "user",
        "level": 87,
        "totalExp": 2523400
    },
    {
        "id": 188,
        "levelType": "user",
        "level": 88,
        "totalExp": 2573960
    },
    {
        "id": 189,
        "levelType": "user",
        "level": 89,
        "totalExp": 2625000
    },
    {
        "id": 190,
        "levelType": "user",
        "level": 90,
        "totalExp": 2676520
    },
    {
        "id": 191,
        "levelType": "user",
        "level": 91,
        "totalExp": 2728520
    },
    {
        "id": 192,
        "levelType": "user",
        "level": 92,
        "totalExp": 2781000
    },
    {
        "id": 193,
        "levelType": "user",
        "level": 93,
        "totalExp": 2833960
    },
    {
        "id": 194,
        "levelType": "user",
        "level": 94,
        "totalExp": 2887400
    },
    {
        "id": 195,
        "levelType": "user",
        "level": 95,
        "totalExp": 2941320
    },
    {
        "id": 196,
        "levelType": "user",
        "level": 96,
        "totalExp": 2995720
    },
    {
        "id": 197,
        "levelType": "user",
        "level": 97,
        "totalExp": 3050600
    },
    {
        "id": 198,
        "levelType": "user",
        "level": 98,
        "totalExp": 3105960
    },
    {
        "id": 199,
        "levelType": "user",
        "level": 99,
        "totalExp": 3161800
    },
    {
        "id": 200,
        "levelType": "user",
        "level": 100,
        "totalExp": 3218120
    },
    {
        "id": 201,
        "levelType": "unit",
        "level": 1,
        "totalExp": 0
    },
    {
        "id": 202,
        "levelType": "unit",
        "level": 2,
        "totalExp": 2000
    },
    {
        "id": 203,
        "levelType": "unit",
        "level": 3,
        "totalExp": 4500
    },
    {
        "id": 204,
        "levelType": "unit",
        "level": 4,
        "totalExp": 7500
    },
    {
        "id": 205,
        "levelType": "unit",
        "level": 5,
        "totalExp": 11000
    },
    {
        "id": 206,
        "levelType": "unit",
        "level": 6,
        "totalExp": 15000
    },
    {
        "id": 207,
        "levelType": "unit",
        "level": 7,
        "totalExp": 19500
    },
    {
        "id": 208,
        "levelType": "unit",
        "level": 8,
        "totalExp": 24500
    },
    {
        "id": 209,
        "levelType": "unit",
        "level": 9,
        "totalExp": 30000
    },
    {
        "id": 210,
        "levelType": "unit",
        "level": 10,
        "totalExp": 36000
    },
    {
        "id": 211,
        "levelType": "unit",
        "level": 11,
        "totalExp": 42500
    },
    {
        "id": 212,
        "levelType": "unit",
        "level": 12,
        "totalExp": 49500
    },
    {
        "id": 213,
        "levelType": "unit",
        "level": 13,
        "totalExp": 57000
    },
    {
        "id": 214,
        "levelType": "unit",
        "level": 14,
        "totalExp": 65000
    },
    {
        "id": 215,
        "levelType": "unit",
        "level": 15,
        "totalExp": 73500
    },
    {
        "id": 216,
        "levelType": "unit",
        "level": 16,
        "totalExp": 82500
    },
    {
        "id": 217,
        "levelType": "unit",
        "level": 17,
        "totalExp": 92000
    },
    {
        "id": 218,
        "levelType": "unit",
        "level": 18,
        "totalExp": 102000
    },
    {
        "id": 219,
        "levelType": "unit",
        "level": 19,
        "totalExp": 112500
    },
    {
        "id": 220,
        "levelType": "unit",
        "level": 20,
        "totalExp": 123500
    },
    {
        "id": 221,
        "levelType": "character",
        "level": 1,
        "totalExp": 0
    },
    {
        "id": 222,
        "levelType": "character",
        "level": 2,
        "totalExp": 2
    },
    {
        "id": 223,
        "levelType": "character",
        "level": 3,
        "totalExp": 4
    },
    {
        "id": 224,
        "levelType": "character",
        "level": 4,
        "totalExp": 7
    },
    {
        "id": 225,
        "levelType": "character",
        "level": 5,
        "totalExp": 10
    },
    {
        "id": 226,
        "levelType": "character",
        "level": 6,
        "totalExp": 14
    },
    {
        "id": 227,
        "levelType": "character",
        "level": 7,
        "totalExp": 18
    },
    {
        "id": 228,
        "levelType": "character",
        "level": 8,
        "totalExp": 22
    },
    {
        "id": 229,
        "levelType": "character",
        "level": 9,
        "totalExp": 26
    },
    {
        "id": 230,
        "levelType": "character",
        "level": 10,
        "totalExp": 30
    },
    {
        "id": 231,
        "levelType": "character",
        "level": 11,
        "totalExp": 35
    },
    {
        "id": 232,
        "levelType": "character",
        "level": 12,
        "totalExp": 40
    },
    {
        "id": 233,
        "levelType": "character",
        "level": 13,
        "totalExp": 45
    },
    {
        "id": 234,
        "levelType": "character",
        "level": 14,
        "totalExp": 50
    },
    {
        "id": 235,
        "levelType": "character",
        "level": 15,
        "totalExp": 55
    },
    {
        "id": 236,
        "levelType": "character",
        "level": 16,
        "totalExp": 61
    },
    {
        "id": 237,
        "levelType": "character",
        "level": 17,
        "totalExp": 67
    },
    {
        "id": 238,
        "levelType": "character",
        "level": 18,
        "totalExp": 73
    },
    {
        "id": 239,
        "levelType": "character",
        "level": 19,
        "totalExp": 79
    },
    {
        "id": 240,
        "levelType": "character",
        "level": 20,
        "totalExp": 85
    },
    {
        "id": 241,
        "levelType": "character",
        "level": 21,
        "totalExp": 92
    },
    {
        "id": 242,
        "levelType": "character",
        "level": 22,
        "totalExp": 99
    },
    {
        "id": 243,
        "levelType": "character",
        "level": 23,
        "totalExp": 106
    },
    {
        "id": 244,
        "levelType": "character",
        "level": 24,
        "totalExp": 113
    },
    {
        "id": 245,
        "levelType": "character",
        "level": 25,
        "totalExp": 120
    },
    {
        "id": 246,
        "levelType": "character",
        "level": 26,
        "totalExp": 128
    },
    {
        "id": 247,
        "levelType": "character",
        "level": 27,
        "totalExp": 136
    },
    {
        "id": 248,
        "levelType": "character",
        "level": 28,
        "totalExp": 144
    },
    {
        "id": 249,
        "levelType": "character",
        "level": 29,
        "totalExp": 152
    },
    {
        "id": 250,
        "levelType": "character",
        "level": 30,
        "totalExp": 160
    },
    {
        "id": 251,
        "levelType": "character",
        "level": 31,
        "totalExp": 169
    },
    {
        "id": 252,
        "levelType": "character",
        "level": 32,
        "totalExp": 178
    },
    {
        "id": 253,
        "levelType": "character",
        "level": 33,
        "totalExp": 187
    },
    {
        "id": 254,
        "levelType": "character",
        "level": 34,
        "totalExp": 196
    },
    {
        "id": 255,
        "levelType": "character",
        "level": 35,
        "totalExp": 205
    },
    {
        "id": 256,
        "levelType": "character",
        "level": 36,
        "totalExp": 215
    },
    {
        "id": 257,
        "levelType": "character",
        "level": 37,
        "totalExp": 225
    },
    {
        "id": 258,
        "levelType": "character",
        "level": 38,
        "totalExp": 235
    },
    {
        "id": 259,
        "levelType": "character",
        "level": 39,
        "totalExp": 245
    },
    {
        "id": 260,
        "levelType": "character",
        "level": 40,
        "totalExp": 255
    },
    {
        "id": 261,
        "levelType": "character",
        "level": 41,
        "totalExp": 265
    },
    {
        "id": 262,
        "levelType": "character",
        "level": 42,
        "totalExp": 275
    },
    {
        "id": 263,
        "levelType": "character",
        "level": 43,
        "totalExp": 285
    },
    {
        "id": 264,
        "levelType": "character",
        "level": 44,
        "totalExp": 295
    },
    {
        "id": 265,
        "levelType": "character",
        "level": 45,
        "totalExp": 305
    },
    {
        "id": 266,
        "levelType": "character",
        "level": 46,
        "totalExp": 315
    },
    {
        "id": 267,
        "levelType": "character",
        "level": 47,
        "totalExp": 325
    },
    {
        "id": 268,
        "levelType": "character",
        "level": 48,
        "totalExp": 335
    },
    {
        "id": 269,
        "levelType": "character",
        "level": 49,
        "totalExp": 345
    },
    {
        "id": 270,
        "levelType": "character",
        "level": 50,
        "totalExp": 355
    },
    {
        "id": 271,
        "levelType": "user",
        "level": 101,
        "totalExp": 3274922
    },
    {
        "id": 272,
        "levelType": "user",
        "level": 102,
        "totalExp": 3332208
    },
    {
        "id": 273,
        "levelType": "user",
        "level": 103,
        "totalExp": 3389980
    },
    {
        "id": 274,
        "levelType": "user",
        "level": 104,
        "totalExp": 3448240
    },
    {
        "id": 275,
        "levelType": "user",
        "level": 105,
        "totalExp": 3506990
    },
    {
        "id": 276,
        "levelType": "user",
        "level": 106,
        "totalExp": 3566235
    },
    {
        "id": 277,
        "levelType": "user",
        "level": 107,
        "totalExp": 3625980
    },
    {
        "id": 278,
        "levelType": "user",
        "level": 108,
        "totalExp": 3686230
    },
    {
        "id": 279,
        "levelType": "user",
        "level": 109,
        "totalExp": 3746990
    },
    {
        "id": 280,
        "levelType": "user",
        "level": 110,
        "totalExp": 3808265
    },
    {
        "id": 281,
        "levelType": "user",
        "level": 111,
        "totalExp": 3870060
    },
    {
        "id": 282,
        "levelType": "user",
        "level": 112,
        "totalExp": 3932380
    },
    {
        "id": 283,
        "levelType": "user",
        "level": 113,
        "totalExp": 3995230
    },
    {
        "id": 284,
        "levelType": "user",
        "level": 114,
        "totalExp": 4058615
    },
    {
        "id": 285,
        "levelType": "user",
        "level": 115,
        "totalExp": 4122540
    },
    {
        "id": 286,
        "levelType": "user",
        "level": 116,
        "totalExp": 4187010
    },
    {
        "id": 287,
        "levelType": "user",
        "level": 117,
        "totalExp": 4252030
    },
    {
        "id": 288,
        "levelType": "user",
        "level": 118,
        "totalExp": 4317605
    },
    {
        "id": 289,
        "levelType": "user",
        "level": 119,
        "totalExp": 4383740
    },
    {
        "id": 290,
        "levelType": "user",
        "level": 120,
        "totalExp": 4450440
    },
    {
        "id": 291,
        "levelType": "user",
        "level": 121,
        "totalExp": 4517710
    },
    {
        "id": 292,
        "levelType": "user",
        "level": 122,
        "totalExp": 4585555
    },
    {
        "id": 293,
        "levelType": "user",
        "level": 123,
        "totalExp": 4653980
    },
    {
        "id": 294,
        "levelType": "user",
        "level": 124,
        "totalExp": 4722990
    },
    {
        "id": 295,
        "levelType": "user",
        "level": 125,
        "totalExp": 4792590
    },
    {
        "id": 296,
        "levelType": "user",
        "level": 126,
        "totalExp": 4862785
    },
    {
        "id": 297,
        "levelType": "user",
        "level": 127,
        "totalExp": 4933580
    },
    {
        "id": 298,
        "levelType": "user",
        "level": 128,
        "totalExp": 5004980
    },
    {
        "id": 299,
        "levelType": "user",
        "level": 129,
        "totalExp": 5076990
    },
    {
        "id": 300,
        "levelType": "user",
        "level": 130,
        "totalExp": 5149615
    },
    {
        "id": 301,
        "levelType": "user",
        "level": 131,
        "totalExp": 5222860
    },
    {
        "id": 302,
        "levelType": "user",
        "level": 132,
        "totalExp": 5296730
    },
    {
        "id": 303,
        "levelType": "user",
        "level": 133,
        "totalExp": 5371230
    },
    {
        "id": 304,
        "levelType": "user",
        "level": 134,
        "totalExp": 5446365
    },
    {
        "id": 305,
        "levelType": "user",
        "level": 135,
        "totalExp": 5522140
    },
    {
        "id": 306,
        "levelType": "user",
        "level": 136,
        "totalExp": 5598560
    },
    {
        "id": 307,
        "levelType": "user",
        "level": 137,
        "totalExp": 5675630
    },
    {
        "id": 308,
        "levelType": "user",
        "level": 138,
        "totalExp": 5753355
    },
    {
        "id": 309,
        "levelType": "user",
        "level": 139,
        "totalExp": 5831740
    },
    {
        "id": 310,
        "levelType": "user",
        "level": 140,
        "totalExp": 5910790
    },
    {
        "id": 311,
        "levelType": "user",
        "level": 141,
        "totalExp": 5990510
    },
    {
        "id": 312,
        "levelType": "user",
        "level": 142,
        "totalExp": 6070905
    },
    {
        "id": 313,
        "levelType": "user",
        "level": 143,
        "totalExp": 6151980
    },
    {
        "id": 314,
        "levelType": "user",
        "level": 144,
        "totalExp": 6233740
    },
    {
        "id": 315,
        "levelType": "user",
        "level": 145,
        "totalExp": 6316190
    },
    {
        "id": 316,
        "levelType": "user",
        "level": 146,
        "totalExp": 6399335
    },
    {
        "id": 317,
        "levelType": "user",
        "level": 147,
        "totalExp": 6483180
    },
    {
        "id": 318,
        "levelType": "user",
        "level": 148,
        "totalExp": 6567730
    },
    {
        "id": 319,
        "levelType": "user",
        "level": 149,
        "totalExp": 6652990
    },
    {
        "id": 320,
        "levelType": "user",
        "level": 150,
        "totalExp": 6738965
    },
    {
        "id": 321,
        "levelType": "user",
        "level": 151,
        "totalExp": 6825660
    },
    {
        "id": 322,
        "levelType": "user",
        "level": 152,
        "totalExp": 6913080
    },
    {
        "id": 323,
        "levelType": "user",
        "level": 153,
        "totalExp": 7001230
    },
    {
        "id": 324,
        "levelType": "user",
        "level": 154,
        "totalExp": 7090115
    },
    {
        "id": 325,
        "levelType": "user",
        "level": 155,
        "totalExp": 7179740
    },
    {
        "id": 326,
        "levelType": "user",
        "level": 156,
        "totalExp": 7270110
    },
    {
        "id": 327,
        "levelType": "user",
        "level": 157,
        "totalExp": 7361230
    },
    {
        "id": 328,
        "levelType": "user",
        "level": 158,
        "totalExp": 7453105
    },
    {
        "id": 329,
        "levelType": "user",
        "level": 159,
        "totalExp": 7545740
    },
    {
        "id": 330,
        "levelType": "user",
        "level": 160,
        "totalExp": 7639140
    },
    {
        "id": 331,
        "levelType": "user",
        "level": 161,
        "totalExp": 7733310
    },
    {
        "id": 332,
        "levelType": "user",
        "level": 162,
        "totalExp": 7828255
    },
    {
        "id": 333,
        "levelType": "user",
        "level": 163,
        "totalExp": 7923980
    },
    {
        "id": 334,
        "levelType": "user",
        "level": 164,
        "totalExp": 8020490
    },
    {
        "id": 335,
        "levelType": "user",
        "level": 165,
        "totalExp": 8117790
    },
    {
        "id": 336,
        "levelType": "user",
        "level": 166,
        "totalExp": 8215885
    },
    {
        "id": 337,
        "levelType": "user",
        "level": 167,
        "totalExp": 8314780
    },
    {
        "id": 338,
        "levelType": "user",
        "level": 168,
        "totalExp": 8414480
    },
    {
        "id": 339,
        "levelType": "user",
        "level": 169,
        "totalExp": 8514990
    },
    {
        "id": 340,
        "levelType": "user",
        "level": 170,
        "totalExp": 8616315
    },
    {
        "id": 341,
        "levelType": "user",
        "level": 171,
        "totalExp": 8718460
    },
    {
        "id": 342,
        "levelType": "user",
        "level": 172,
        "totalExp": 8821430
    },
    {
        "id": 343,
        "levelType": "user",
        "level": 173,
        "totalExp": 8925230
    },
    {
        "id": 344,
        "levelType": "user",
        "level": 174,
        "totalExp": 9029865
    },
    {
        "id": 345,
        "levelType": "user",
        "level": 175,
        "totalExp": 9135340
    },
    {
        "id": 346,
        "levelType": "user",
        "level": 176,
        "totalExp": 9241660
    },
    {
        "id": 347,
        "levelType": "user",
        "level": 177,
        "totalExp": 9348830
    },
    {
        "id": 348,
        "levelType": "user",
        "level": 178,
        "totalExp": 9456855
    },
    {
        "id": 349,
        "levelType": "user",
        "level": 179,
        "totalExp": 9565740
    },
    {
        "id": 350,
        "levelType": "user",
        "level": 180,
        "totalExp": 9675490
    },
    {
        "id": 351,
        "levelType": "user",
        "level": 181,
        "totalExp": 9786110
    },
    {
        "id": 352,
        "levelType": "user",
        "level": 182,
        "totalExp": 9897605
    },
    {
        "id": 353,
        "levelType": "user",
        "level": 183,
        "totalExp": 10009980
    },
    {
        "id": 354,
        "levelType": "user",
        "level": 184,
        "totalExp": 10123240
    },
    {
        "id": 355,
        "levelType": "user",
        "level": 185,
        "totalExp": 10237390
    },
    {
        "id": 356,
        "levelType": "user",
        "level": 186,
        "totalExp": 10352435
    },
    {
        "id": 357,
        "levelType": "user",
        "level": 187,
        "totalExp": 10468380
    },
    {
        "id": 358,
        "levelType": "user",
        "level": 188,
        "totalExp": 10585230
    },
    {
        "id": 359,
        "levelType": "user",
        "level": 189,
        "totalExp": 10702990
    },
    {
        "id": 360,
        "levelType": "user",
        "level": 190,
        "totalExp": 10821665
    },
    {
        "id": 361,
        "levelType": "user",
        "level": 191,
        "totalExp": 10941260
    },
    {
        "id": 362,
        "levelType": "user",
        "level": 192,
        "totalExp": 11061780
    },
    {
        "id": 363,
        "levelType": "user",
        "level": 193,
        "totalExp": 11183230
    },
    {
        "id": 364,
        "levelType": "user",
        "level": 194,
        "totalExp": 11305615
    },
    {
        "id": 365,
        "levelType": "user",
        "level": 195,
        "totalExp": 11428940
    },
    {
        "id": 366,
        "levelType": "user",
        "level": 196,
        "totalExp": 11553210
    },
    {
        "id": 367,
        "levelType": "user",
        "level": 197,
        "totalExp": 11678430
    },
    {
        "id": 368,
        "levelType": "user",
        "level": 198,
        "totalExp": 11804605
    },
    {
        "id": 369,
        "levelType": "user",
        "level": 199,
        "totalExp": 11931740
    },
    {
        "id": 370,
        "levelType": "user",
        "level": 200,
        "totalExp": 12059835
    },
    {
        "id": 371,
        "levelType": "user",
        "level": 201,
        "totalExp": 12188890
    },
    {
        "id": 372,
        "levelType": "user",
        "level": 202,
        "totalExp": 12318905
    },
    {
        "id": 373,
        "levelType": "user",
        "level": 203,
        "totalExp": 12449880
    },
    {
        "id": 374,
        "levelType": "user",
        "level": 204,
        "totalExp": 12581815
    },
    {
        "id": 375,
        "levelType": "user",
        "level": 205,
        "totalExp": 12714710
    },
    {
        "id": 376,
        "levelType": "user",
        "level": 206,
        "totalExp": 12848565
    },
    {
        "id": 377,
        "levelType": "user",
        "level": 207,
        "totalExp": 12983380
    },
    {
        "id": 378,
        "levelType": "user",
        "level": 208,
        "totalExp": 13119155
    },
    {
        "id": 379,
        "levelType": "user",
        "level": 209,
        "totalExp": 13255890
    },
    {
        "id": 380,
        "levelType": "user",
        "level": 210,
        "totalExp": 13393585
    },
    {
        "id": 381,
        "levelType": "user",
        "level": 211,
        "totalExp": 13532250
    },
    {
        "id": 382,
        "levelType": "user",
        "level": 212,
        "totalExp": 13671885
    },
    {
        "id": 383,
        "levelType": "user",
        "level": 213,
        "totalExp": 13812490
    },
    {
        "id": 384,
        "levelType": "user",
        "level": 214,
        "totalExp": 13954065
    },
    {
        "id": 385,
        "levelType": "user",
        "level": 215,
        "totalExp": 14096610
    },
    {
        "id": 386,
        "levelType": "user",
        "level": 216,
        "totalExp": 14240125
    },
    {
        "id": 387,
        "levelType": "user",
        "level": 217,
        "totalExp": 14384610
    },
    {
        "id": 388,
        "levelType": "user",
        "level": 218,
        "totalExp": 14530065
    },
    {
        "id": 389,
        "levelType": "user",
        "level": 219,
        "totalExp": 14676490
    },
    {
        "id": 390,
        "levelType": "user",
        "level": 220,
        "totalExp": 14823885
    },
    {
        "id": 391,
        "levelType": "user",
        "level": 221,
        "totalExp": 14972260
    },
    {
        "id": 392,
        "levelType": "user",
        "level": 222,
        "totalExp": 15121615
    },
    {
        "id": 393,
        "levelType": "user",
        "level": 223,
        "totalExp": 15271950
    },
    {
        "id": 394,
        "levelType": "user",
        "level": 224,
        "totalExp": 15423265
    },
    {
        "id": 395,
        "levelType": "user",
        "level": 225,
        "totalExp": 15575560
    },
    {
        "id": 396,
        "levelType": "user",
        "level": 226,
        "totalExp": 15728835
    },
    {
        "id": 397,
        "levelType": "user",
        "level": 227,
        "totalExp": 15883090
    },
    {
        "id": 398,
        "levelType": "user",
        "level": 228,
        "totalExp": 16038325
    },
    {
        "id": 399,
        "levelType": "user",
        "level": 229,
        "totalExp": 16194540
    },
    {
        "id": 400,
        "levelType": "user",
        "level": 230,
        "totalExp": 16351735
    },
    {
        "id": 401,
        "levelType": "user",
        "level": 231,
        "totalExp": 16509920
    },
    {
        "id": 402,
        "levelType": "user",
        "level": 232,
        "totalExp": 16669095
    },
    {
        "id": 403,
        "levelType": "user",
        "level": 233,
        "totalExp": 16829260
    },
    {
        "id": 404,
        "levelType": "user",
        "level": 234,
        "totalExp": 16990415
    },
    {
        "id": 405,
        "levelType": "user",
        "level": 235,
        "totalExp": 17152560
    },
    {
        "id": 406,
        "levelType": "user",
        "level": 236,
        "totalExp": 17315695
    },
    {
        "id": 407,
        "levelType": "user",
        "level": 237,
        "totalExp": 17479820
    },
    {
        "id": 408,
        "levelType": "user",
        "level": 238,
        "totalExp": 17644935
    },
    {
        "id": 409,
        "levelType": "user",
        "level": 239,
        "totalExp": 17811040
    },
    {
        "id": 410,
        "levelType": "user",
        "level": 240,
        "totalExp": 17978135
    },
    {
        "id": 411,
        "levelType": "user",
        "level": 241,
        "totalExp": 18146230
    },
    {
        "id": 412,
        "levelType": "user",
        "level": 242,
        "totalExp": 18315325
    },
    {
        "id": 413,
        "levelType": "user",
        "level": 243,
        "totalExp": 18485420
    },
    {
        "id": 414,
        "levelType": "user",
        "level": 244,
        "totalExp": 18656515
    },
    {
        "id": 415,
        "levelType": "user",
        "level": 245,
        "totalExp": 18828610
    },
    {
        "id": 416,
        "levelType": "user",
        "level": 246,
        "totalExp": 19001705
    },
    {
        "id": 417,
        "levelType": "user",
        "level": 247,
        "totalExp": 19175800
    },
    {
        "id": 418,
        "levelType": "user",
        "level": 248,
        "totalExp": 19350895
    },
    {
        "id": 419,
        "levelType": "user",
        "level": 249,
        "totalExp": 19526990
    },
    {
        "id": 420,
        "levelType": "user",
        "level": 250,
        "totalExp": 19704085
    },
    {
        "id": 421,
        "levelType": "user",
        "level": 251,
        "totalExp": 19882190
    },
    {
        "id": 422,
        "levelType": "user",
        "level": 252,
        "totalExp": 20061305
    },
    {
        "id": 423,
        "levelType": "user",
        "level": 253,
        "totalExp": 20241430
    },
    {
        "id": 424,
        "levelType": "user",
        "level": 254,
        "totalExp": 20422565
    },
    {
        "id": 425,
        "levelType": "user",
        "level": 255,
        "totalExp": 20604710
    },
    {
        "id": 426,
        "levelType": "user",
        "level": 256,
        "totalExp": 20787865
    },
    {
        "id": 427,
        "levelType": "user",
        "level": 257,
        "totalExp": 20972030
    },
    {
        "id": 428,
        "levelType": "user",
        "level": 258,
        "totalExp": 21157205
    },
    {
        "id": 429,
        "levelType": "user",
        "level": 259,
        "totalExp": 21343390
    },
    {
        "id": 430,
        "levelType": "user",
        "level": 260,
        "totalExp": 21530585
    },
    {
        "id": 431,
        "levelType": "user",
        "level": 261,
        "totalExp": 21718800
    },
    {
        "id": 432,
        "levelType": "user",
        "level": 262,
        "totalExp": 21908035
    },
    {
        "id": 433,
        "levelType": "user",
        "level": 263,
        "totalExp": 22098290
    },
    {
        "id": 434,
        "levelType": "user",
        "level": 264,
        "totalExp": 22289565
    },
    {
        "id": 435,
        "levelType": "user",
        "level": 265,
        "totalExp": 22481860
    },
    {
        "id": 436,
        "levelType": "user",
        "level": 266,
        "totalExp": 22675175
    },
    {
        "id": 437,
        "levelType": "user",
        "level": 267,
        "totalExp": 22869510
    },
    {
        "id": 438,
        "levelType": "user",
        "level": 268,
        "totalExp": 23064865
    },
    {
        "id": 439,
        "levelType": "user",
        "level": 269,
        "totalExp": 23261240
    },
    {
        "id": 440,
        "levelType": "user",
        "level": 270,
        "totalExp": 23458635
    },
    {
        "id": 441,
        "levelType": "user",
        "level": 271,
        "totalExp": 23657060
    },
    {
        "id": 442,
        "levelType": "user",
        "level": 272,
        "totalExp": 23856515
    },
    {
        "id": 443,
        "levelType": "user",
        "level": 273,
        "totalExp": 24057000
    },
    {
        "id": 444,
        "levelType": "user",
        "level": 274,
        "totalExp": 24258515
    },
    {
        "id": 445,
        "levelType": "user",
        "level": 275,
        "totalExp": 24461060
    },
    {
        "id": 446,
        "levelType": "user",
        "level": 276,
        "totalExp": 24664635
    },
    {
        "id": 447,
        "levelType": "user",
        "level": 277,
        "totalExp": 24869240
    },
    {
        "id": 448,
        "levelType": "user",
        "level": 278,
        "totalExp": 25074875
    },
    {
        "id": 449,
        "levelType": "user",
        "level": 279,
        "totalExp": 25281540
    },
    {
        "id": 450,
        "levelType": "user",
        "level": 280,
        "totalExp": 25489235
    },
    {
        "id": 451,
        "levelType": "user",
        "level": 281,
        "totalExp": 25697970
    },
    {
        "id": 452,
        "levelType": "user",
        "level": 282,
        "totalExp": 25907745
    },
    {
        "id": 453,
        "levelType": "user",
        "level": 283,
        "totalExp": 26118560
    },
    {
        "id": 454,
        "levelType": "user",
        "level": 284,
        "totalExp": 26330415
    },
    {
        "id": 455,
        "levelType": "user",
        "level": 285,
        "totalExp": 26543310
    },
    {
        "id": 456,
        "levelType": "user",
        "level": 286,
        "totalExp": 26757245
    },
    {
        "id": 457,
        "levelType": "user",
        "level": 287,
        "totalExp": 26972220
    },
    {
        "id": 458,
        "levelType": "user",
        "level": 288,
        "totalExp": 27188235
    },
    {
        "id": 459,
        "levelType": "user",
        "level": 289,
        "totalExp": 27405290
    },
    {
        "id": 460,
        "levelType": "user",
        "level": 290,
        "totalExp": 27623385
    },
    {
        "id": 461,
        "levelType": "user",
        "level": 291,
        "totalExp": 27842530
    },
    {
        "id": 462,
        "levelType": "user",
        "level": 292,
        "totalExp": 28062725
    },
    {
        "id": 463,
        "levelType": "user",
        "level": 293,
        "totalExp": 28283970
    },
    {
        "id": 464,
        "levelType": "user",
        "level": 294,
        "totalExp": 28506265
    },
    {
        "id": 465,
        "levelType": "user",
        "level": 295,
        "totalExp": 28729610
    },
    {
        "id": 466,
        "levelType": "user",
        "level": 296,
        "totalExp": 28954005
    },
    {
        "id": 467,
        "levelType": "user",
        "level": 297,
        "totalExp": 29179450
    },
    {
        "id": 468,
        "levelType": "user",
        "level": 298,
        "totalExp": 29405945
    },
    {
        "id": 469,
        "levelType": "user",
        "level": 299,
        "totalExp": 29633490
    },
    {
        "id": 470,
        "levelType": "user",
        "level": 300,
        "totalExp": 29862085
    },
    {
        "id": 471,
        "levelType": "user",
        "level": 301,
        "totalExp": 30091750
    },
    {
        "id": 472,
        "levelType": "user",
        "level": 302,
        "totalExp": 30322505
    },
    {
        "id": 473,
        "levelType": "user",
        "level": 303,
        "totalExp": 30554370
    },
    {
        "id": 474,
        "levelType": "user",
        "level": 304,
        "totalExp": 30787365
    },
    {
        "id": 475,
        "levelType": "user",
        "level": 305,
        "totalExp": 31021510
    },
    {
        "id": 476,
        "levelType": "user",
        "level": 306,
        "totalExp": 31256825
    },
    {
        "id": 477,
        "levelType": "user",
        "level": 307,
        "totalExp": 31493330
    },
    {
        "id": 478,
        "levelType": "user",
        "level": 308,
        "totalExp": 31731045
    },
    {
        "id": 479,
        "levelType": "user",
        "level": 309,
        "totalExp": 31969990
    },
    {
        "id": 480,
        "levelType": "user",
        "level": 310,
        "totalExp": 32210185
    },
    {
        "id": 481,
        "levelType": "user",
        "level": 311,
        "totalExp": 32451660
    },
    {
        "id": 482,
        "levelType": "user",
        "level": 312,
        "totalExp": 32694445
    },
    {
        "id": 483,
        "levelType": "user",
        "level": 313,
        "totalExp": 32938570
    },
    {
        "id": 484,
        "levelType": "user",
        "level": 314,
        "totalExp": 33184065
    },
    {
        "id": 485,
        "levelType": "user",
        "level": 315,
        "totalExp": 33430960
    },
    {
        "id": 486,
        "levelType": "user",
        "level": 316,
        "totalExp": 33679285
    },
    {
        "id": 487,
        "levelType": "user",
        "level": 317,
        "totalExp": 33929070
    },
    {
        "id": 488,
        "levelType": "user",
        "level": 318,
        "totalExp": 34180345
    },
    {
        "id": 489,
        "levelType": "user",
        "level": 319,
        "totalExp": 34433140
    },
    {
        "id": 490,
        "levelType": "user",
        "level": 320,
        "totalExp": 34687485
    },
    {
        "id": 491,
        "levelType": "user",
        "level": 321,
        "totalExp": 34943420
    },
    {
        "id": 492,
        "levelType": "user",
        "level": 322,
        "totalExp": 35200985
    },
    {
        "id": 493,
        "levelType": "user",
        "level": 323,
        "totalExp": 35460220
    },
    {
        "id": 494,
        "levelType": "user",
        "level": 324,
        "totalExp": 35721165
    },
    {
        "id": 495,
        "levelType": "user",
        "level": 325,
        "totalExp": 35983860
    },
    {
        "id": 496,
        "levelType": "user",
        "level": 326,
        "totalExp": 36248345
    },
    {
        "id": 497,
        "levelType": "user",
        "level": 327,
        "totalExp": 36514660
    },
    {
        "id": 498,
        "levelType": "user",
        "level": 328,
        "totalExp": 36782845
    },
    {
        "id": 499,
        "levelType": "user",
        "level": 329,
        "totalExp": 37052940
    },
    {
        "id": 500,
        "levelType": "user",
        "level": 330,
        "totalExp": 37324985
    },
    {
        "id": 501,
        "levelType": "user",
        "level": 331,
        "totalExp": 37599030
    },
    {
        "id": 502,
        "levelType": "user",
        "level": 332,
        "totalExp": 37875125
    },
    {
        "id": 503,
        "levelType": "user",
        "level": 333,
        "totalExp": 38153320
    },
    {
        "id": 504,
        "levelType": "user",
        "level": 334,
        "totalExp": 38433665
    },
    {
        "id": 505,
        "levelType": "user",
        "level": 335,
        "totalExp": 38716210
    },
    {
        "id": 506,
        "levelType": "user",
        "level": 336,
        "totalExp": 39001005
    },
    {
        "id": 507,
        "levelType": "user",
        "level": 337,
        "totalExp": 39288100
    },
    {
        "id": 508,
        "levelType": "user",
        "level": 338,
        "totalExp": 39577545
    },
    {
        "id": 509,
        "levelType": "user",
        "level": 339,
        "totalExp": 39869390
    },
    {
        "id": 510,
        "levelType": "user",
        "level": 340,
        "totalExp": 40163685
    },
    {
        "id": 511,
        "levelType": "user",
        "level": 341,
        "totalExp": 40460490
    },
    {
        "id": 512,
        "levelType": "user",
        "level": 342,
        "totalExp": 40759865
    },
    {
        "id": 513,
        "levelType": "user",
        "level": 343,
        "totalExp": 41061870
    },
    {
        "id": 514,
        "levelType": "user",
        "level": 344,
        "totalExp": 41366565
    },
    {
        "id": 515,
        "levelType": "user",
        "level": 345,
        "totalExp": 41674010
    },
    {
        "id": 516,
        "levelType": "user",
        "level": 346,
        "totalExp": 41984265
    },
    {
        "id": 517,
        "levelType": "user",
        "level": 347,
        "totalExp": 42297390
    },
    {
        "id": 518,
        "levelType": "user",
        "level": 348,
        "totalExp": 42613445
    },
    {
        "id": 519,
        "levelType": "user",
        "level": 349,
        "totalExp": 42932490
    },
    {
        "id": 520,
        "levelType": "user",
        "level": 350,
        "totalExp": 43254585
    },
    {
        "id": 521,
        "levelType": "user",
        "level": 351,
        "totalExp": 43579800
    },
    {
        "id": 522,
        "levelType": "user",
        "level": 352,
        "totalExp": 43908205
    },
    {
        "id": 523,
        "levelType": "user",
        "level": 353,
        "totalExp": 44239870
    },
    {
        "id": 524,
        "levelType": "user",
        "level": 354,
        "totalExp": 44574865
    },
    {
        "id": 525,
        "levelType": "user",
        "level": 355,
        "totalExp": 44913260
    },
    {
        "id": 526,
        "levelType": "user",
        "level": 356,
        "totalExp": 45255125
    },
    {
        "id": 527,
        "levelType": "user",
        "level": 357,
        "totalExp": 45600530
    },
    {
        "id": 528,
        "levelType": "user",
        "level": 358,
        "totalExp": 45949545
    },
    {
        "id": 529,
        "levelType": "user",
        "level": 359,
        "totalExp": 46302240
    },
    {
        "id": 530,
        "levelType": "user",
        "level": 360,
        "totalExp": 46658685
    },
    {
        "id": 531,
        "levelType": "user",
        "level": 361,
        "totalExp": 47018960
    },
    {
        "id": 532,
        "levelType": "user",
        "level": 362,
        "totalExp": 47383145
    },
    {
        "id": 533,
        "levelType": "user",
        "level": 363,
        "totalExp": 47751320
    },
    {
        "id": 534,
        "levelType": "user",
        "level": 364,
        "totalExp": 48123565
    },
    {
        "id": 535,
        "levelType": "user",
        "level": 365,
        "totalExp": 48499960
    },
    {
        "id": 536,
        "levelType": "user",
        "level": 366,
        "totalExp": 48880585
    },
    {
        "id": 537,
        "levelType": "user",
        "level": 367,
        "totalExp": 49265520
    },
    {
        "id": 538,
        "levelType": "user",
        "level": 368,
        "totalExp": 49654845
    },
    {
        "id": 539,
        "levelType": "user",
        "level": 369,
        "totalExp": 50048640
    },
    {
        "id": 540,
        "levelType": "user",
        "level": 370,
        "totalExp": 50446985
    },
    {
        "id": 541,
        "levelType": "user",
        "level": 371,
        "totalExp": 50849970
    },
    {
        "id": 542,
        "levelType": "user",
        "level": 372,
        "totalExp": 51257685
    },
    {
        "id": 543,
        "levelType": "user",
        "level": 373,
        "totalExp": 51670220
    },
    {
        "id": 544,
        "levelType": "user",
        "level": 374,
        "totalExp": 52087665
    },
    {
        "id": 545,
        "levelType": "user",
        "level": 375,
        "totalExp": 52510110
    },
    {
        "id": 546,
        "levelType": "user",
        "level": 376,
        "totalExp": 52937645
    },
    {
        "id": 547,
        "levelType": "user",
        "level": 377,
        "totalExp": 53370360
    },
    {
        "id": 548,
        "levelType": "user",
        "level": 378,
        "totalExp": 53808345
    },
    {
        "id": 549,
        "levelType": "user",
        "level": 379,
        "totalExp": 54251690
    },
    {
        "id": 550,
        "levelType": "user",
        "level": 380,
        "totalExp": 54700485
    },
    {
        "id": 551,
        "levelType": "user",
        "level": 381,
        "totalExp": 55154830
    },
    {
        "id": 552,
        "levelType": "user",
        "level": 382,
        "totalExp": 55614825
    },
    {
        "id": 553,
        "levelType": "user",
        "level": 383,
        "totalExp": 56080570
    },
    {
        "id": 554,
        "levelType": "user",
        "level": 384,
        "totalExp": 56552165
    },
    {
        "id": 555,
        "levelType": "user",
        "level": 385,
        "totalExp": 57029710
    },
    {
        "id": 556,
        "levelType": "user",
        "level": 386,
        "totalExp": 57513305
    },
    {
        "id": 557,
        "levelType": "user",
        "level": 387,
        "totalExp": 58003050
    },
    {
        "id": 558,
        "levelType": "user",
        "level": 388,
        "totalExp": 58499045
    },
    {
        "id": 559,
        "levelType": "user",
        "level": 389,
        "totalExp": 59001390
    },
    {
        "id": 560,
        "levelType": "user",
        "level": 390,
        "totalExp": 59510185
    },
    {
        "id": 561,
        "levelType": "user",
        "level": 391,
        "totalExp": 60025530
    },
    {
        "id": 562,
        "levelType": "user",
        "level": 392,
        "totalExp": 60547525
    },
    {
        "id": 563,
        "levelType": "user",
        "level": 393,
        "totalExp": 61076270
    },
    {
        "id": 564,
        "levelType": "user",
        "level": 394,
        "totalExp": 61611865
    },
    {
        "id": 565,
        "levelType": "user",
        "level": 395,
        "totalExp": 62154410
    },
    {
        "id": 566,
        "levelType": "user",
        "level": 396,
        "totalExp": 62704005
    },
    {
        "id": 567,
        "levelType": "user",
        "level": 397,
        "totalExp": 63260750
    },
    {
        "id": 568,
        "levelType": "user",
        "level": 398,
        "totalExp": 63824745
    },
    {
        "id": 569,
        "levelType": "user",
        "level": 399,
        "totalExp": 64396090
    },
    {
        "id": 570,
        "levelType": "user",
        "level": 400,
        "totalExp": 64974885
    },
    {
        "id": 571,
        "levelType": "card_skill_birthday",
        "level": 1,
        "totalExp": 0
    },
    {
        "id": 572,
        "levelType": "card_skill_birthday",
        "level": 2,
        "totalExp": 500
    },
    {
        "id": 573,
        "levelType": "card_skill_birthday",
        "level": 3,
        "totalExp": 2000
    },
    {
        "id": 574,
        "levelType": "card_skill_birthday",
        "level": 4,
        "totalExp": 5000
    },
    {
        "id": 575,
        "levelType": "bonds",
        "level": 1,
        "totalExp": 0
    },
    {
        "id": 576,
        "levelType": "bonds",
        "level": 2,
        "totalExp": 7224
    },
    {
        "id": 577,
        "levelType": "bonds",
        "level": 3,
        "totalExp": 14448
    },
    {
        "id": 578,
        "levelType": "bonds",
        "level": 4,
        "totalExp": 21672
    },
    {
        "id": 579,
        "levelType": "bonds",
        "level": 5,
        "totalExp": 28896
    },
    {
        "id": 580,
        "levelType": "bonds",
        "level": 6,
        "totalExp": 36120
    },
    {
        "id": 581,
        "levelType": "bonds",
        "level": 7,
        "totalExp": 64214
    },
    {
        "id": 582,
        "levelType": "bonds",
        "level": 8,
        "totalExp": 92308
    },
    {
        "id": 583,
        "levelType": "bonds",
        "level": 9,
        "totalExp": 120400
    },
    {
        "id": 584,
        "levelType": "bonds",
        "level": 10,
        "totalExp": 180600
    },
    {
        "id": 585,
        "levelType": "bonds",
        "level": 11,
        "totalExp": 240800
    },
    {
        "id": 586,
        "levelType": "bonds",
        "level": 12,
        "totalExp": 301000
    },
    {
        "id": 587,
        "levelType": "bonds",
        "level": 13,
        "totalExp": 371234
    },
    {
        "id": 588,
        "levelType": "bonds",
        "level": 14,
        "totalExp": 441468
    },
    {
        "id": 589,
        "levelType": "bonds",
        "level": 15,
        "totalExp": 511700
    },
    {
        "id": 590,
        "levelType": "bonds",
        "level": 16,
        "totalExp": 612034
    },
    {
        "id": 591,
        "levelType": "bonds",
        "level": 17,
        "totalExp": 712368
    },
    {
        "id": 592,
        "levelType": "bonds",
        "level": 18,
        "totalExp": 812700
    },
    {
        "id": 593,
        "levelType": "bonds",
        "level": 19,
        "totalExp": 943134
    },
    {
        "id": 594,
        "levelType": "bonds",
        "level": 20,
        "totalExp": 1073568
    },
    {
        "id": 595,
        "levelType": "bonds",
        "level": 21,
        "totalExp": 1204000
    },
    {
        "id": 596,
        "levelType": "bonds",
        "level": 22,
        "totalExp": 1364534
    },
    {
        "id": 597,
        "levelType": "bonds",
        "level": 23,
        "totalExp": 1525068
    },
    {
        "id": 598,
        "levelType": "bonds",
        "level": 24,
        "totalExp": 1685600
    },
    {
        "id": 599,
        "levelType": "bonds",
        "level": 25,
        "totalExp": 1896300
    },
    {
        "id": 600,
        "levelType": "bonds",
        "level": 26,
        "totalExp": 2107000
    },
    {
        "id": 601,
        "levelType": "bonds",
        "level": 27,
        "totalExp": 2317700
    },
    {
        "id": 602,
        "levelType": "bonds",
        "level": 28,
        "totalExp": 2568534
    },
    {
        "id": 603,
        "levelType": "bonds",
        "level": 29,
        "totalExp": 2819368
    },
    {
        "id": 604,
        "levelType": "bonds",
        "level": 30,
        "totalExp": 3070200
    },
    {
        "id": 605,
        "levelType": "bonds",
        "level": 31,
        "totalExp": 3351134
    },
    {
        "id": 606,
        "levelType": "bonds",
        "level": 32,
        "totalExp": 3632068
    },
    {
        "id": 607,
        "levelType": "bonds",
        "level": 33,
        "totalExp": 3913000
    },
    {
        "id": 608,
        "levelType": "bonds",
        "level": 34,
        "totalExp": 4214000
    },
    {
        "id": 609,
        "levelType": "bonds",
        "level": 35,
        "totalExp": 4515000
    },
    {
        "id": 610,
        "levelType": "bonds",
        "level": 36,
        "totalExp": 4816000
    },
    {
        "id": 611,
        "levelType": "bonds",
        "level": 37,
        "totalExp": 5117000
    },
    {
        "id": 612,
        "levelType": "bonds",
        "level": 38,
        "totalExp": 5418000
    },
    {
        "id": 613,
        "levelType": "bonds",
        "level": 39,
        "totalExp": 5719000
    },
    {
        "id": 614,
        "levelType": "bonds",
        "level": 40,
        "totalExp": 6020000
    },
    {
        "id": 615,
        "levelType": "bonds",
        "level": 41,
        "totalExp": 6321000
    },
    {
        "id": 616,
        "levelType": "bonds",
        "level": 42,
        "totalExp": 6622000
    },
    {
        "id": 617,
        "levelType": "bonds",
        "level": 43,
        "totalExp": 6923000
    },
    {
        "id": 618,
        "levelType": "bonds",
        "level": 44,
        "totalExp": 7224000
    },
    {
        "id": 619,
        "levelType": "bonds",
        "level": 45,
        "totalExp": 7525000
    },
    {
        "id": 620,
        "levelType": "bonds",
        "level": 46,
        "totalExp": 7826000
    },
    {
        "id": 621,
        "levelType": "bonds",
        "level": 47,
        "totalExp": 8127000
    },
    {
        "id": 622,
        "levelType": "bonds",
        "level": 48,
        "totalExp": 8428000
    },
    {
        "id": 623,
        "levelType": "bonds",
        "level": 49,
        "totalExp": 8729000
    },
    {
        "id": 624,
        "levelType": "bonds",
        "level": 50,
        "totalExp": 9030000
    },
    {
        "id": 625,
        "levelType": "bonds",
        "level": 51,
        "totalExp": 9331000
    },
    {
        "id": 626,
        "levelType": "bonds",
        "level": 52,
        "totalExp": 9632000
    },
    {
        "id": 627,
        "levelType": "bonds",
        "level": 53,
        "totalExp": 9933000
    },
    {
        "id": 628,
        "levelType": "bonds",
        "level": 54,
        "totalExp": 10234000
    },
    {
        "id": 629,
        "levelType": "bonds",
        "level": 55,
        "totalExp": 10535000
    },
    {
        "id": 635,
        "levelType": "character",
        "level": 51,
        "totalExp": 365
    },
    {
        "id": 636,
        "levelType": "character",
        "level": 52,
        "totalExp": 375
    },
    {
        "id": 637,
        "levelType": "character",
        "level": 53,
        "totalExp": 385
    },
    {
        "id": 638,
        "levelType": "character",
        "level": 54,
        "totalExp": 395
    },
    {
        "id": 639,
        "levelType": "character",
        "level": 55,
        "totalExp": 405
    },
    {
        "id": 640,
        "levelType": "character",
        "level": 56,
        "totalExp": 415
    },
    {
        "id": 641,
        "levelType": "character",
        "level": 57,
        "totalExp": 425
    },
    {
        "id": 642,
        "levelType": "character",
        "level": 58,
        "totalExp": 435
    },
    {
        "id": 643,
        "levelType": "character",
        "level": 59,
        "totalExp": 445
    },
    {
        "id": 644,
        "levelType": "character",
        "level": 60,
        "totalExp": 455
    },
    {
        "id": 645,
        "levelType": "character",
        "level": 61,
        "totalExp": 465
    },
    {
        "id": 646,
        "levelType": "character",
        "level": 62,
        "totalExp": 475
    },
    {
        "id": 647,
        "levelType": "character",
        "level": 63,
        "totalExp": 485
    },
    {
        "id": 648,
        "levelType": "character",
        "level": 64,
        "totalExp": 495
    },
    {
        "id": 649,
        "levelType": "character",
        "level": 65,
        "totalExp": 505
    }
]