[
    {
        "id": 1,
        "liveMissionPeriodId": 1,
        "costumeName": "サブカルボーイスタイル",
        "character3dId1": 32,
        "character3dId2": 33,
        "maleAssetbundleName": "cos0012_body",
        "femaleAssetbundleName": "cos0011_body"
    },
    {
        "id": 2,
        "liveMissionPeriodId": 2,
        "costumeName": "サブカルボーイスタイル",
        "character3dId1": 32,
        "character3dId2": 33,
        "maleAssetbundleName": "cos0012_body",
        "femaleAssetbundleName": "cos0011_body"
    },
    {
        "id": 3,
        "liveMissionPeriodId": 3,
        "costumeName": "サブカルボーイスタイル",
        "character3dId1": 32,
        "character3dId2": 33,
        "maleAssetbundleName": "cos0012_body",
        "femaleAssetbundleName": "cos0011_body"
    },
    {
        "id": 4,
        "liveMissionPeriodId": 4,
        "costumeName": "もこもこスノーコート",
        "character3dId1": 47,
        "character3dId2": 48,
        "maleAssetbundleName": "cos0041_body",
        "femaleAssetbundleName": "cos0040_body"
    },
    {
        "id": 5,
        "liveMissionPeriodId": 5,
        "costumeName": "メイド / バトラー",
        "character3dId1": 68,
        "character3dId2": 69,
        "maleAssetbundleName": "cos0049_body",
        "femaleAssetbundleName": "cos0048_body"
    },
    {
        "id": 6,
        "liveMissionPeriodId": 6,
        "costumeName": "モーモー☆ニューイヤー",
        "character3dId1": 86,
        "character3dId2": 87,
        "maleAssetbundleName": "cos0059_body",
        "femaleAssetbundleName": "cos0058_body"
    },
    {
        "id": 7,
        "liveMissionPeriodId": 7,
        "costumeName": "「スイーツ」衣装",
        "character3dId1": 144,
        "character3dId2": 145,
        "maleAssetbundleName": "cos0069_body",
        "femaleAssetbundleName": "cos0068_body"
    },
    {
        "id": 8,
        "liveMissionPeriodId": 8,
        "costumeName": "「近未来」衣装",
        "character3dId1": 167,
        "character3dId2": 168,
        "maleAssetbundleName": "cos0077_body",
        "femaleAssetbundleName": "cos0076_body"
    },
    {
        "id": 9,
        "liveMissionPeriodId": 9,
        "costumeName": "「怪盗」衣装",
        "character3dId1": 188,
        "character3dId2": 189,
        "maleAssetbundleName": "cos0087_body",
        "femaleAssetbundleName": "cos0086_body"
    },
    {
        "id": 10,
        "liveMissionPeriodId": 10,
        "costumeName": "「魔法」衣装",
        "character3dId1": 207,
        "character3dId2": 208,
        "maleAssetbundleName": "cos0097_body",
        "femaleAssetbundleName": "cos0096_body"
    },
    {
        "id": 11,
        "liveMissionPeriodId": 11,
        "costumeName": "「レストラン」衣装",
        "character3dId1": 227,
        "character3dId2": 228,
        "maleAssetbundleName": "cos0105_body",
        "femaleAssetbundleName": "cos0104_body"
    },
    {
        "id": 12,
        "liveMissionPeriodId": 12,
        "costumeName": "「海賊」衣装",
        "character3dId1": 254,
        "character3dId2": 255,
        "maleAssetbundleName": "cos0115_body",
        "femaleAssetbundleName": "cos0114_body"
    },
    {
        "id": 13,
        "liveMissionPeriodId": 13,
        "costumeName": "「アニマル」衣装",
        "character3dId1": 277,
        "character3dId2": 278,
        "maleAssetbundleName": "cos0123_body",
        "femaleAssetbundleName": "cos0122_body"
    },
    {
        "id": 14,
        "liveMissionPeriodId": 14,
        "costumeName": "「パジャマ」衣装",
        "character3dId1": 306,
        "character3dId2": 307,
        "maleAssetbundleName": "cos0131_body",
        "femaleAssetbundleName": "cos0130_body"
    },
    {
        "id": 15,
        "liveMissionPeriodId": 15,
        "costumeName": "「ゴースト」衣装",
        "character3dId1": 354,
        "character3dId2": 355,
        "maleAssetbundleName": "cos0139_body",
        "femaleAssetbundleName": "cos0138_body"
    },
    {
        "id": 16,
        "liveMissionPeriodId": 16,
        "costumeName": "「ゴシック」衣装",
        "character3dId1": 384,
        "character3dId2": 385,
        "maleAssetbundleName": "cos0163_body",
        "femaleAssetbundleName": "cos0162_body"
    },
    {
        "id": 17,
        "liveMissionPeriodId": 17,
        "costumeName": "「チェック柄」衣装",
        "character3dId1": 422,
        "character3dId2": 423,
        "maleAssetbundleName": "cos0171_body",
        "femaleAssetbundleName": "cos0170_body"
    },
    {
        "id": 18,
        "liveMissionPeriodId": 18,
        "costumeName": "「宇宙」衣装",
        "character3dId1": 469,
        "character3dId2": 470,
        "maleAssetbundleName": "cos0189_body",
        "femaleAssetbundleName": "cos0188_body"
    },
    {
        "id": 19,
        "liveMissionPeriodId": 19,
        "costumeName": "「フルーツ」衣装",
        "character3dId1": 488,
        "character3dId2": 489,
        "maleAssetbundleName": "cos0200_body",
        "femaleAssetbundleName": "cos0199_body"
    },
    {
        "id": 20,
        "liveMissionPeriodId": 20,
        "costumeName": "「ファンタジー」衣装",
        "character3dId1": 528,
        "character3dId2": 529,
        "maleAssetbundleName": "cos0217_body",
        "femaleAssetbundleName": "cos0216_body"
    },
    {
        "id": 21,
        "liveMissionPeriodId": 21,
        "costumeName": "「イースター」衣装",
        "character3dId1": 543,
        "character3dId2": 544,
        "maleAssetbundleName": "cos0235_body",
        "femaleAssetbundleName": "cos0234_body"
    },
    {
        "id": 22,
        "liveMissionPeriodId": 22,
        "costumeName": "「ヒップホップ」衣装",
        "character3dId1": 566,
        "character3dId2": 567,
        "maleAssetbundleName": "cos0246_body",
        "femaleAssetbundleName": "cos0245_body"
    },
    {
        "id": 23,
        "liveMissionPeriodId": 23,
        "costumeName": "「スポーツ」衣装",
        "character3dId1": 587,
        "character3dId2": 588,
        "maleAssetbundleName": "cos0257_body",
        "femaleAssetbundleName": "cos0256_body"
    }
]