[
    {
        "id": 1,
        "day": 1,
        "resourceBoxId": 1
    },
    {
        "id": 2,
        "day": 2,
        "resourceBoxId": 2
    },
    {
        "id": 3,
        "day": 3,
        "resourceBoxId": 3
    },
    {
        "id": 4,
        "day": 4,
        "resourceBoxId": 4
    },
    {
        "id": 5,
        "day": 5,
        "resourceBoxId": 5
    },
    {
        "id": 6,
        "day": 6,
        "resourceBoxId": 6
    },
    {
        "id": 7,
        "day": 7,
        "resourceBoxId": 7
    }
]