[
    {
        "id": 1,
        "musicId": 1,
        "defaultMusicType": "original_music",
        "gameCharacterUnitId": 21,
        "dancePriority": 1,
        "seq": 1,
        "priority": 1
    },
    {
        "id": 2,
        "musicId": 2,
        "defaultMusicType": "sekai",
        "gameCharacterUnitId": 1,
        "dancePriority": 1,
        "seq": 1,
        "priority": 1
    },
    {
        "id": 3,
        "musicId": 2,
        "defaultMusicType": "sekai",
        "gameCharacterUnitId": 2,
        "dancePriority": 2,
        "seq": 2,
        "priority": 2
    },
    {
        "id": 4,
        "musicId": 2,
        "defaultMusicType": "sekai",
        "gameCharacterUnitId": 3,
        "dancePriority": 3,
        "seq": 3,
        "priority": 3
    },
    {
        "id": 5,
        "musicId": 2,
        "defaultMusicType": "sekai",
        "gameCharacterUnitId": 4,
        "dancePriority": 4,
        "seq": 4,
        "priority": 4
    },
    {
        "id": 6,
        "musicId": 2,
        "defaultMusicType": "sekai",
        "gameCharacterUnitId": 21,
        "dancePriority": 5,
        "seq": 5,
        "priority": 5
    },
    {
        "id": 7,
        "musicId": 10,
        "defaultMusicType": "sekai",
        "gameCharacterUnitId": 5,
        "dancePriority": 1,
        "seq": 1,
        "priority": 1
    },
    {
        "id": 8,
        "musicId": 10,
        "defaultMusicType": "sekai",
        "gameCharacterUnitId": 6,
        "dancePriority": 2,
        "seq": 2,
        "priority": 2
    },
    {
        "id": 9,
        "musicId": 10,
        "defaultMusicType": "sekai",
        "gameCharacterUnitId": 7,
        "dancePriority": 3,
        "seq": 3,
        "priority": 3
    },
    {
        "id": 10,
        "musicId": 10,
        "defaultMusicType": "sekai",
        "gameCharacterUnitId": 8,
        "dancePriority": 4,
        "seq": 4,
        "priority": 4
    },
    {
        "id": 11,
        "musicId": 26,
        "defaultMusicType": "sekai",
        "gameCharacterUnitId": 9,
        "dancePriority": 1,
        "seq": 1,
        "priority": 1
    },
    {
        "id": 12,
        "musicId": 26,
        "defaultMusicType": "sekai",
        "gameCharacterUnitId": 10,
        "dancePriority": 2,
        "seq": 2,
        "priority": 2
    },
    {
        "id": 13,
        "musicId": 26,
        "defaultMusicType": "sekai",
        "gameCharacterUnitId": 22,
        "dancePriority": 3,
        "seq": 3,
        "priority": 3
    },
    {
        "id": 14,
        "musicId": 26,
        "defaultMusicType": "sekai",
        "gameCharacterUnitId": 23,
        "dancePriority": 4,
        "seq": 4,
        "priority": 4
    },
    {
        "id": 15,
        "musicId": 41,
        "defaultMusicType": "sekai",
        "gameCharacterUnitId": 22,
        "dancePriority": 1,
        "seq": 1,
        "priority": 1
    },
    {
        "id": 16,
        "musicId": 41,
        "defaultMusicType": "sekai",
        "gameCharacterUnitId": 13,
        "dancePriority": 2,
        "seq": 2,
        "priority": 2
    },
    {
        "id": 17,
        "musicId": 41,
        "defaultMusicType": "sekai",
        "gameCharacterUnitId": 14,
        "dancePriority": 3,
        "seq": 3,
        "priority": 3
    },
    {
        "id": 18,
        "musicId": 41,
        "defaultMusicType": "sekai",
        "gameCharacterUnitId": 15,
        "dancePriority": 4,
        "seq": 4,
        "priority": 4
    },
    {
        "id": 19,
        "musicId": 41,
        "defaultMusicType": "sekai",
        "gameCharacterUnitId": 16,
        "dancePriority": 5,
        "seq": 5,
        "priority": 5
    },
    {
        "id": 20,
        "musicId": 67,
        "defaultMusicType": "sekai",
        "gameCharacterUnitId": 21,
        "dancePriority": 1,
        "seq": 1,
        "priority": 1
    },
    {
        "id": 21,
        "musicId": 67,
        "defaultMusicType": "sekai",
        "gameCharacterUnitId": 17,
        "dancePriority": 2,
        "seq": 2,
        "priority": 2
    },
    {
        "id": 22,
        "musicId": 67,
        "defaultMusicType": "sekai",
        "gameCharacterUnitId": 18,
        "dancePriority": 3,
        "seq": 3,
        "priority": 3
    },
    {
        "id": 23,
        "musicId": 69,
        "defaultMusicType": "sekai",
        "gameCharacterUnitId": 11,
        "dancePriority": 1,
        "seq": 1,
        "priority": 1
    },
    {
        "id": 24,
        "musicId": 69,
        "defaultMusicType": "sekai",
        "gameCharacterUnitId": 12,
        "dancePriority": 2,
        "seq": 2,
        "priority": 2
    },
    {
        "id": 25,
        "musicId": 71,
        "defaultMusicType": "sekai",
        "gameCharacterUnitId": 7,
        "dancePriority": 1,
        "seq": 1,
        "priority": 1
    },
    {
        "id": 26,
        "musicId": 71,
        "defaultMusicType": "sekai",
        "gameCharacterUnitId": 8,
        "dancePriority": 2,
        "seq": 2,
        "priority": 2
    },
    {
        "id": 27,
        "musicId": 71,
        "defaultMusicType": "sekai",
        "gameCharacterUnitId": 21,
        "dancePriority": 3,
        "seq": 3,
        "priority": 3
    },
    {
        "id": 28,
        "musicId": 76,
        "defaultMusicType": "sekai",
        "gameCharacterUnitId": 1,
        "dancePriority": 1,
        "seq": 1,
        "priority": 1
    },
    {
        "id": 29,
        "musicId": 76,
        "defaultMusicType": "sekai",
        "gameCharacterUnitId": 13,
        "dancePriority": 2,
        "seq": 2,
        "priority": 2
    },
    {
        "id": 30,
        "musicId": 76,
        "defaultMusicType": "sekai",
        "gameCharacterUnitId": 17,
        "dancePriority": 3,
        "seq": 3,
        "priority": 3
    },
    {
        "id": 31,
        "musicId": 76,
        "defaultMusicType": "sekai",
        "gameCharacterUnitId": 21,
        "dancePriority": 4,
        "seq": 4,
        "priority": 4
    },
    {
        "id": 32,
        "musicId": 77,
        "defaultMusicType": "sekai",
        "gameCharacterUnitId": 21,
        "dancePriority": 1,
        "seq": 1,
        "priority": 1
    },
    {
        "id": 33,
        "musicId": 77,
        "defaultMusicType": "sekai",
        "gameCharacterUnitId": 9,
        "dancePriority": 2,
        "seq": 2,
        "priority": 2
    },
    {
        "id": 34,
        "musicId": 77,
        "defaultMusicType": "sekai",
        "gameCharacterUnitId": 5,
        "dancePriority": 3,
        "seq": 3,
        "priority": 3
    },
    {
        "id": 35,
        "musicId": 63,
        "defaultMusicType": "sekai",
        "gameCharacterUnitId": 1,
        "dancePriority": 1,
        "seq": 1,
        "priority": 1
    },
    {
        "id": 36,
        "musicId": 63,
        "defaultMusicType": "sekai",
        "gameCharacterUnitId": 2,
        "dancePriority": 2,
        "seq": 2,
        "priority": 2
    },
    {
        "id": 37,
        "musicId": 63,
        "defaultMusicType": "sekai",
        "gameCharacterUnitId": 3,
        "dancePriority": 3,
        "seq": 3,
        "priority": 3
    },
    {
        "id": 38,
        "musicId": 63,
        "defaultMusicType": "sekai",
        "gameCharacterUnitId": 4,
        "dancePriority": 4,
        "seq": 4,
        "priority": 4
    },
    {
        "id": 39,
        "musicId": 63,
        "defaultMusicType": "sekai",
        "gameCharacterUnitId": 21,
        "dancePriority": 5,
        "seq": 5,
        "priority": 5
    },
    {
        "id": 40,
        "musicId": 64,
        "defaultMusicType": "sekai",
        "gameCharacterUnitId": 1,
        "dancePriority": 1,
        "seq": 1,
        "priority": 1
    },
    {
        "id": 41,
        "musicId": 64,
        "defaultMusicType": "sekai",
        "gameCharacterUnitId": 2,
        "dancePriority": 2,
        "seq": 2,
        "priority": 2
    },
    {
        "id": 42,
        "musicId": 64,
        "defaultMusicType": "sekai",
        "gameCharacterUnitId": 3,
        "dancePriority": 3,
        "seq": 3,
        "priority": 3
    },
    {
        "id": 43,
        "musicId": 64,
        "defaultMusicType": "sekai",
        "gameCharacterUnitId": 4,
        "dancePriority": 4,
        "seq": 4,
        "priority": 4
    },
    {
        "id": 44,
        "musicId": 64,
        "defaultMusicType": "sekai",
        "gameCharacterUnitId": 21,
        "dancePriority": 5,
        "seq": 5,
        "priority": 5
    },
    {
        "id": 45,
        "musicId": 3,
        "defaultMusicType": "sekai",
        "gameCharacterUnitId": 1,
        "dancePriority": 1,
        "seq": 1,
        "priority": 1
    },
    {
        "id": 46,
        "musicId": 3,
        "defaultMusicType": "sekai",
        "gameCharacterUnitId": 2,
        "dancePriority": 2,
        "seq": 2,
        "priority": 2
    },
    {
        "id": 47,
        "musicId": 3,
        "defaultMusicType": "sekai",
        "gameCharacterUnitId": 3,
        "dancePriority": 3,
        "seq": 3,
        "priority": 3
    },
    {
        "id": 48,
        "musicId": 3,
        "defaultMusicType": "sekai",
        "gameCharacterUnitId": 4,
        "dancePriority": 4,
        "seq": 4,
        "priority": 4
    },
    {
        "id": 49,
        "musicId": 3,
        "defaultMusicType": "sekai",
        "gameCharacterUnitId": 21,
        "dancePriority": 5,
        "seq": 5,
        "priority": 5
    },
    {
        "id": 50,
        "musicId": 8,
        "defaultMusicType": "sekai",
        "gameCharacterUnitId": 1,
        "dancePriority": 1,
        "seq": 1,
        "priority": 1
    },
    {
        "id": 51,
        "musicId": 8,
        "defaultMusicType": "sekai",
        "gameCharacterUnitId": 2,
        "dancePriority": 2,
        "seq": 2,
        "priority": 2
    },
    {
        "id": 52,
        "musicId": 8,
        "defaultMusicType": "sekai",
        "gameCharacterUnitId": 3,
        "dancePriority": 3,
        "seq": 3,
        "priority": 3
    },
    {
        "id": 53,
        "musicId": 8,
        "defaultMusicType": "sekai",
        "gameCharacterUnitId": 4,
        "dancePriority": 4,
        "seq": 4,
        "priority": 4
    },
    {
        "id": 54,
        "musicId": 8,
        "defaultMusicType": "sekai",
        "gameCharacterUnitId": 21,
        "dancePriority": 5,
        "seq": 5,
        "priority": 5
    },
    {
        "id": 55,
        "musicId": 57,
        "defaultMusicType": "sekai",
        "gameCharacterUnitId": 21,
        "dancePriority": 1,
        "seq": 1,
        "priority": 1
    },
    {
        "id": 56,
        "musicId": 57,
        "defaultMusicType": "sekai",
        "gameCharacterUnitId": 7,
        "dancePriority": 2,
        "seq": 2,
        "priority": 2
    },
    {
        "id": 57,
        "musicId": 57,
        "defaultMusicType": "sekai",
        "gameCharacterUnitId": 6,
        "dancePriority": 3,
        "seq": 3,
        "priority": 3
    },
    {
        "id": 58,
        "musicId": 57,
        "defaultMusicType": "sekai",
        "gameCharacterUnitId": 5,
        "dancePriority": 4,
        "seq": 4,
        "priority": 4
    },
    {
        "id": 59,
        "musicId": 57,
        "defaultMusicType": "sekai",
        "gameCharacterUnitId": 8,
        "dancePriority": 5,
        "seq": 5,
        "priority": 5
    },
    {
        "id": 60,
        "musicId": 73,
        "defaultMusicType": "sekai",
        "gameCharacterUnitId": 5,
        "dancePriority": 1,
        "seq": 1,
        "priority": 1
    },
    {
        "id": 61,
        "musicId": 73,
        "defaultMusicType": "sekai",
        "gameCharacterUnitId": 6,
        "dancePriority": 2,
        "seq": 2,
        "priority": 2
    },
    {
        "id": 62,
        "musicId": 73,
        "defaultMusicType": "sekai",
        "gameCharacterUnitId": 21,
        "dancePriority": 3,
        "seq": 3,
        "priority": 3
    },
    {
        "id": 63,
        "musicId": 70,
        "defaultMusicType": "sekai",
        "gameCharacterUnitId": 5,
        "dancePriority": 1,
        "seq": 1,
        "priority": 1
    },
    {
        "id": 64,
        "musicId": 70,
        "defaultMusicType": "sekai",
        "gameCharacterUnitId": 8,
        "dancePriority": 2,
        "seq": 2,
        "priority": 2
    },
    {
        "id": 65,
        "musicId": 70,
        "defaultMusicType": "sekai",
        "gameCharacterUnitId": 6,
        "dancePriority": 3,
        "seq": 3,
        "priority": 3
    },
    {
        "id": 66,
        "musicId": 70,
        "defaultMusicType": "sekai",
        "gameCharacterUnitId": 7,
        "dancePriority": 4,
        "seq": 4,
        "priority": 4
    },
    {
        "id": 67,
        "musicId": 70,
        "defaultMusicType": "sekai",
        "gameCharacterUnitId": 21,
        "dancePriority": 5,
        "seq": 5,
        "priority": 5
    },
    {
        "id": 68,
        "musicId": 54,
        "defaultMusicType": "sekai",
        "gameCharacterUnitId": 21,
        "dancePriority": 1,
        "seq": 1,
        "priority": 1
    },
    {
        "id": 69,
        "musicId": 54,
        "defaultMusicType": "sekai",
        "gameCharacterUnitId": 9,
        "dancePriority": 2,
        "seq": 2,
        "priority": 2
    },
    {
        "id": 70,
        "musicId": 54,
        "defaultMusicType": "sekai",
        "gameCharacterUnitId": 11,
        "dancePriority": 3,
        "seq": 3,
        "priority": 3
    },
    {
        "id": 71,
        "musicId": 54,
        "defaultMusicType": "sekai",
        "gameCharacterUnitId": 12,
        "dancePriority": 4,
        "seq": 4,
        "priority": 4
    },
    {
        "id": 72,
        "musicId": 54,
        "defaultMusicType": "sekai",
        "gameCharacterUnitId": 10,
        "dancePriority": 5,
        "seq": 5,
        "priority": 5
    },
    {
        "id": 73,
        "musicId": 55,
        "defaultMusicType": "sekai",
        "gameCharacterUnitId": 21,
        "dancePriority": 1,
        "seq": 1,
        "priority": 1
    },
    {
        "id": 74,
        "musicId": 55,
        "defaultMusicType": "sekai",
        "gameCharacterUnitId": 10,
        "dancePriority": 2,
        "seq": 2,
        "priority": 2
    },
    {
        "id": 75,
        "musicId": 55,
        "defaultMusicType": "sekai",
        "gameCharacterUnitId": 11,
        "dancePriority": 3,
        "seq": 3,
        "priority": 3
    },
    {
        "id": 76,
        "musicId": 55,
        "defaultMusicType": "sekai",
        "gameCharacterUnitId": 12,
        "dancePriority": 4,
        "seq": 4,
        "priority": 4
    },
    {
        "id": 77,
        "musicId": 55,
        "defaultMusicType": "sekai",
        "gameCharacterUnitId": 9,
        "dancePriority": 5,
        "seq": 5,
        "priority": 5
    },
    {
        "id": 78,
        "musicId": 15,
        "defaultMusicType": "sekai",
        "gameCharacterUnitId": 9,
        "dancePriority": 1,
        "seq": 1,
        "priority": 1
    },
    {
        "id": 79,
        "musicId": 15,
        "defaultMusicType": "sekai",
        "gameCharacterUnitId": 10,
        "dancePriority": 2,
        "seq": 2,
        "priority": 2
    },
    {
        "id": 80,
        "musicId": 15,
        "defaultMusicType": "sekai",
        "gameCharacterUnitId": 22,
        "dancePriority": 3,
        "seq": 3,
        "priority": 3
    },
    {
        "id": 81,
        "musicId": 15,
        "defaultMusicType": "sekai",
        "gameCharacterUnitId": 24,
        "dancePriority": 4,
        "seq": 4,
        "priority": 4
    },
    {
        "id": 82,
        "musicId": 51,
        "defaultMusicType": "sekai",
        "gameCharacterUnitId": 21,
        "dancePriority": 1,
        "seq": 1,
        "priority": 1
    },
    {
        "id": 83,
        "musicId": 51,
        "defaultMusicType": "sekai",
        "gameCharacterUnitId": 13,
        "dancePriority": 2,
        "seq": 2,
        "priority": 2
    },
    {
        "id": 84,
        "musicId": 51,
        "defaultMusicType": "sekai",
        "gameCharacterUnitId": 15,
        "dancePriority": 3,
        "seq": 3,
        "priority": 3
    },
    {
        "id": 85,
        "musicId": 51,
        "defaultMusicType": "sekai",
        "gameCharacterUnitId": 14,
        "dancePriority": 4,
        "seq": 4,
        "priority": 4
    },
    {
        "id": 86,
        "musicId": 51,
        "defaultMusicType": "sekai",
        "gameCharacterUnitId": 16,
        "dancePriority": 5,
        "seq": 5,
        "priority": 5
    },
    {
        "id": 87,
        "musicId": 52,
        "defaultMusicType": "sekai",
        "gameCharacterUnitId": 21,
        "dancePriority": 1,
        "seq": 1,
        "priority": 1
    },
    {
        "id": 88,
        "musicId": 52,
        "defaultMusicType": "sekai",
        "gameCharacterUnitId": 14,
        "dancePriority": 2,
        "seq": 2,
        "priority": 2
    },
    {
        "id": 89,
        "musicId": 52,
        "defaultMusicType": "sekai",
        "gameCharacterUnitId": 16,
        "dancePriority": 3,
        "seq": 3,
        "priority": 3
    },
    {
        "id": 90,
        "musicId": 52,
        "defaultMusicType": "sekai",
        "gameCharacterUnitId": 13,
        "dancePriority": 4,
        "seq": 4,
        "priority": 4
    },
    {
        "id": 91,
        "musicId": 52,
        "defaultMusicType": "sekai",
        "gameCharacterUnitId": 15,
        "dancePriority": 5,
        "seq": 5,
        "priority": 5
    },
    {
        "id": 92,
        "musicId": 38,
        "defaultMusicType": "sekai",
        "gameCharacterUnitId": 23,
        "dancePriority": 1,
        "seq": 1,
        "priority": 1
    },
    {
        "id": 93,
        "musicId": 38,
        "defaultMusicType": "sekai",
        "gameCharacterUnitId": 16,
        "dancePriority": 2,
        "seq": 2,
        "priority": 2
    },
    {
        "id": 94,
        "musicId": 38,
        "defaultMusicType": "sekai",
        "gameCharacterUnitId": 13,
        "dancePriority": 3,
        "seq": 3,
        "priority": 3
    },
    {
        "id": 95,
        "musicId": 68,
        "defaultMusicType": "sekai",
        "gameCharacterUnitId": 21,
        "dancePriority": 1,
        "seq": 1,
        "priority": 1
    },
    {
        "id": 96,
        "musicId": 68,
        "defaultMusicType": "sekai",
        "gameCharacterUnitId": 14,
        "dancePriority": 2,
        "seq": 2,
        "priority": 2
    },
    {
        "id": 97,
        "musicId": 68,
        "defaultMusicType": "sekai",
        "gameCharacterUnitId": 15,
        "dancePriority": 3,
        "seq": 3,
        "priority": 3
    },
    {
        "id": 98,
        "musicId": 60,
        "defaultMusicType": "sekai",
        "gameCharacterUnitId": 21,
        "dancePriority": 1,
        "seq": 1,
        "priority": 1
    },
    {
        "id": 99,
        "musicId": 60,
        "defaultMusicType": "sekai",
        "gameCharacterUnitId": 20,
        "dancePriority": 2,
        "seq": 2,
        "priority": 2
    },
    {
        "id": 100,
        "musicId": 60,
        "defaultMusicType": "sekai",
        "gameCharacterUnitId": 17,
        "dancePriority": 3,
        "seq": 3,
        "priority": 3
    },
    {
        "id": 101,
        "musicId": 60,
        "defaultMusicType": "sekai",
        "gameCharacterUnitId": 18,
        "dancePriority": 4,
        "seq": 4,
        "priority": 4
    },
    {
        "id": 102,
        "musicId": 60,
        "defaultMusicType": "sekai",
        "gameCharacterUnitId": 19,
        "dancePriority": 5,
        "seq": 5,
        "priority": 5
    },
    {
        "id": 103,
        "musicId": 19,
        "defaultMusicType": "sekai",
        "gameCharacterUnitId": 19,
        "dancePriority": 1,
        "seq": 1,
        "priority": 1
    },
    {
        "id": 104,
        "musicId": 19,
        "defaultMusicType": "sekai",
        "gameCharacterUnitId": 20,
        "dancePriority": 2,
        "seq": 2,
        "priority": 2
    },
    {
        "id": 105,
        "musicId": 74,
        "defaultMusicType": "sekai",
        "gameCharacterUnitId": 21,
        "dancePriority": 1,
        "seq": 1,
        "priority": 1
    },
    {
        "id": 106,
        "musicId": 74,
        "defaultMusicType": "sekai",
        "gameCharacterUnitId": 20,
        "dancePriority": 2,
        "seq": 2,
        "priority": 2
    },
    {
        "id": 107,
        "musicId": 74,
        "defaultMusicType": "sekai",
        "gameCharacterUnitId": 17,
        "dancePriority": 3,
        "seq": 3,
        "priority": 3
    },
    {
        "id": 108,
        "musicId": 75,
        "defaultMusicType": "sekai",
        "gameCharacterUnitId": 1,
        "dancePriority": 1,
        "seq": 1,
        "priority": 1
    },
    {
        "id": 109,
        "musicId": 75,
        "defaultMusicType": "sekai",
        "gameCharacterUnitId": 2,
        "dancePriority": 2,
        "seq": 2,
        "priority": 2
    },
    {
        "id": 110,
        "musicId": 75,
        "defaultMusicType": "sekai",
        "gameCharacterUnitId": 3,
        "dancePriority": 3,
        "seq": 3,
        "priority": 3
    },
    {
        "id": 111,
        "musicId": 75,
        "defaultMusicType": "sekai",
        "gameCharacterUnitId": 4,
        "dancePriority": 4,
        "seq": 4,
        "priority": 4
    },
    {
        "id": 112,
        "musicId": 75,
        "defaultMusicType": "sekai",
        "gameCharacterUnitId": 21,
        "dancePriority": 5,
        "seq": 5,
        "priority": 5
    },
    {
        "id": 113,
        "musicId": 116,
        "defaultMusicType": "sekai",
        "gameCharacterUnitId": 20,
        "dancePriority": 1,
        "seq": 1,
        "priority": 1
    },
    {
        "id": 114,
        "musicId": 116,
        "defaultMusicType": "sekai",
        "gameCharacterUnitId": 19,
        "dancePriority": 2,
        "seq": 2,
        "priority": 2
    },
    {
        "id": 115,
        "musicId": 116,
        "defaultMusicType": "sekai",
        "gameCharacterUnitId": 17,
        "dancePriority": 3,
        "seq": 3,
        "priority": 3
    },
    {
        "id": 116,
        "musicId": 116,
        "defaultMusicType": "sekai",
        "gameCharacterUnitId": 25,
        "dancePriority": 4,
        "seq": 4,
        "priority": 4
    },
    {
        "id": 117,
        "musicId": 116,
        "defaultMusicType": "sekai",
        "gameCharacterUnitId": 18,
        "dancePriority": 5,
        "seq": 5,
        "priority": 5
    },
    {
        "id": 118,
        "musicId": 88,
        "defaultMusicType": "sekai",
        "gameCharacterUnitId": 14,
        "dancePriority": 1,
        "seq": 1,
        "priority": 1
    },
    {
        "id": 119,
        "musicId": 88,
        "defaultMusicType": "sekai",
        "gameCharacterUnitId": 15,
        "dancePriority": 2,
        "seq": 2,
        "priority": 2
    },
    {
        "id": 120,
        "musicId": 88,
        "defaultMusicType": "sekai",
        "gameCharacterUnitId": 13,
        "dancePriority": 3,
        "seq": 3,
        "priority": 3
    },
    {
        "id": 121,
        "musicId": 88,
        "defaultMusicType": "sekai",
        "gameCharacterUnitId": 16,
        "dancePriority": 4,
        "seq": 4,
        "priority": 4
    },
    {
        "id": 122,
        "musicId": 89,
        "defaultMusicType": "sekai",
        "gameCharacterUnitId": 8,
        "dancePriority": 1,
        "seq": 1,
        "priority": 1
    },
    {
        "id": 123,
        "musicId": 89,
        "defaultMusicType": "sekai",
        "gameCharacterUnitId": 5,
        "dancePriority": 2,
        "seq": 2,
        "priority": 2
    },
    {
        "id": 124,
        "musicId": 89,
        "defaultMusicType": "sekai",
        "gameCharacterUnitId": 6,
        "dancePriority": 3,
        "seq": 3,
        "priority": 3
    },
    {
        "id": 125,
        "musicId": 89,
        "defaultMusicType": "sekai",
        "gameCharacterUnitId": 7,
        "dancePriority": 4,
        "seq": 4,
        "priority": 4
    },
    {
        "id": 126,
        "musicId": 89,
        "defaultMusicType": "sekai",
        "gameCharacterUnitId": 24,
        "dancePriority": 5,
        "seq": 5,
        "priority": 5
    },
    {
        "id": 127,
        "musicId": 90,
        "defaultMusicType": "sekai",
        "gameCharacterUnitId": 19,
        "dancePriority": 1,
        "seq": 1,
        "priority": 1
    },
    {
        "id": 128,
        "musicId": 90,
        "defaultMusicType": "sekai",
        "gameCharacterUnitId": 20,
        "dancePriority": 2,
        "seq": 2,
        "priority": 2
    },
    {
        "id": 129,
        "musicId": 90,
        "defaultMusicType": "sekai",
        "gameCharacterUnitId": 17,
        "dancePriority": 3,
        "seq": 3,
        "priority": 3
    },
    {
        "id": 130,
        "musicId": 90,
        "defaultMusicType": "sekai",
        "gameCharacterUnitId": 22,
        "dancePriority": 4,
        "seq": 4,
        "priority": 4
    },
    {
        "id": 131,
        "musicId": 90,
        "defaultMusicType": "sekai",
        "gameCharacterUnitId": 18,
        "dancePriority": 5,
        "seq": 5,
        "priority": 5
    },
    {
        "id": 132,
        "musicId": 95,
        "defaultMusicType": "sekai",
        "gameCharacterUnitId": 26,
        "dancePriority": 1,
        "seq": 1,
        "priority": 1
    },
    {
        "id": 133,
        "musicId": 95,
        "defaultMusicType": "sekai",
        "gameCharacterUnitId": 11,
        "dancePriority": 2,
        "seq": 2,
        "priority": 2
    },
    {
        "id": 134,
        "musicId": 95,
        "defaultMusicType": "sekai",
        "gameCharacterUnitId": 12,
        "dancePriority": 3,
        "seq": 3,
        "priority": 3
    },
    {
        "id": 135,
        "musicId": 112,
        "defaultMusicType": "sekai",
        "gameCharacterUnitId": 5,
        "dancePriority": 1,
        "seq": 1,
        "priority": 1
    },
    {
        "id": 136,
        "musicId": 112,
        "defaultMusicType": "sekai",
        "gameCharacterUnitId": 7,
        "dancePriority": 2,
        "seq": 2,
        "priority": 2
    },
    {
        "id": 137,
        "musicId": 112,
        "defaultMusicType": "sekai",
        "gameCharacterUnitId": 6,
        "dancePriority": 3,
        "seq": 3,
        "priority": 3
    },
    {
        "id": 138,
        "musicId": 112,
        "defaultMusicType": "sekai",
        "gameCharacterUnitId": 8,
        "dancePriority": 4,
        "seq": 4,
        "priority": 4
    },
    {
        "id": 139,
        "musicId": 112,
        "defaultMusicType": "sekai",
        "gameCharacterUnitId": 22,
        "dancePriority": 5,
        "seq": 5,
        "priority": 5
    },
    {
        "id": 140,
        "musicId": 106,
        "defaultMusicType": "sekai",
        "gameCharacterUnitId": 23,
        "dancePriority": 1,
        "seq": 1,
        "priority": 1
    },
    {
        "id": 141,
        "musicId": 106,
        "defaultMusicType": "sekai",
        "gameCharacterUnitId": 14,
        "dancePriority": 2,
        "seq": 2,
        "priority": 2
    },
    {
        "id": 142,
        "musicId": 106,
        "defaultMusicType": "sekai",
        "gameCharacterUnitId": 13,
        "dancePriority": 3,
        "seq": 3,
        "priority": 3
    },
    {
        "id": 143,
        "musicId": 106,
        "defaultMusicType": "sekai",
        "gameCharacterUnitId": 16,
        "dancePriority": 4,
        "seq": 4,
        "priority": 4
    },
    {
        "id": 144,
        "musicId": 106,
        "defaultMusicType": "sekai",
        "gameCharacterUnitId": 15,
        "dancePriority": 5,
        "seq": 5,
        "priority": 5
    },
    {
        "id": 145,
        "musicId": 126,
        "defaultMusicType": "sekai",
        "gameCharacterUnitId": 26,
        "dancePriority": 1,
        "seq": 1,
        "priority": 1
    },
    {
        "id": 146,
        "musicId": 126,
        "defaultMusicType": "sekai",
        "gameCharacterUnitId": 9,
        "dancePriority": 2,
        "seq": 2,
        "priority": 2
    },
    {
        "id": 147,
        "musicId": 126,
        "defaultMusicType": "sekai",
        "gameCharacterUnitId": 12,
        "dancePriority": 3,
        "seq": 3,
        "priority": 3
    },
    {
        "id": 148,
        "musicId": 126,
        "defaultMusicType": "sekai",
        "gameCharacterUnitId": 11,
        "dancePriority": 4,
        "seq": 4,
        "priority": 4
    },
    {
        "id": 149,
        "musicId": 126,
        "defaultMusicType": "sekai",
        "gameCharacterUnitId": 10,
        "dancePriority": 5,
        "seq": 5,
        "priority": 5
    },
    {
        "id": 150,
        "musicId": 120,
        "defaultMusicType": "sekai",
        "gameCharacterUnitId": 1,
        "dancePriority": 1,
        "seq": 1,
        "priority": 1
    },
    {
        "id": 151,
        "musicId": 120,
        "defaultMusicType": "sekai",
        "gameCharacterUnitId": 2,
        "dancePriority": 2,
        "seq": 2,
        "priority": 2
    },
    {
        "id": 152,
        "musicId": 120,
        "defaultMusicType": "sekai",
        "gameCharacterUnitId": 3,
        "dancePriority": 3,
        "seq": 3,
        "priority": 3
    },
    {
        "id": 153,
        "musicId": 120,
        "defaultMusicType": "sekai",
        "gameCharacterUnitId": 4,
        "dancePriority": 4,
        "seq": 4,
        "priority": 4
    },
    {
        "id": 154,
        "musicId": 120,
        "defaultMusicType": "sekai",
        "gameCharacterUnitId": 21,
        "dancePriority": 5,
        "seq": 5,
        "priority": 5
    },
    {
        "id": 155,
        "musicId": 121,
        "defaultMusicType": "sekai",
        "gameCharacterUnitId": 21,
        "dancePriority": 1,
        "seq": 1,
        "priority": 1
    },
    {
        "id": 156,
        "musicId": 121,
        "defaultMusicType": "sekai",
        "gameCharacterUnitId": 7,
        "dancePriority": 2,
        "seq": 2,
        "priority": 2
    },
    {
        "id": 157,
        "musicId": 121,
        "defaultMusicType": "sekai",
        "gameCharacterUnitId": 8,
        "dancePriority": 3,
        "seq": 3,
        "priority": 3
    },
    {
        "id": 158,
        "musicId": 127,
        "defaultMusicType": "sekai",
        "gameCharacterUnitId": 26,
        "dancePriority": 1,
        "seq": 1,
        "priority": 1
    },
    {
        "id": 159,
        "musicId": 127,
        "defaultMusicType": "sekai",
        "gameCharacterUnitId": 14,
        "dancePriority": 2,
        "seq": 2,
        "priority": 2
    },
    {
        "id": 160,
        "musicId": 127,
        "defaultMusicType": "sekai",
        "gameCharacterUnitId": 13,
        "dancePriority": 3,
        "seq": 3,
        "priority": 3
    },
    {
        "id": 161,
        "musicId": 127,
        "defaultMusicType": "sekai",
        "gameCharacterUnitId": 15,
        "dancePriority": 4,
        "seq": 4,
        "priority": 4
    },
    {
        "id": 162,
        "musicId": 127,
        "defaultMusicType": "sekai",
        "gameCharacterUnitId": 16,
        "dancePriority": 5,
        "seq": 5,
        "priority": 5
    },
    {
        "id": 163,
        "musicId": 130,
        "defaultMusicType": "sekai",
        "gameCharacterUnitId": 1,
        "dancePriority": 1,
        "seq": 1,
        "priority": 1
    },
    {
        "id": 164,
        "musicId": 130,
        "defaultMusicType": "sekai",
        "gameCharacterUnitId": 2,
        "dancePriority": 2,
        "seq": 2,
        "priority": 2
    },
    {
        "id": 165,
        "musicId": 130,
        "defaultMusicType": "sekai",
        "gameCharacterUnitId": 3,
        "dancePriority": 3,
        "seq": 3,
        "priority": 3
    },
    {
        "id": 166,
        "musicId": 130,
        "defaultMusicType": "sekai",
        "gameCharacterUnitId": 4,
        "dancePriority": 4,
        "seq": 4,
        "priority": 4
    },
    {
        "id": 167,
        "musicId": 130,
        "defaultMusicType": "sekai",
        "gameCharacterUnitId": 21,
        "dancePriority": 5,
        "seq": 5,
        "priority": 5
    },
    {
        "id": 168,
        "musicId": 129,
        "defaultMusicType": "sekai",
        "gameCharacterUnitId": 21,
        "dancePriority": 1,
        "seq": 1,
        "priority": 1
    },
    {
        "id": 169,
        "musicId": 129,
        "defaultMusicType": "sekai",
        "gameCharacterUnitId": 20,
        "dancePriority": 2,
        "seq": 2,
        "priority": 2
    },
    {
        "id": 170,
        "musicId": 129,
        "defaultMusicType": "sekai",
        "gameCharacterUnitId": 18,
        "dancePriority": 3,
        "seq": 3,
        "priority": 3
    },
    {
        "id": 171,
        "musicId": 129,
        "defaultMusicType": "sekai",
        "gameCharacterUnitId": 17,
        "dancePriority": 4,
        "seq": 4,
        "priority": 4
    },
    {
        "id": 172,
        "musicId": 129,
        "defaultMusicType": "sekai",
        "gameCharacterUnitId": 19,
        "dancePriority": 5,
        "seq": 5,
        "priority": 5
    },
    {
        "id": 173,
        "musicId": 140,
        "defaultMusicType": "sekai",
        "gameCharacterUnitId": 23,
        "dancePriority": 1,
        "seq": 1,
        "priority": 1
    },
    {
        "id": 174,
        "musicId": 140,
        "defaultMusicType": "sekai",
        "gameCharacterUnitId": 7,
        "dancePriority": 2,
        "seq": 2,
        "priority": 2
    },
    {
        "id": 175,
        "musicId": 140,
        "defaultMusicType": "sekai",
        "gameCharacterUnitId": 6,
        "dancePriority": 3,
        "seq": 3,
        "priority": 3
    },
    {
        "id": 176,
        "musicId": 140,
        "defaultMusicType": "sekai",
        "gameCharacterUnitId": 8,
        "dancePriority": 4,
        "seq": 4,
        "priority": 4
    },
    {
        "id": 177,
        "musicId": 140,
        "defaultMusicType": "sekai",
        "gameCharacterUnitId": 5,
        "dancePriority": 5,
        "seq": 5,
        "priority": 5
    },
    {
        "id": 178,
        "musicId": 136,
        "defaultMusicType": "sekai",
        "gameCharacterUnitId": 23,
        "dancePriority": 1,
        "seq": 1,
        "priority": 1
    },
    {
        "id": 179,
        "musicId": 136,
        "defaultMusicType": "sekai",
        "gameCharacterUnitId": 12,
        "dancePriority": 2,
        "seq": 2,
        "priority": 2
    },
    {
        "id": 180,
        "musicId": 136,
        "defaultMusicType": "sekai",
        "gameCharacterUnitId": 10,
        "dancePriority": 3,
        "seq": 3,
        "priority": 3
    },
    {
        "id": 181,
        "musicId": 136,
        "defaultMusicType": "sekai",
        "gameCharacterUnitId": 9,
        "dancePriority": 4,
        "seq": 4,
        "priority": 4
    },
    {
        "id": 182,
        "musicId": 136,
        "defaultMusicType": "sekai",
        "gameCharacterUnitId": 11,
        "dancePriority": 5,
        "seq": 5,
        "priority": 5
    },
    {
        "id": 183,
        "musicId": 142,
        "defaultMusicType": "sekai",
        "gameCharacterUnitId": 18,
        "dancePriority": 1,
        "seq": 1,
        "priority": 1
    },
    {
        "id": 184,
        "musicId": 142,
        "defaultMusicType": "sekai",
        "gameCharacterUnitId": 20,
        "dancePriority": 2,
        "seq": 2,
        "priority": 2
    },
    {
        "id": 185,
        "musicId": 142,
        "defaultMusicType": "sekai",
        "gameCharacterUnitId": 17,
        "dancePriority": 3,
        "seq": 3,
        "priority": 3
    },
    {
        "id": 186,
        "musicId": 142,
        "defaultMusicType": "sekai",
        "gameCharacterUnitId": 19,
        "dancePriority": 4,
        "seq": 4,
        "priority": 4
    },
    {
        "id": 187,
        "musicId": 142,
        "defaultMusicType": "sekai",
        "gameCharacterUnitId": 22,
        "dancePriority": 5,
        "seq": 5,
        "priority": 5
    },
    {
        "id": 188,
        "musicId": 141,
        "defaultMusicType": "sekai",
        "gameCharacterUnitId": 1,
        "dancePriority": 2,
        "seq": 1,
        "priority": 2
    },
    {
        "id": 189,
        "musicId": 141,
        "defaultMusicType": "sekai",
        "gameCharacterUnitId": 17,
        "dancePriority": 3,
        "seq": 2,
        "priority": 3
    },
    {
        "id": 190,
        "musicId": 141,
        "defaultMusicType": "sekai",
        "gameCharacterUnitId": 9,
        "dancePriority": 4,
        "seq": 3,
        "priority": 4
    },
    {
        "id": 191,
        "musicId": 141,
        "defaultMusicType": "sekai",
        "gameCharacterUnitId": 13,
        "dancePriority": 5,
        "seq": 4,
        "priority": 5
    },
    {
        "id": 192,
        "musicId": 141,
        "defaultMusicType": "sekai",
        "gameCharacterUnitId": 5,
        "dancePriority": 6,
        "seq": 5,
        "priority": 6
    },
    {
        "id": 193,
        "musicId": 141,
        "defaultMusicType": "sekai",
        "gameCharacterUnitId": 21,
        "dancePriority": 1,
        "seq": 6,
        "priority": 1
    },
    {
        "id": 194,
        "musicId": 98,
        "defaultMusicType": "sekai",
        "gameCharacterUnitId": 1,
        "dancePriority": 1,
        "seq": 1,
        "priority": 1
    },
    {
        "id": 195,
        "musicId": 98,
        "defaultMusicType": "sekai",
        "gameCharacterUnitId": 2,
        "dancePriority": 2,
        "seq": 2,
        "priority": 2
    },
    {
        "id": 196,
        "musicId": 98,
        "defaultMusicType": "sekai",
        "gameCharacterUnitId": 3,
        "dancePriority": 3,
        "seq": 3,
        "priority": 3
    },
    {
        "id": 197,
        "musicId": 98,
        "defaultMusicType": "sekai",
        "gameCharacterUnitId": 4,
        "dancePriority": 4,
        "seq": 4,
        "priority": 4
    },
    {
        "id": 198,
        "musicId": 98,
        "defaultMusicType": "sekai",
        "gameCharacterUnitId": 22,
        "dancePriority": 5,
        "seq": 5,
        "priority": 5
    },
    {
        "id": 199,
        "musicId": 133,
        "defaultMusicType": "sekai",
        "gameCharacterUnitId": 22,
        "dancePriority": 1,
        "seq": 1,
        "priority": 1
    },
    {
        "id": 200,
        "musicId": 133,
        "defaultMusicType": "sekai",
        "gameCharacterUnitId": 9,
        "dancePriority": 2,
        "seq": 2,
        "priority": 2
    },
    {
        "id": 201,
        "musicId": 133,
        "defaultMusicType": "sekai",
        "gameCharacterUnitId": 12,
        "dancePriority": 3,
        "seq": 3,
        "priority": 3
    },
    {
        "id": 202,
        "musicId": 133,
        "defaultMusicType": "sekai",
        "gameCharacterUnitId": 11,
        "dancePriority": 4,
        "seq": 4,
        "priority": 4
    },
    {
        "id": 203,
        "musicId": 133,
        "defaultMusicType": "sekai",
        "gameCharacterUnitId": 10,
        "dancePriority": 5,
        "seq": 5,
        "priority": 5
    },
    {
        "id": 204,
        "musicId": 148,
        "defaultMusicType": "sekai",
        "gameCharacterUnitId": 1,
        "dancePriority": 1,
        "seq": 1,
        "priority": 1
    },
    {
        "id": 205,
        "musicId": 148,
        "defaultMusicType": "sekai",
        "gameCharacterUnitId": 2,
        "dancePriority": 2,
        "seq": 2,
        "priority": 2
    },
    {
        "id": 206,
        "musicId": 148,
        "defaultMusicType": "sekai",
        "gameCharacterUnitId": 3,
        "dancePriority": 3,
        "seq": 3,
        "priority": 3
    },
    {
        "id": 207,
        "musicId": 148,
        "defaultMusicType": "sekai",
        "gameCharacterUnitId": 4,
        "dancePriority": 4,
        "seq": 4,
        "priority": 4
    },
    {
        "id": 208,
        "musicId": 148,
        "defaultMusicType": "sekai",
        "gameCharacterUnitId": 21,
        "dancePriority": 5,
        "seq": 5,
        "priority": 5
    },
    {
        "id": 209,
        "musicId": 160,
        "defaultMusicType": "sekai",
        "gameCharacterUnitId": 16,
        "dancePriority": 1,
        "seq": 1,
        "priority": 1
    },
    {
        "id": 210,
        "musicId": 160,
        "defaultMusicType": "sekai",
        "gameCharacterUnitId": 13,
        "dancePriority": 2,
        "seq": 2,
        "priority": 2
    },
    {
        "id": 211,
        "musicId": 160,
        "defaultMusicType": "sekai",
        "gameCharacterUnitId": 14,
        "dancePriority": 3,
        "seq": 3,
        "priority": 3
    },
    {
        "id": 212,
        "musicId": 160,
        "defaultMusicType": "sekai",
        "gameCharacterUnitId": 15,
        "dancePriority": 4,
        "seq": 4,
        "priority": 4
    },
    {
        "id": 213,
        "musicId": 160,
        "defaultMusicType": "sekai",
        "gameCharacterUnitId": 22,
        "dancePriority": 5,
        "seq": 5,
        "priority": 5
    },
    {
        "id": 214,
        "musicId": 159,
        "defaultMusicType": "sekai",
        "gameCharacterUnitId": 1,
        "dancePriority": 1,
        "seq": 1,
        "priority": 1
    },
    {
        "id": 215,
        "musicId": 159,
        "defaultMusicType": "sekai",
        "gameCharacterUnitId": 2,
        "dancePriority": 2,
        "seq": 2,
        "priority": 2
    },
    {
        "id": 216,
        "musicId": 159,
        "defaultMusicType": "sekai",
        "gameCharacterUnitId": 3,
        "dancePriority": 3,
        "seq": 3,
        "priority": 3
    },
    {
        "id": 217,
        "musicId": 159,
        "defaultMusicType": "sekai",
        "gameCharacterUnitId": 4,
        "dancePriority": 4,
        "seq": 4,
        "priority": 4
    },
    {
        "id": 218,
        "musicId": 159,
        "defaultMusicType": "sekai",
        "gameCharacterUnitId": 23,
        "dancePriority": 5,
        "seq": 5,
        "priority": 5
    },
    {
        "id": 219,
        "musicId": 147,
        "defaultMusicType": "sekai",
        "gameCharacterUnitId": 21,
        "dancePriority": 1,
        "seq": 1,
        "priority": 1
    },
    {
        "id": 220,
        "musicId": 147,
        "defaultMusicType": "sekai",
        "gameCharacterUnitId": 7,
        "dancePriority": 2,
        "seq": 2,
        "priority": 2
    },
    {
        "id": 221,
        "musicId": 147,
        "defaultMusicType": "sekai",
        "gameCharacterUnitId": 6,
        "dancePriority": 3,
        "seq": 3,
        "priority": 3
    },
    {
        "id": 222,
        "musicId": 147,
        "defaultMusicType": "sekai",
        "gameCharacterUnitId": 5,
        "dancePriority": 4,
        "seq": 4,
        "priority": 4
    },
    {
        "id": 223,
        "musicId": 147,
        "defaultMusicType": "sekai",
        "gameCharacterUnitId": 8,
        "dancePriority": 5,
        "seq": 5,
        "priority": 5
    },
    {
        "id": 224,
        "musicId": 153,
        "defaultMusicType": "original_music",
        "gameCharacterUnitId": 5,
        "dancePriority": 2,
        "seq": 1,
        "priority": 2
    },
    {
        "id": 225,
        "musicId": 153,
        "defaultMusicType": "original_music",
        "gameCharacterUnitId": 17,
        "dancePriority": 3,
        "seq": 2,
        "priority": 3
    },
    {
        "id": 226,
        "musicId": 153,
        "defaultMusicType": "original_music",
        "gameCharacterUnitId": 13,
        "dancePriority": 4,
        "seq": 3,
        "priority": 4
    },
    {
        "id": 227,
        "musicId": 153,
        "defaultMusicType": "original_music",
        "gameCharacterUnitId": 9,
        "dancePriority": 5,
        "seq": 4,
        "priority": 5
    },
    {
        "id": 228,
        "musicId": 153,
        "defaultMusicType": "original_music",
        "gameCharacterUnitId": 1,
        "dancePriority": 6,
        "seq": 5,
        "priority": 6
    },
    {
        "id": 229,
        "musicId": 153,
        "defaultMusicType": "original_music",
        "gameCharacterUnitId": 21,
        "dancePriority": 1,
        "seq": 6,
        "priority": 1
    },
    {
        "id": 230,
        "musicId": 180,
        "defaultMusicType": "sekai",
        "gameCharacterUnitId": 12,
        "dancePriority": 1,
        "seq": 1,
        "priority": 1
    },
    {
        "id": 231,
        "musicId": 180,
        "defaultMusicType": "sekai",
        "gameCharacterUnitId": 9,
        "dancePriority": 2,
        "seq": 2,
        "priority": 2
    },
    {
        "id": 232,
        "musicId": 180,
        "defaultMusicType": "sekai",
        "gameCharacterUnitId": 10,
        "dancePriority": 3,
        "seq": 3,
        "priority": 3
    },
    {
        "id": 233,
        "musicId": 180,
        "defaultMusicType": "sekai",
        "gameCharacterUnitId": 11,
        "dancePriority": 4,
        "seq": 4,
        "priority": 4
    },
    {
        "id": 234,
        "musicId": 180,
        "defaultMusicType": "sekai",
        "gameCharacterUnitId": 24,
        "dancePriority": 5,
        "seq": 5,
        "priority": 5
    },
    {
        "id": 235,
        "musicId": 170,
        "defaultMusicType": "sekai",
        "gameCharacterUnitId": 20,
        "dancePriority": 1,
        "seq": 1,
        "priority": 1
    },
    {
        "id": 236,
        "musicId": 170,
        "defaultMusicType": "sekai",
        "gameCharacterUnitId": 18,
        "dancePriority": 2,
        "seq": 2,
        "priority": 2
    },
    {
        "id": 237,
        "musicId": 169,
        "defaultMusicType": "sekai",
        "gameCharacterUnitId": 21,
        "dancePriority": 1,
        "seq": 1,
        "priority": 1
    },
    {
        "id": 238,
        "musicId": 169,
        "defaultMusicType": "sekai",
        "gameCharacterUnitId": 6,
        "dancePriority": 2,
        "seq": 2,
        "priority": 2
    },
    {
        "id": 239,
        "musicId": 169,
        "defaultMusicType": "sekai",
        "gameCharacterUnitId": 8,
        "dancePriority": 3,
        "seq": 3,
        "priority": 3
    },
    {
        "id": 240,
        "musicId": 178,
        "defaultMusicType": "sekai",
        "gameCharacterUnitId": 14,
        "dancePriority": 1,
        "seq": 1,
        "priority": 1
    },
    {
        "id": 241,
        "musicId": 178,
        "defaultMusicType": "sekai",
        "gameCharacterUnitId": 13,
        "dancePriority": 2,
        "seq": 2,
        "priority": 2
    },
    {
        "id": 242,
        "musicId": 178,
        "defaultMusicType": "sekai",
        "gameCharacterUnitId": 15,
        "dancePriority": 3,
        "seq": 3,
        "priority": 3
    },
    {
        "id": 243,
        "musicId": 178,
        "defaultMusicType": "sekai",
        "gameCharacterUnitId": 21,
        "dancePriority": 4,
        "seq": 4,
        "priority": 4
    },
    {
        "id": 244,
        "musicId": 178,
        "defaultMusicType": "sekai",
        "gameCharacterUnitId": 16,
        "dancePriority": 5,
        "seq": 5,
        "priority": 5
    },
    {
        "id": 245,
        "musicId": 181,
        "defaultMusicType": "sekai",
        "gameCharacterUnitId": 21,
        "dancePriority": 1,
        "seq": 1,
        "priority": 1
    },
    {
        "id": 246,
        "musicId": 181,
        "defaultMusicType": "sekai",
        "gameCharacterUnitId": 19,
        "dancePriority": 2,
        "seq": 2,
        "priority": 2
    },
    {
        "id": 247,
        "musicId": 181,
        "defaultMusicType": "sekai",
        "gameCharacterUnitId": 18,
        "dancePriority": 3,
        "seq": 3,
        "priority": 3
    },
    {
        "id": 248,
        "musicId": 182,
        "defaultMusicType": "sekai",
        "gameCharacterUnitId": 9,
        "dancePriority": 1,
        "seq": 1,
        "priority": 1
    },
    {
        "id": 249,
        "musicId": 182,
        "defaultMusicType": "sekai",
        "gameCharacterUnitId": 12,
        "dancePriority": 2,
        "seq": 2,
        "priority": 2
    },
    {
        "id": 250,
        "musicId": 182,
        "defaultMusicType": "sekai",
        "gameCharacterUnitId": 10,
        "dancePriority": 3,
        "seq": 3,
        "priority": 3
    },
    {
        "id": 251,
        "musicId": 182,
        "defaultMusicType": "sekai",
        "gameCharacterUnitId": 11,
        "dancePriority": 4,
        "seq": 4,
        "priority": 4
    },
    {
        "id": 252,
        "musicId": 182,
        "defaultMusicType": "sekai",
        "gameCharacterUnitId": 23,
        "dancePriority": 5,
        "seq": 5,
        "priority": 5
    },
    {
        "id": 253,
        "musicId": 189,
        "defaultMusicType": "sekai",
        "gameCharacterUnitId": 19,
        "dancePriority": 1,
        "seq": 1,
        "priority": 1
    },
    {
        "id": 254,
        "musicId": 189,
        "defaultMusicType": "sekai",
        "gameCharacterUnitId": 22,
        "dancePriority": 2,
        "seq": 2,
        "priority": 2
    },
    {
        "id": 255,
        "musicId": 189,
        "defaultMusicType": "sekai",
        "gameCharacterUnitId": 20,
        "dancePriority": 3,
        "seq": 3,
        "priority": 3
    },
    {
        "id": 256,
        "musicId": 189,
        "defaultMusicType": "sekai",
        "gameCharacterUnitId": 18,
        "dancePriority": 4,
        "seq": 4,
        "priority": 4
    },
    {
        "id": 257,
        "musicId": 189,
        "defaultMusicType": "sekai",
        "gameCharacterUnitId": 17,
        "dancePriority": 5,
        "seq": 5,
        "priority": 5
    },
    {
        "id": 258,
        "musicId": 174,
        "defaultMusicType": "sekai",
        "gameCharacterUnitId": 22,
        "dancePriority": 1,
        "seq": 1,
        "priority": 1
    },
    {
        "id": 259,
        "musicId": 174,
        "defaultMusicType": "sekai",
        "gameCharacterUnitId": 13,
        "dancePriority": 2,
        "seq": 2,
        "priority": 2
    },
    {
        "id": 260,
        "musicId": 174,
        "defaultMusicType": "sekai",
        "gameCharacterUnitId": 15,
        "dancePriority": 3,
        "seq": 3,
        "priority": 3
    },
    {
        "id": 261,
        "musicId": 174,
        "defaultMusicType": "sekai",
        "gameCharacterUnitId": 14,
        "dancePriority": 4,
        "seq": 4,
        "priority": 4
    },
    {
        "id": 262,
        "musicId": 174,
        "defaultMusicType": "sekai",
        "gameCharacterUnitId": 16,
        "dancePriority": 5,
        "seq": 5,
        "priority": 5
    },
    {
        "id": 263,
        "musicId": 195,
        "defaultMusicType": "sekai",
        "gameCharacterUnitId": 21,
        "dancePriority": 1,
        "seq": 1,
        "priority": 1
    },
    {
        "id": 264,
        "musicId": 195,
        "defaultMusicType": "sekai",
        "gameCharacterUnitId": 10,
        "dancePriority": 2,
        "seq": 2,
        "priority": 2
    },
    {
        "id": 265,
        "musicId": 195,
        "defaultMusicType": "sekai",
        "gameCharacterUnitId": 22,
        "dancePriority": 3,
        "seq": 3,
        "priority": 3
    },
    {
        "id": 266,
        "musicId": 195,
        "defaultMusicType": "sekai",
        "gameCharacterUnitId": 9,
        "dancePriority": 4,
        "seq": 4,
        "priority": 4
    },
    {
        "id": 267,
        "musicId": 196,
        "defaultMusicType": "sekai",
        "gameCharacterUnitId": 1,
        "dancePriority": 1,
        "seq": 1,
        "priority": 1
    },
    {
        "id": 268,
        "musicId": 196,
        "defaultMusicType": "sekai",
        "gameCharacterUnitId": 2,
        "dancePriority": 2,
        "seq": 2,
        "priority": 2
    },
    {
        "id": 269,
        "musicId": 196,
        "defaultMusicType": "sekai",
        "gameCharacterUnitId": 3,
        "dancePriority": 3,
        "seq": 3,
        "priority": 3
    },
    {
        "id": 270,
        "musicId": 196,
        "defaultMusicType": "sekai",
        "gameCharacterUnitId": 4,
        "dancePriority": 4,
        "seq": 4,
        "priority": 4
    },
    {
        "id": 271,
        "musicId": 196,
        "defaultMusicType": "sekai",
        "gameCharacterUnitId": 24,
        "dancePriority": 5,
        "seq": 5,
        "priority": 5
    },
    {
        "id": 272,
        "musicId": 211,
        "defaultMusicType": "sekai",
        "gameCharacterUnitId": 6,
        "dancePriority": 1,
        "seq": 1,
        "priority": 1
    },
    {
        "id": 273,
        "musicId": 211,
        "defaultMusicType": "sekai",
        "gameCharacterUnitId": 7,
        "dancePriority": 2,
        "seq": 2,
        "priority": 2
    },
    {
        "id": 274,
        "musicId": 211,
        "defaultMusicType": "sekai",
        "gameCharacterUnitId": 8,
        "dancePriority": 3,
        "seq": 3,
        "priority": 3
    },
    {
        "id": 275,
        "musicId": 211,
        "defaultMusicType": "sekai",
        "gameCharacterUnitId": 5,
        "dancePriority": 4,
        "seq": 4,
        "priority": 4
    },
    {
        "id": 276,
        "musicId": 211,
        "defaultMusicType": "sekai",
        "gameCharacterUnitId": 21,
        "dancePriority": 5,
        "seq": 5,
        "priority": 5
    },
    {
        "id": 277,
        "musicId": 201,
        "defaultMusicType": "sekai",
        "gameCharacterUnitId": 21,
        "dancePriority": 1,
        "seq": 1,
        "priority": 1
    },
    {
        "id": 278,
        "musicId": 201,
        "defaultMusicType": "sekai",
        "gameCharacterUnitId": 16,
        "dancePriority": 2,
        "seq": 2,
        "priority": 2
    },
    {
        "id": 279,
        "musicId": 201,
        "defaultMusicType": "sekai",
        "gameCharacterUnitId": 14,
        "dancePriority": 3,
        "seq": 3,
        "priority": 3
    },
    {
        "id": 280,
        "musicId": 201,
        "defaultMusicType": "sekai",
        "gameCharacterUnitId": 13,
        "dancePriority": 4,
        "seq": 4,
        "priority": 4
    },
    {
        "id": 281,
        "musicId": 201,
        "defaultMusicType": "sekai",
        "gameCharacterUnitId": 15,
        "dancePriority": 5,
        "seq": 5,
        "priority": 5
    }
]