[
    {
        "id": 1,
        "omikujiGroupId": 1,
        "unit": "piapro",
        "fortuneType": "grate_fortune",
        "summary": "人を想う心により様々な\n出会いを経験する良い年\nになるでしょう",
        "title1": "願望",
        "description1": "必ず叶う",
        "title2": "健康",
        "description2": "大変良好\n体を動かすとなお良し",
        "title3": "待人",
        "description3": "必ず来る",
        "unitAssetbundleName": "lottery_game/new_year_2022_material",
        "fortuneAssetbundleName": "lottery_game/new_year_2022_material",
        "omikujiCoverAssetbundleName": "lottery_game/new_year_2022_material",
        "unitFilePath": "bird_VIRTUAL SINGER",
        "fortuneFilePath": "unsei_daikichi",
        "omikujiCoverFilePath": "omikuji_VIRTUAL SINGER"
    },
    {
        "id": 2,
        "omikujiGroupId": 1,
        "unit": "piapro",
        "fortuneType": "fortune",
        "summary": "沢山の人々を応援し\nまた応援される豊かな\n年になるでしょう",
        "title1": "願望",
        "description1": "つつがなく叶うでしょう",
        "title2": "健康",
        "description2": "良好",
        "title3": "待人",
        "description3": "信ずれば来る",
        "unitAssetbundleName": "lottery_game/new_year_2022_material",
        "fortuneAssetbundleName": "lottery_game/new_year_2022_material",
        "omikujiCoverAssetbundleName": "lottery_game/new_year_2022_material",
        "unitFilePath": "bird_VIRTUAL SINGER",
        "fortuneFilePath": "unsei_kichi",
        "omikujiCoverFilePath": "omikuji_VIRTUAL SINGER"
    },
    {
        "id": 3,
        "omikujiGroupId": 1,
        "unit": "piapro",
        "fortuneType": "middle_fortune",
        "summary": "様々な出会いや経験に\nより刺激を得て成長\nできる年になるでしょう",
        "title1": "願望",
        "description1": "チームワークが成功の鍵\n力を合わせれば叶う",
        "title2": "健康",
        "description2": "良好",
        "title3": "待人",
        "description3": "遅れるが必ず来る",
        "unitAssetbundleName": "lottery_game/new_year_2022_material",
        "fortuneAssetbundleName": "lottery_game/new_year_2022_material",
        "omikujiCoverAssetbundleName": "lottery_game/new_year_2022_material",
        "unitFilePath": "bird_VIRTUAL SINGER",
        "fortuneFilePath": "unsei_cyukichi",
        "omikujiCoverFilePath": "omikuji_VIRTUAL SINGER"
    },
    {
        "id": 4,
        "omikujiGroupId": 1,
        "unit": "piapro",
        "fortuneType": "small_fortune",
        "summary": "人を思いやる言葉と行動\nが周囲の問題を解決に\n導くでしょう",
        "title1": "願望",
        "description1": "行動をすれば叶うでしょう",
        "title2": "健康",
        "description2": "問題なし",
        "title3": "待人",
        "description3": "遠からず来る",
        "unitAssetbundleName": "lottery_game/new_year_2022_material",
        "fortuneAssetbundleName": "lottery_game/new_year_2022_material",
        "omikujiCoverAssetbundleName": "lottery_game/new_year_2022_material",
        "unitFilePath": "bird_VIRTUAL SINGER",
        "fortuneFilePath": "unsei_syoukichi",
        "omikujiCoverFilePath": "omikuji_VIRTUAL SINGER"
    },
    {
        "id": 5,
        "omikujiGroupId": 1,
        "unit": "piapro",
        "fortuneType": "uncertain_luck",
        "summary": "穏やかに過ごせる年\n人に助力を惜しまない\nことが幸運の鍵",
        "title1": "願望",
        "description1": "時間はかかるが叶うでしょう",
        "title2": "健康",
        "description2": "問題ないが暴飲暴食は禁物",
        "title3": "待人",
        "description3": "自ら会いに行くのが\nいいでしょう",
        "unitAssetbundleName": "lottery_game/new_year_2022_material",
        "fortuneAssetbundleName": "lottery_game/new_year_2022_material",
        "omikujiCoverAssetbundleName": "lottery_game/new_year_2022_material",
        "unitFilePath": "bird_VIRTUAL SINGER",
        "fortuneFilePath": "unsei_suekichi",
        "omikujiCoverFilePath": "omikuji_VIRTUAL SINGER"
    },
    {
        "id": 6,
        "omikujiGroupId": 1,
        "unit": "piapro",
        "fortuneType": "misfortune",
        "summary": "周囲に振り回され\n計画通りにいかない事が\n多いでしょう",
        "title1": "願望",
        "description1": "望めば叶うが困難が多い",
        "title2": "健康",
        "description2": "身体を冷やさないように\nしましょう",
        "title3": "待人",
        "description3": "遅れて来る",
        "unitAssetbundleName": "lottery_game/new_year_2022_material",
        "fortuneAssetbundleName": "lottery_game/new_year_2022_material",
        "omikujiCoverAssetbundleName": "lottery_game/new_year_2022_material",
        "unitFilePath": "bird_VIRTUAL SINGER",
        "fortuneFilePath": "unsei_kyou",
        "omikujiCoverFilePath": "omikuji_VIRTUAL SINGER"
    },
    {
        "id": 7,
        "omikujiGroupId": 1,
        "unit": "piapro",
        "fortuneType": "grate_misfortune",
        "summary": "人の想いは容易には\n変わらないもの\n好転の時を待つのが吉",
        "title1": "願望",
        "description1": "叶い難いでしょう",
        "title2": "健康",
        "description2": "悩みが続く　時には心を休める\n必要があるでしょう",
        "title3": "待人",
        "description3": "しばらくは来ないでしょう",
        "unitAssetbundleName": "lottery_game/new_year_2022_material",
        "fortuneAssetbundleName": "lottery_game/new_year_2022_material",
        "omikujiCoverAssetbundleName": "lottery_game/new_year_2022_material",
        "unitFilePath": "bird_VIRTUAL SINGER",
        "fortuneFilePath": "unsei_daikyou",
        "omikujiCoverFilePath": "omikuji_VIRTUAL SINGER"
    },
    {
        "id": 8,
        "omikujiGroupId": 1,
        "unit": "light_sound",
        "fortuneType": "grate_fortune",
        "summary": "疎遠になっていた友人\nとの繋がりを取り戻す\nことができるでしょう",
        "title1": "願望",
        "description1": "困難は多いが必ず叶う",
        "title2": "健康",
        "description2": "大変良好",
        "title3": "待人",
        "description3": "必ず来る",
        "unitAssetbundleName": "lottery_game/new_year_2022_material",
        "fortuneAssetbundleName": "lottery_game/new_year_2022_material",
        "omikujiCoverAssetbundleName": "lottery_game/new_year_2022_material",
        "unitFilePath": "bird_Leoneed",
        "fortuneFilePath": "unsei_daikichi",
        "omikujiCoverFilePath": "omikuji_Leoneed"
    },
    {
        "id": 9,
        "omikujiGroupId": 1,
        "unit": "light_sound",
        "fortuneType": "fortune",
        "summary": "夢の実現に近づく年\n昔の縁を大切に\nしましょう",
        "title1": "願望",
        "description1": "人の協力を得る\n実現に近づくでしょう",
        "title2": "健康",
        "description2": "良好",
        "title3": "待人",
        "description3": "遠からず来る",
        "unitAssetbundleName": "lottery_game/new_year_2022_material",
        "fortuneAssetbundleName": "lottery_game/new_year_2022_material",
        "omikujiCoverAssetbundleName": "lottery_game/new_year_2022_material",
        "unitFilePath": "bird_Leoneed",
        "fortuneFilePath": "unsei_kichi",
        "omikujiCoverFilePath": "omikuji_Leoneed"
    },
    {
        "id": 10,
        "omikujiGroupId": 1,
        "unit": "light_sound",
        "fortuneType": "middle_fortune",
        "summary": "環境の変化が大きい年\n行動次第で好転の鍵に\nなるでしょう",
        "title1": "願望",
        "description1": "障害は多いが叶う",
        "title2": "健康",
        "description2": "概ね良好だが無理は禁物",
        "title3": "待人",
        "description3": "必ず来る",
        "unitAssetbundleName": "lottery_game/new_year_2022_material",
        "fortuneAssetbundleName": "lottery_game/new_year_2022_material",
        "omikujiCoverAssetbundleName": "lottery_game/new_year_2022_material",
        "unitFilePath": "bird_Leoneed",
        "fortuneFilePath": "unsei_cyukichi",
        "omikujiCoverFilePath": "omikuji_Leoneed"
    },
    {
        "id": 11,
        "omikujiGroupId": 1,
        "unit": "light_sound",
        "fortuneType": "small_fortune",
        "summary": "万事望み通りにはならず\nとも着実に前進する年に\nなるでしょう",
        "title1": "願望",
        "description1": "概ね叶う",
        "title2": "健康",
        "description2": "バランスの良い食生活を\n心がけましょう",
        "title3": "待人",
        "description3": "少し遅れて来る",
        "unitAssetbundleName": "lottery_game/new_year_2022_material",
        "fortuneAssetbundleName": "lottery_game/new_year_2022_material",
        "omikujiCoverAssetbundleName": "lottery_game/new_year_2022_material",
        "unitFilePath": "bird_Leoneed",
        "fortuneFilePath": "unsei_syoukichi",
        "omikujiCoverFilePath": "omikuji_Leoneed"
    },
    {
        "id": 12,
        "omikujiGroupId": 1,
        "unit": "light_sound",
        "fortuneType": "uncertain_luck",
        "summary": "仲間と一からものを\n創り上げる挑戦をすると\n道が開けるでしょう",
        "title1": "願望",
        "description1": "時間はかかるが叶うでしょう",
        "title2": "健康",
        "description2": "問題なし",
        "title3": "待人",
        "description3": "来る",
        "unitAssetbundleName": "lottery_game/new_year_2022_material",
        "fortuneAssetbundleName": "lottery_game/new_year_2022_material",
        "omikujiCoverAssetbundleName": "lottery_game/new_year_2022_material",
        "unitFilePath": "bird_Leoneed",
        "fortuneFilePath": "unsei_suekichi",
        "omikujiCoverFilePath": "omikuji_Leoneed"
    },
    {
        "id": 13,
        "omikujiGroupId": 1,
        "unit": "light_sound",
        "fortuneType": "misfortune",
        "summary": "想うほどすれ違う年\n勇気を持って向きあえば\n好転するでしょう",
        "title1": "願望",
        "description1": "行動しなければ叶わず",
        "title2": "健康",
        "description2": "心配事により疲れる兆しあり",
        "title3": "待人",
        "description3": "遅れて来る",
        "unitAssetbundleName": "lottery_game/new_year_2022_material",
        "fortuneAssetbundleName": "lottery_game/new_year_2022_material",
        "omikujiCoverAssetbundleName": "lottery_game/new_year_2022_material",
        "unitFilePath": "bird_Leoneed",
        "fortuneFilePath": "unsei_kyou",
        "omikujiCoverFilePath": "omikuji_Leoneed"
    },
    {
        "id": 14,
        "omikujiGroupId": 1,
        "unit": "light_sound",
        "fortuneType": "grate_misfortune",
        "summary": "人間関係に苦難あり\n真に大事にしたい人を\n選ぶのが吉",
        "title1": "願望",
        "description1": "願いを伏せている間は叶わず",
        "title2": "健康",
        "description2": "食に難あり\n暴食は避けるべし",
        "title3": "待人",
        "description3": "来ず\n自ら行くが早し",
        "unitAssetbundleName": "lottery_game/new_year_2022_material",
        "fortuneAssetbundleName": "lottery_game/new_year_2022_material",
        "omikujiCoverAssetbundleName": "lottery_game/new_year_2022_material",
        "unitFilePath": "bird_Leoneed",
        "fortuneFilePath": "unsei_daikyou",
        "omikujiCoverFilePath": "omikuji_Leoneed"
    },
    {
        "id": 15,
        "omikujiGroupId": 1,
        "unit": "idol",
        "fortuneType": "grate_fortune",
        "summary": "今までの努力や想いが\n実り憧れや夢に近づける\n年になるでしょう",
        "title1": "願望",
        "description1": "困難があれども\n叶えられるでしょう",
        "title2": "健康",
        "description2": "運動すれば体力が\nつくでしょう",
        "title3": "待人",
        "description3": "来るでしょう",
        "unitAssetbundleName": "lottery_game/new_year_2022_material",
        "fortuneAssetbundleName": "lottery_game/new_year_2022_material",
        "omikujiCoverAssetbundleName": "lottery_game/new_year_2022_material",
        "unitFilePath": "bird_MORE MORE JUMP",
        "fortuneFilePath": "unsei_daikichi",
        "omikujiCoverFilePath": "omikuji_MORE MORE JUMP"
    },
    {
        "id": 16,
        "omikujiGroupId": 1,
        "unit": "idol",
        "fortuneType": "fortune",
        "summary": "憂鬱が晴れる年\nありのままの自分で\n過ごせるでしょう",
        "title1": "願望",
        "description1": "望めば叶う",
        "title2": "健康",
        "description2": "健康に過ごせるでしょう",
        "title3": "待人",
        "description3": "来る",
        "unitAssetbundleName": "lottery_game/new_year_2022_material",
        "fortuneAssetbundleName": "lottery_game/new_year_2022_material",
        "omikujiCoverAssetbundleName": "lottery_game/new_year_2022_material",
        "unitFilePath": "bird_MORE MORE JUMP",
        "fortuneFilePath": "unsei_kichi",
        "omikujiCoverFilePath": "omikuji_MORE MORE JUMP"
    },
    {
        "id": 17,
        "omikujiGroupId": 1,
        "unit": "idol",
        "fortuneType": "middle_fortune",
        "summary": "積み重ねてきた成果が\n少しずつ現れる年と\nなるでしょう",
        "title1": "願望",
        "description1": "応援してくれる人が現れ\n叶うでしょう",
        "title2": "健康",
        "description2": "良好",
        "title3": "待人",
        "description3": "身近な人の助けにより来る",
        "unitAssetbundleName": "lottery_game/new_year_2022_material",
        "fortuneAssetbundleName": "lottery_game/new_year_2022_material",
        "omikujiCoverAssetbundleName": "lottery_game/new_year_2022_material",
        "unitFilePath": "bird_MORE MORE JUMP",
        "fortuneFilePath": "unsei_cyukichi",
        "omikujiCoverFilePath": "omikuji_MORE MORE JUMP"
    },
    {
        "id": 18,
        "omikujiGroupId": 1,
        "unit": "idol",
        "fortuneType": "small_fortune",
        "summary": "一度は諦めた道を\n再び目指すきっかけを\n得られるでしょう",
        "title1": "願望",
        "description1": "支えとなる友人が現れる\n望めば叶うでしょう",
        "title2": "健康",
        "description2": "問題なし",
        "title3": "待人",
        "description3": "思わず来るでしょう",
        "unitAssetbundleName": "lottery_game/new_year_2022_material",
        "fortuneAssetbundleName": "lottery_game/new_year_2022_material",
        "omikujiCoverAssetbundleName": "lottery_game/new_year_2022_material",
        "unitFilePath": "bird_MORE MORE JUMP",
        "fortuneFilePath": "unsei_syoukichi",
        "omikujiCoverFilePath": "omikuji_MORE MORE JUMP"
    },
    {
        "id": 19,
        "omikujiGroupId": 1,
        "unit": "idol",
        "fortuneType": "uncertain_luck",
        "summary": "今は我慢の時\n理想の実現に向けて\n土台作りから始めるべし",
        "title1": "願望",
        "description1": "希望に導く存在が現れ\n叶うでしょう",
        "title2": "健康",
        "description2": "問題なし",
        "title3": "待人",
        "description3": "来るでしょう",
        "unitAssetbundleName": "lottery_game/new_year_2022_material",
        "fortuneAssetbundleName": "lottery_game/new_year_2022_material",
        "omikujiCoverAssetbundleName": "lottery_game/new_year_2022_material",
        "unitFilePath": "bird_MORE MORE JUMP",
        "fortuneFilePath": "unsei_suekichi",
        "omikujiCoverFilePath": "omikuji_MORE MORE JUMP"
    },
    {
        "id": 20,
        "omikujiGroupId": 1,
        "unit": "idol",
        "fortuneType": "misfortune",
        "summary": "思わぬ災難に見舞われる\n安全確認を徹底すべし",
        "title1": "願望",
        "description1": "人の力を借りるのが\nよいでしょう",
        "title2": "健康",
        "description2": "軽微な怪我があるでしょう",
        "title3": "待人",
        "description3": "早くはないが来るでしょう",
        "unitAssetbundleName": "lottery_game/new_year_2022_material",
        "fortuneAssetbundleName": "lottery_game/new_year_2022_material",
        "omikujiCoverAssetbundleName": "lottery_game/new_year_2022_material",
        "unitFilePath": "bird_MORE MORE JUMP",
        "fortuneFilePath": "unsei_kyou",
        "omikujiCoverFilePath": "omikuji_MORE MORE JUMP"
    },
    {
        "id": 21,
        "omikujiGroupId": 1,
        "unit": "idol",
        "fortuneType": "grate_misfortune",
        "summary": "障害が多い年でしょう\n常識にとらわれない\n柔軟な発想が解決の鍵",
        "title1": "願望",
        "description1": "困難\nただし諦めなければ叶う",
        "title2": "健康",
        "description2": "問題なし",
        "title3": "待人",
        "description3": "待つより行くが早し",
        "unitAssetbundleName": "lottery_game/new_year_2022_material",
        "fortuneAssetbundleName": "lottery_game/new_year_2022_material",
        "omikujiCoverAssetbundleName": "lottery_game/new_year_2022_material",
        "unitFilePath": "bird_MORE MORE JUMP",
        "fortuneFilePath": "unsei_daikyou",
        "omikujiCoverFilePath": "omikuji_MORE MORE JUMP"
    },
    {
        "id": 22,
        "omikujiGroupId": 1,
        "unit": "street",
        "fortuneType": "grate_fortune",
        "summary": "人生を彩る新しい環境や\n出会いが訪れる年に\nなるでしょう",
        "title1": "願望",
        "description1": "強力な支援者が現れる\n実現に近づくでしょう",
        "title2": "健康",
        "description2": "とても良好\n新たな挑戦をするとなお良し",
        "title3": "待人",
        "description3": "すぐに来るでしょう",
        "unitAssetbundleName": "lottery_game/new_year_2022_material",
        "fortuneAssetbundleName": "lottery_game/new_year_2022_material",
        "omikujiCoverAssetbundleName": "lottery_game/new_year_2022_material",
        "unitFilePath": "bird_Vivid BAD SQUAD",
        "fortuneFilePath": "unsei_daikichi",
        "omikujiCoverFilePath": "omikuji_Vivid BAD SQUAD"
    },
    {
        "id": 23,
        "omikujiGroupId": 1,
        "unit": "street",
        "fortuneType": "fortune",
        "summary": "自身の考えが伝わり\n長年の憂いが晴れる\n兆しあり",
        "title1": "願望",
        "description1": "意思を伝えれば叶う",
        "title2": "健康",
        "description2": "良好　\n憂いが晴れさらに良くなる",
        "title3": "待人",
        "description3": "たよりはないが来る",
        "unitAssetbundleName": "lottery_game/new_year_2022_material",
        "fortuneAssetbundleName": "lottery_game/new_year_2022_material",
        "omikujiCoverAssetbundleName": "lottery_game/new_year_2022_material",
        "unitFilePath": "bird_Vivid BAD SQUAD",
        "fortuneFilePath": "unsei_kichi",
        "omikujiCoverFilePath": "omikuji_Vivid BAD SQUAD"
    },
    {
        "id": 24,
        "omikujiGroupId": 1,
        "unit": "street",
        "fortuneType": "middle_fortune",
        "summary": "トラブルが生じるが\n夢を追う仲間を\n得られるでしょう",
        "title1": "願望",
        "description1": "時間はかかるが叶うでしょう",
        "title2": "健康",
        "description2": "良好",
        "title3": "待人",
        "description3": "思わず来る",
        "unitAssetbundleName": "lottery_game/new_year_2022_material",
        "fortuneAssetbundleName": "lottery_game/new_year_2022_material",
        "omikujiCoverAssetbundleName": "lottery_game/new_year_2022_material",
        "unitFilePath": "bird_Vivid BAD SQUAD",
        "fortuneFilePath": "unsei_cyukichi",
        "omikujiCoverFilePath": "omikuji_Vivid BAD SQUAD"
    },
    {
        "id": 25,
        "omikujiGroupId": 1,
        "unit": "street",
        "fortuneType": "small_fortune",
        "summary": "周囲との団結力が\n高まっていくでしょう\n継続的な挑戦が吉",
        "title1": "願望",
        "description1": "叶う兆しが得られるでしょう",
        "title2": "健康",
        "description2": "問題なし",
        "title3": "待人",
        "description3": "来るでしょう",
        "unitAssetbundleName": "lottery_game/new_year_2022_material",
        "fortuneAssetbundleName": "lottery_game/new_year_2022_material",
        "omikujiCoverAssetbundleName": "lottery_game/new_year_2022_material",
        "unitFilePath": "bird_Vivid BAD SQUAD",
        "fortuneFilePath": "unsei_syoukichi",
        "omikujiCoverFilePath": "omikuji_Vivid BAD SQUAD"
    },
    {
        "id": 26,
        "omikujiGroupId": 1,
        "unit": "street",
        "fortuneType": "uncertain_luck",
        "summary": "心が揺れる出来事が\n起こる兆しあり\n違和感の早期解決が吉",
        "title1": "願望",
        "description1": "努力次第で道は開ける",
        "title2": "健康",
        "description2": "身体は問題なし\n己の心を見つめなおしましょう",
        "title3": "待人",
        "description3": "来るでしょう",
        "unitAssetbundleName": "lottery_game/new_year_2022_material",
        "fortuneAssetbundleName": "lottery_game/new_year_2022_material",
        "omikujiCoverAssetbundleName": "lottery_game/new_year_2022_material",
        "unitFilePath": "bird_Vivid BAD SQUAD",
        "fortuneFilePath": "unsei_suekichi",
        "omikujiCoverFilePath": "omikuji_Vivid BAD SQUAD"
    },
    {
        "id": 27,
        "omikujiGroupId": 1,
        "unit": "street",
        "fortuneType": "misfortune",
        "summary": "壁は高く理想の実現には\n遠いでしょう\n今は経験を積むのが吉",
        "title1": "願望",
        "description1": "己の力のみでは叶わず\n周囲を頼るとよいでしょう",
        "title2": "健康",
        "description2": "問題なし",
        "title3": "待人",
        "description3": "来るでしょう",
        "unitAssetbundleName": "lottery_game/new_year_2022_material",
        "fortuneAssetbundleName": "lottery_game/new_year_2022_material",
        "omikujiCoverAssetbundleName": "lottery_game/new_year_2022_material",
        "unitFilePath": "bird_Vivid BAD SQUAD",
        "fortuneFilePath": "unsei_kyou",
        "omikujiCoverFilePath": "omikuji_Vivid BAD SQUAD"
    },
    {
        "id": 28,
        "omikujiGroupId": 1,
        "unit": "street",
        "fortuneType": "grate_misfortune",
        "summary": "思わぬトラブルで人々の\n熱気を冷ます兆しあり\n冷静に対処せよ",
        "title1": "願望",
        "description1": "今はまだ叶わないでしょう",
        "title2": "健康",
        "description2": "問題ないが間食の量には\n注意しましょう",
        "title3": "待人",
        "description3": "遅れて来る",
        "unitAssetbundleName": "lottery_game/new_year_2022_material",
        "fortuneAssetbundleName": "lottery_game/new_year_2022_material",
        "omikujiCoverAssetbundleName": "lottery_game/new_year_2022_material",
        "unitFilePath": "bird_Vivid BAD SQUAD",
        "fortuneFilePath": "unsei_daikyou",
        "omikujiCoverFilePath": "omikuji_Vivid BAD SQUAD"
    },
    {
        "id": 29,
        "omikujiGroupId": 1,
        "unit": "theme_park",
        "fortuneType": "grate_fortune",
        "summary": "様々な事が好転する年\n思うままに行動して\n良いでしょう",
        "title1": "願望",
        "description1": "友人の助けあり\n必ず叶う",
        "title2": "健康",
        "description2": "問題なし",
        "title3": "待人",
        "description3": "必ず来る",
        "unitAssetbundleName": "lottery_game/new_year_2022_material",
        "fortuneAssetbundleName": "lottery_game/new_year_2022_material",
        "omikujiCoverAssetbundleName": "lottery_game/new_year_2022_material",
        "unitFilePath": "bird_Wonderlands×Showtime",
        "fortuneFilePath": "unsei_daikichi",
        "omikujiCoverFilePath": "omikuji_Wonderlands×Showtime"
    },
    {
        "id": 30,
        "omikujiGroupId": 1,
        "unit": "theme_park",
        "fortuneType": "fortune",
        "summary": "諦めていたものを\n得られる兆しあり\n迷わず手を伸ばすが吉",
        "title1": "願望",
        "description1": "望めば叶う",
        "title2": "健康",
        "description2": "栄養に偏りあり\n食生活には用心せよ",
        "title3": "待人",
        "description3": "来るでしょう",
        "unitAssetbundleName": "lottery_game/new_year_2022_material",
        "fortuneAssetbundleName": "lottery_game/new_year_2022_material",
        "omikujiCoverAssetbundleName": "lottery_game/new_year_2022_material",
        "unitFilePath": "bird_Wonderlands×Showtime",
        "fortuneFilePath": "unsei_kichi",
        "omikujiCoverFilePath": "omikuji_Wonderlands×Showtime"
    },
    {
        "id": 31,
        "omikujiGroupId": 1,
        "unit": "theme_park",
        "fortuneType": "middle_fortune",
        "summary": "困難に立ち向かうには\n仲間への相談が解決の鍵\nとなるでしょう",
        "title1": "願望",
        "description1": "協力者が現れる\n叶う",
        "title2": "健康",
        "description2": "良好",
        "title3": "待人",
        "description3": "少し遅れて来る",
        "unitAssetbundleName": "lottery_game/new_year_2022_material",
        "fortuneAssetbundleName": "lottery_game/new_year_2022_material",
        "omikujiCoverAssetbundleName": "lottery_game/new_year_2022_material",
        "unitFilePath": "bird_Wonderlands×Showtime",
        "fortuneFilePath": "unsei_cyukichi",
        "omikujiCoverFilePath": "omikuji_Wonderlands×Showtime"
    },
    {
        "id": 32,
        "omikujiGroupId": 1,
        "unit": "theme_park",
        "fortuneType": "small_fortune",
        "summary": "環境より後押しを得る\n自分の力を信じるのが\n良いでしょう",
        "title1": "願望",
        "description1": "思わぬ救済により叶う",
        "title2": "健康",
        "description2": "問題なし",
        "title3": "待人",
        "description3": "少し遅れて来る",
        "unitAssetbundleName": "lottery_game/new_year_2022_material",
        "fortuneAssetbundleName": "lottery_game/new_year_2022_material",
        "omikujiCoverAssetbundleName": "lottery_game/new_year_2022_material",
        "unitFilePath": "bird_Wonderlands×Showtime",
        "fortuneFilePath": "unsei_syoukichi",
        "omikujiCoverFilePath": "omikuji_Wonderlands×Showtime"
    },
    {
        "id": 33,
        "omikujiGroupId": 1,
        "unit": "theme_park",
        "fortuneType": "uncertain_luck",
        "summary": "はじめは少なくとも\n次第に応援してくれる\n人が現れるでしょう",
        "title1": "願望",
        "description1": "今はまだ叶わないでしょう\n努力により好転するでしょう",
        "title2": "健康",
        "description2": "やや気疲れすることが\nあるでしょう",
        "title3": "待人",
        "description3": "必ず来る",
        "unitAssetbundleName": "lottery_game/new_year_2022_material",
        "fortuneAssetbundleName": "lottery_game/new_year_2022_material",
        "omikujiCoverAssetbundleName": "lottery_game/new_year_2022_material",
        "unitFilePath": "bird_Wonderlands×Showtime",
        "fortuneFilePath": "unsei_suekichi",
        "omikujiCoverFilePath": "omikuji_Wonderlands×Showtime"
    },
    {
        "id": 34,
        "omikujiGroupId": 1,
        "unit": "theme_park",
        "fortuneType": "misfortune",
        "summary": "重要な局面でトラブルに\n見舞われる兆しあり\n用心しましょう",
        "title1": "願望",
        "description1": "現状のままでは\n叶わないでしょう",
        "title2": "健康",
        "description2": "怪我には注意しましょう",
        "title3": "待人",
        "description3": "遠からず来るでしょう",
        "unitAssetbundleName": "lottery_game/new_year_2022_material",
        "fortuneAssetbundleName": "lottery_game/new_year_2022_material",
        "omikujiCoverAssetbundleName": "lottery_game/new_year_2022_material",
        "unitFilePath": "bird_Wonderlands×Showtime",
        "fortuneFilePath": "unsei_kyou",
        "omikujiCoverFilePath": "omikuji_Wonderlands×Showtime"
    },
    {
        "id": 35,
        "omikujiGroupId": 1,
        "unit": "theme_park",
        "fortuneType": "grate_misfortune",
        "summary": "諍いごとが多くなる年\n思いやりと初心を\n大事にするのが吉",
        "title1": "願望",
        "description1": "己の力のみでは叶わず\n周囲の助言を受け入れよ",
        "title2": "健康",
        "description2": "食に難あり\n用心せよ",
        "title3": "待人",
        "description3": "来ず\n自ら向かうべし",
        "unitAssetbundleName": "lottery_game/new_year_2022_material",
        "fortuneAssetbundleName": "lottery_game/new_year_2022_material",
        "omikujiCoverAssetbundleName": "lottery_game/new_year_2022_material",
        "unitFilePath": "bird_Wonderlands×Showtime",
        "fortuneFilePath": "unsei_daikyou",
        "omikujiCoverFilePath": "omikuji_Wonderlands×Showtime"
    },
    {
        "id": 36,
        "omikujiGroupId": 1,
        "unit": "school_refusal",
        "fortuneType": "grate_fortune",
        "summary": "難事はあり困難なれども\n諦めなければ憂いは必ず\n晴れるでしょう",
        "title1": "願望",
        "description1": "叶う\n諦めずに精進すべし",
        "title2": "健康",
        "description2": "間食は控えよ",
        "title3": "待人",
        "description3": "必ず来る",
        "unitAssetbundleName": "lottery_game/new_year_2022_material",
        "fortuneAssetbundleName": "lottery_game/new_year_2022_material",
        "omikujiCoverAssetbundleName": "lottery_game/new_year_2022_material",
        "unitFilePath": "bird_Nightcord at 25_00",
        "fortuneFilePath": "unsei_daikichi",
        "omikujiCoverFilePath": "omikuji_Nightcord at 25_00"
    },
    {
        "id": 37,
        "omikujiGroupId": 1,
        "unit": "school_refusal",
        "fortuneType": "fortune",
        "summary": "大いなる壁に悩むも\n超えた先に然る結果が\nあるでしょう",
        "title1": "願望",
        "description1": "先人の助力を得れば叶う",
        "title2": "健康",
        "description2": "バランスのよい食事を\n心がけよ",
        "title3": "待人",
        "description3": "しばらく来ないでしょう",
        "unitAssetbundleName": "lottery_game/new_year_2022_material",
        "fortuneAssetbundleName": "lottery_game/new_year_2022_material",
        "omikujiCoverAssetbundleName": "lottery_game/new_year_2022_material",
        "unitFilePath": "bird_Nightcord at 25_00",
        "fortuneFilePath": "unsei_kichi",
        "omikujiCoverFilePath": "omikuji_Nightcord at 25_00"
    },
    {
        "id": 38,
        "omikujiGroupId": 1,
        "unit": "school_refusal",
        "fortuneType": "middle_fortune",
        "summary": "つつがなく\nそれぞれの役目を\nまっとうできるでしょう",
        "title1": "願望",
        "description1": "望めば叶う",
        "title2": "健康",
        "description2": "睡眠を疎かにしないよう\n心がけましょう",
        "title3": "待人",
        "description3": "少し遅れて来るでしょう",
        "unitAssetbundleName": "lottery_game/new_year_2022_material",
        "fortuneAssetbundleName": "lottery_game/new_year_2022_material",
        "omikujiCoverAssetbundleName": "lottery_game/new_year_2022_material",
        "unitFilePath": "bird_Nightcord at 25_00",
        "fortuneFilePath": "unsei_cyukichi",
        "omikujiCoverFilePath": "omikuji_Nightcord at 25_00"
    },
    {
        "id": 39,
        "omikujiGroupId": 1,
        "unit": "school_refusal",
        "fortuneType": "small_fortune",
        "summary": "一つ一つは小さくも\n心に変化が起こる年に\nなるでしょう",
        "title1": "願望",
        "description1": "時間はかかるが待てば\n叶うでしょう",
        "title2": "健康",
        "description2": "問題ないが無理は禁物",
        "title3": "待人",
        "description3": "つつがなく来るでしょう",
        "unitAssetbundleName": "lottery_game/new_year_2022_material",
        "fortuneAssetbundleName": "lottery_game/new_year_2022_material",
        "omikujiCoverAssetbundleName": "lottery_game/new_year_2022_material",
        "unitFilePath": "bird_Nightcord at 25_00",
        "fortuneFilePath": "unsei_syoukichi",
        "omikujiCoverFilePath": "omikuji_Nightcord at 25_00"
    },
    {
        "id": 40,
        "omikujiGroupId": 1,
        "unit": "school_refusal",
        "fortuneType": "uncertain_luck",
        "summary": "時には気分を変えて\n外の世界に触れれば\n刺激を得られるでしょう",
        "title1": "願望",
        "description1": "思わず叶うでしょう",
        "title2": "健康",
        "description2": "概ね問題なし\n運動を心がけましょう",
        "title3": "待人",
        "description3": "たよりはないが来る",
        "unitAssetbundleName": "lottery_game/new_year_2022_material",
        "fortuneAssetbundleName": "lottery_game/new_year_2022_material",
        "omikujiCoverAssetbundleName": "lottery_game/new_year_2022_material",
        "unitFilePath": "bird_Nightcord at 25_00",
        "fortuneFilePath": "unsei_suekichi",
        "omikujiCoverFilePath": "omikuji_Nightcord at 25_00"
    },
    {
        "id": 41,
        "omikujiGroupId": 1,
        "unit": "school_refusal",
        "fortuneType": "misfortune",
        "summary": "進退の選択に迫られる\n心伴わずは選ばない\nことも一択",
        "title1": "願望",
        "description1": "思うように叶わないでしょう",
        "title2": "健康",
        "description2": "心労の兆しあり",
        "title3": "待人",
        "description3": "望めば来るでしょう",
        "unitAssetbundleName": "lottery_game/new_year_2022_material",
        "fortuneAssetbundleName": "lottery_game/new_year_2022_material",
        "omikujiCoverAssetbundleName": "lottery_game/new_year_2022_material",
        "unitFilePath": "bird_Nightcord at 25_00",
        "fortuneFilePath": "unsei_kyou",
        "omikujiCoverFilePath": "omikuji_Nightcord at 25_00"
    },
    {
        "id": 42,
        "omikujiGroupId": 1,
        "unit": "school_refusal",
        "fortuneType": "grate_misfortune",
        "summary": "迷いと向きあう年\n今一度己の心を\n見つめなおしましょう",
        "title1": "願望",
        "description1": "今はまだ叶わず\n絶えず行動すれば兆しあり",
        "title2": "健康",
        "description2": "運動不足になりがちでしょう",
        "title3": "待人",
        "description3": "来るでしょう",
        "unitAssetbundleName": "lottery_game/new_year_2022_material",
        "fortuneAssetbundleName": "lottery_game/new_year_2022_material",
        "omikujiCoverAssetbundleName": "lottery_game/new_year_2022_material",
        "unitFilePath": "bird_Nightcord at 25_00",
        "fortuneFilePath": "unsei_daikyou",
        "omikujiCoverFilePath": "omikuji_Nightcord at 25_00"
    }
]