[
    {
        "id": 1,
        "name": "プレシーズン",
        "startAt": 1648630800000,
        "aggregatedAt": 1650988799000,
        "rankingPublishedAt": 1650989399000,
        "batchExecutionAt": 1651035599000,
        "distributionStartAt": 1651039199000,
        "distributionEndAt": 1652626799000,
        "closedAt": 1651136399000,
        "assetbundleName": "preseason_001",
        "isDisplayResult": false,
        "rankMatchSeasonPlayableTimes": [
            {
                "id": 1,
                "rankMatchSeasonId": 1,
                "startTime": "18:00:00",
                "endTime": "00:59:59"
            }
        ],
        "rankMatchSeasonTierMusicPlayLevels": [],
        "rankMatchSeasonTierRewards": [
            {
                "id": 1,
                "rankMatchSeasonId": 1,
                "rankMatchTierId": 25,
                "resourceBoxId": 1
            },
            {
                "id": 2,
                "rankMatchSeasonId": 1,
                "rankMatchTierId": 24,
                "resourceBoxId": 2
            },
            {
                "id": 3,
                "rankMatchSeasonId": 1,
                "rankMatchTierId": 23,
                "resourceBoxId": 3
            },
            {
                "id": 4,
                "rankMatchSeasonId": 1,
                "rankMatchTierId": 22,
                "resourceBoxId": 4
            },
            {
                "id": 5,
                "rankMatchSeasonId": 1,
                "rankMatchTierId": 21,
                "resourceBoxId": 5
            },
            {
                "id": 6,
                "rankMatchSeasonId": 1,
                "rankMatchTierId": 20,
                "resourceBoxId": 6
            },
            {
                "id": 7,
                "rankMatchSeasonId": 1,
                "rankMatchTierId": 19,
                "resourceBoxId": 7
            },
            {
                "id": 8,
                "rankMatchSeasonId": 1,
                "rankMatchTierId": 18,
                "resourceBoxId": 8
            },
            {
                "id": 9,
                "rankMatchSeasonId": 1,
                "rankMatchTierId": 17,
                "resourceBoxId": 9
            },
            {
                "id": 10,
                "rankMatchSeasonId": 1,
                "rankMatchTierId": 16,
                "resourceBoxId": 10
            },
            {
                "id": 11,
                "rankMatchSeasonId": 1,
                "rankMatchTierId": 15,
                "resourceBoxId": 11
            },
            {
                "id": 12,
                "rankMatchSeasonId": 1,
                "rankMatchTierId": 14,
                "resourceBoxId": 12
            },
            {
                "id": 13,
                "rankMatchSeasonId": 1,
                "rankMatchTierId": 13,
                "resourceBoxId": 13
            },
            {
                "id": 14,
                "rankMatchSeasonId": 1,
                "rankMatchTierId": 12,
                "resourceBoxId": 14
            },
            {
                "id": 15,
                "rankMatchSeasonId": 1,
                "rankMatchTierId": 11,
                "resourceBoxId": 15
            },
            {
                "id": 16,
                "rankMatchSeasonId": 1,
                "rankMatchTierId": 10,
                "resourceBoxId": 16
            },
            {
                "id": 17,
                "rankMatchSeasonId": 1,
                "rankMatchTierId": 9,
                "resourceBoxId": 17
            },
            {
                "id": 18,
                "rankMatchSeasonId": 1,
                "rankMatchTierId": 8,
                "resourceBoxId": 18
            },
            {
                "id": 19,
                "rankMatchSeasonId": 1,
                "rankMatchTierId": 7,
                "resourceBoxId": 19
            },
            {
                "id": 20,
                "rankMatchSeasonId": 1,
                "rankMatchTierId": 6,
                "resourceBoxId": 20
            },
            {
                "id": 21,
                "rankMatchSeasonId": 1,
                "rankMatchTierId": 5,
                "resourceBoxId": 21
            },
            {
                "id": 22,
                "rankMatchSeasonId": 1,
                "rankMatchTierId": 4,
                "resourceBoxId": 22
            },
            {
                "id": 23,
                "rankMatchSeasonId": 1,
                "rankMatchTierId": 3,
                "resourceBoxId": 23
            },
            {
                "id": 24,
                "rankMatchSeasonId": 1,
                "rankMatchTierId": 2,
                "resourceBoxId": 24
            },
            {
                "id": 25,
                "rankMatchSeasonId": 1,
                "rankMatchTierId": 1,
                "resourceBoxId": 25
            }
        ]
    },
    {
        "id": 2,
        "name": "第2回プレシーズン",
        "startAt": 1651136400000,
        "aggregatedAt": 1653580799000,
        "rankingPublishedAt": 1653581399000,
        "batchExecutionAt": 1653627599000,
        "distributionStartAt": 1653631199000,
        "distributionEndAt": 1655305199000,
        "closedAt": 1654063199000,
        "assetbundleName": "preseason_002",
        "isDisplayResult": false,
        "rankMatchSeasonPlayableTimes": [
            {
                "id": 2,
                "rankMatchSeasonId": 2,
                "startTime": "04:00:00",
                "endTime": "03:59:59"
            }
        ],
        "rankMatchSeasonTierMusicPlayLevels": [],
        "rankMatchSeasonTierRewards": [
            {
                "id": 26,
                "rankMatchSeasonId": 2,
                "rankMatchTierId": 25,
                "resourceBoxId": 1
            },
            {
                "id": 27,
                "rankMatchSeasonId": 2,
                "rankMatchTierId": 24,
                "resourceBoxId": 2
            },
            {
                "id": 28,
                "rankMatchSeasonId": 2,
                "rankMatchTierId": 23,
                "resourceBoxId": 3
            },
            {
                "id": 29,
                "rankMatchSeasonId": 2,
                "rankMatchTierId": 22,
                "resourceBoxId": 4
            },
            {
                "id": 30,
                "rankMatchSeasonId": 2,
                "rankMatchTierId": 21,
                "resourceBoxId": 5
            },
            {
                "id": 31,
                "rankMatchSeasonId": 2,
                "rankMatchTierId": 20,
                "resourceBoxId": 6
            },
            {
                "id": 32,
                "rankMatchSeasonId": 2,
                "rankMatchTierId": 19,
                "resourceBoxId": 7
            },
            {
                "id": 33,
                "rankMatchSeasonId": 2,
                "rankMatchTierId": 18,
                "resourceBoxId": 8
            },
            {
                "id": 34,
                "rankMatchSeasonId": 2,
                "rankMatchTierId": 17,
                "resourceBoxId": 9
            },
            {
                "id": 35,
                "rankMatchSeasonId": 2,
                "rankMatchTierId": 16,
                "resourceBoxId": 10
            },
            {
                "id": 36,
                "rankMatchSeasonId": 2,
                "rankMatchTierId": 15,
                "resourceBoxId": 11
            },
            {
                "id": 37,
                "rankMatchSeasonId": 2,
                "rankMatchTierId": 14,
                "resourceBoxId": 12
            },
            {
                "id": 38,
                "rankMatchSeasonId": 2,
                "rankMatchTierId": 13,
                "resourceBoxId": 13
            },
            {
                "id": 39,
                "rankMatchSeasonId": 2,
                "rankMatchTierId": 12,
                "resourceBoxId": 14
            },
            {
                "id": 40,
                "rankMatchSeasonId": 2,
                "rankMatchTierId": 11,
                "resourceBoxId": 15
            },
            {
                "id": 41,
                "rankMatchSeasonId": 2,
                "rankMatchTierId": 10,
                "resourceBoxId": 16
            },
            {
                "id": 42,
                "rankMatchSeasonId": 2,
                "rankMatchTierId": 9,
                "resourceBoxId": 17
            },
            {
                "id": 43,
                "rankMatchSeasonId": 2,
                "rankMatchTierId": 8,
                "resourceBoxId": 18
            },
            {
                "id": 44,
                "rankMatchSeasonId": 2,
                "rankMatchTierId": 7,
                "resourceBoxId": 19
            },
            {
                "id": 45,
                "rankMatchSeasonId": 2,
                "rankMatchTierId": 6,
                "resourceBoxId": 20
            },
            {
                "id": 46,
                "rankMatchSeasonId": 2,
                "rankMatchTierId": 5,
                "resourceBoxId": 21
            },
            {
                "id": 47,
                "rankMatchSeasonId": 2,
                "rankMatchTierId": 4,
                "resourceBoxId": 22
            },
            {
                "id": 48,
                "rankMatchSeasonId": 2,
                "rankMatchTierId": 3,
                "resourceBoxId": 23
            },
            {
                "id": 49,
                "rankMatchSeasonId": 2,
                "rankMatchTierId": 2,
                "resourceBoxId": 24
            },
            {
                "id": 50,
                "rankMatchSeasonId": 2,
                "rankMatchTierId": 1,
                "resourceBoxId": 25
            }
        ]
    }
]