[
    {
        "id": 1,
        "specialSeasonId": 1,
        "areaId": 1,
        "assetbundleName": "bgm_area_aprilfool_2022",
        "fileName": "bgm_area_aprilfool_2022",
        "specialSeasonAreaUseType": "bgm"
    },
    {
        "id": 2,
        "specialSeasonId": 1,
        "areaId": 2,
        "assetbundleName": "bgm_area_aprilfool_2022",
        "fileName": "bgm_area_aprilfool_2022",
        "specialSeasonAreaUseType": "bgm"
    },
    {
        "id": 3,
        "specialSeasonId": 1,
        "areaId": 3,
        "assetbundleName": "bgm_area_aprilfool_2022",
        "fileName": "bgm_area_aprilfool_2022",
        "specialSeasonAreaUseType": "bgm"
    },
    {
        "id": 4,
        "specialSeasonId": 1,
        "areaId": 4,
        "assetbundleName": "bgm_area_aprilfool_2022",
        "fileName": "bgm_area_aprilfool_2022",
        "specialSeasonAreaUseType": "bgm"
    },
    {
        "id": 5,
        "specialSeasonId": 1,
        "areaId": 11,
        "assetbundleName": "bgm_area_aprilfool_2022",
        "fileName": "bgm_area_aprilfool_2022",
        "specialSeasonAreaUseType": "bgm"
    },
    {
        "id": 6,
        "specialSeasonId": 1,
        "areaId": 12,
        "assetbundleName": "bgm_area_aprilfool_2022",
        "fileName": "bgm_area_aprilfool_2022",
        "specialSeasonAreaUseType": "bgm"
    },
    {
        "id": 7,
        "specialSeasonId": 1,
        "areaId": 13,
        "assetbundleName": "bgm_area_aprilfool_2022",
        "fileName": "bgm_area_aprilfool_2022",
        "specialSeasonAreaUseType": "bgm"
    },
    {
        "id": 8,
        "specialSeasonId": 1,
        "areaId": 1,
        "assetbundleName": "area1_af",
        "fileName": "area1_af",
        "specialSeasonAreaUseType": "area"
    },
    {
        "id": 9,
        "specialSeasonId": 1,
        "areaId": 2,
        "assetbundleName": "area2_af",
        "fileName": "area2_af",
        "specialSeasonAreaUseType": "area"
    },
    {
        "id": 10,
        "specialSeasonId": 1,
        "areaId": 3,
        "assetbundleName": "area3_af",
        "fileName": "area3_af",
        "specialSeasonAreaUseType": "area"
    },
    {
        "id": 11,
        "specialSeasonId": 1,
        "areaId": 4,
        "assetbundleName": "area4_af",
        "fileName": "area4_af",
        "specialSeasonAreaUseType": "area"
    },
    {
        "id": 12,
        "specialSeasonId": 1,
        "areaId": 11,
        "assetbundleName": "area11_af",
        "fileName": "area11_af",
        "specialSeasonAreaUseType": "area"
    },
    {
        "id": 13,
        "specialSeasonId": 1,
        "areaId": 12,
        "assetbundleName": "area12_af",
        "fileName": "area12_af",
        "specialSeasonAreaUseType": "area"
    },
    {
        "id": 14,
        "specialSeasonId": 1,
        "areaId": 13,
        "assetbundleName": "area13_af",
        "fileName": "area13_af",
        "specialSeasonAreaUseType": "area"
    }
]