[
    {
        "id": 2,
        "title": "ライブミッションパス",
        "description": "「プレミアムミッションパス」を買うと\nライブミッションでより豪華な報酬を獲得できます。",
        "fromUserRank": 1,
        "toUserRank": 999
    },
    {
        "id": 3,
        "title": "カラフルパス",
        "description": "「カラフルパス」を買うと\nライブミッションに必要なライブPを2倍獲得できます。",
        "fromUserRank": 1,
        "toUserRank": 999
    },
    {
        "id": 4,
        "title": "カラフルパス",
        "description": "「カラフルパス」を買うと\nチャレンジライブでチャレンジPを2倍獲得できます。",
        "fromUserRank": 1,
        "toUserRank": 999
    },
    {
        "id": 7,
        "title": "各セカイのバーチャル・シンガーって？",
        "description": "ミクたちはセカイによって姿が変わり、\n\"本当の想い\"を見つけるサポートをしてくれます。",
        "fromUserRank": 1,
        "toUserRank": 100
    },
    {
        "id": 9,
        "title": "セカイはどうやってうまれたの？",
        "description": "「セカイ」は\n誰かの”本当の想い”から生まれた不思議な場所です。",
        "fromUserRank": 1,
        "toUserRank": 100
    },
    {
        "id": 13,
        "title": "Untitledって？",
        "description": "「Untitled」はメロディも歌詞もない\nセカイへと繋がる無音の楽曲です。",
        "fromUserRank": 1,
        "toUserRank": 100
    },
    {
        "id": 16,
        "title": "練習スコアの使い方＆入手方法①",
        "description": "「練習」では\nメンバーのレベルアップができます。",
        "fromUserRank": 1,
        "toUserRank": 20
    },
    {
        "id": 17,
        "title": "ミュージックカードの使い方＆入手方法",
        "description": "「音楽ショップ」では\nライブで遊ぶ楽曲を交換できます。",
        "fromUserRank": 1,
        "toUserRank": 20
    },
    {
        "id": 18,
        "title": "ミュージックカードの使い方＆入手方法",
        "description": "楽曲の交換に使う「ミュージックカード」は\nストーリーやミッションクリアで獲得できます。",
        "fromUserRank": 1,
        "toUserRank": 30
    },
    {
        "id": 19,
        "title": "ミラクルジェムの使い方＆入手方法",
        "description": "★3、★4メンバーは「特訓」ができ\nパラメータと上限Lv.が上昇します。",
        "fromUserRank": 1,
        "toUserRank": 20
    },
    {
        "id": 21,
        "title": "衣装素材の使い方＆入手方法",
        "description": "ショッピングモールの「衣装ショップ」では\nキャラクターのライブ衣装を製作できます。",
        "fromUserRank": 1,
        "toUserRank": 20
    },
    {
        "id": 22,
        "title": "ライブボーナスは0～5個使える",
        "description": "「ライブボーナス」は最大5個まで使えます。\nイベント期間中は最大10個になります。",
        "fromUserRank": 1,
        "toUserRank": 30
    },
    {
        "id": 23,
        "title": "ライブボーナスは0～5個使える",
        "description": "「ライブボーナス」は30分で1個回復します。",
        "fromUserRank": 1,
        "toUserRank": 20
    },
    {
        "id": 25,
        "title": "リズムゲームの設定はオプションから調整できるよ",
        "description": "「ノーツの速さ」は\nオプションからいつでも変えられます。",
        "fromUserRank": 1,
        "toUserRank": 20
    },
    {
        "id": 26,
        "title": "キャラクターの情報はプロフィールで確認できるよ",
        "description": "「キャラクタープロフィール」では\nキャラクターの自己紹介を見ることができます。",
        "fromUserRank": 1,
        "toUserRank": 20
    },
    {
        "id": 29,
        "title": "デッキのミク表示について",
        "description": "3DMVに表示するミクは\n「ライブ衣装」から固定にすることができます。",
        "fromUserRank": 1,
        "toUserRank": 50
    },
    {
        "id": 32,
        "title": "アバター衣装の入手方法",
        "description": "バーチャルライブ用のアバター衣装は\n待合エリアの「バーチャルショップ」で交換できます。",
        "fromUserRank": 10,
        "toUserRank": 30
    },
    {
        "id": 33,
        "title": "バーチャルコインの入手方法",
        "description": "「バーチャルコイン」は\nログインボーナスやイベントなどで獲得できます。",
        "fromUserRank": 10,
        "toUserRank": 30
    },
    {
        "id": 34,
        "title": "バーチャルライブの報酬",
        "description": "「バーチャルライブ」は\n誕生日やイベント後など特別な日に開催されます。",
        "fromUserRank": 10,
        "toUserRank": 30
    },
    {
        "id": 35,
        "title": "バーチャルライブの報酬",
        "description": "「バーチャルライブ」を初めて観ると\nクリスタルを獲得できます。",
        "fromUserRank": 10,
        "toUserRank": 30
    },
    {
        "id": 36,
        "title": "衣装変更",
        "description": "「ライブ衣装」ではライブ中の\nキャラクターの衣装を自由に変更できます。",
        "fromUserRank": 10,
        "toUserRank": 30
    },
    {
        "id": 37,
        "title": "ひとりでライブのスキル発動",
        "description": "「ひとりでライブ」ではメンバーが1回ずつ\nスキルを発動し、リーダーだけ2回発動します。",
        "fromUserRank": 10,
        "toUserRank": 30
    },
    {
        "id": 39,
        "title": "みんなでライブのスキル発動①",
        "description": "「みんなでライブ」では最も活躍したプレイヤーが\n最後のスキルを発動します。",
        "fromUserRank": 10,
        "toUserRank": 30
    },
    {
        "id": 41,
        "title": "応援Pの使い方＆入手方法",
        "description": "バーチャルアイテムを使うと「応援P」を獲得でき\nライブ後に想いのカケラがもらえます。",
        "fromUserRank": 10,
        "toUserRank": 30
    },
    {
        "id": 47,
        "title": "MVPとSUPER STARとは",
        "description": "「みんなでライブ」でスコアが特出したプレイヤーは\n「SUPER STAR」になります。",
        "fromUserRank": 10,
        "toUserRank": 30
    },
    {
        "id": 48,
        "title": "みんなでライブの活躍中とは？",
        "description": "「みんなでライブ」でコンボを繋いで活躍すると\n全員にスコアボーナスがあります。",
        "fromUserRank": 10,
        "toUserRank": 30
    },
    {
        "id": 50,
        "title": "カードエピソードを読むとパラメータが上がる",
        "description": "メンバーの「サイドストーリー」を読むと\n総合力が上昇します。",
        "fromUserRank": 10,
        "toUserRank": 30
    },
    {
        "id": 51,
        "title": "チャレンジライブのメリット",
        "description": "「チャレンジライブ」でステージが上がると\nクリスタルやキャラクターEXPを獲得できます。",
        "fromUserRank": 5,
        "toUserRank": 35
    },
    {
        "id": 53,
        "title": "チャレンジライブのメリット",
        "description": "「チャレンジライブ」で一定のハイスコアを超えると\nクリスタルを獲得できます。",
        "fromUserRank": 5,
        "toUserRank": 35
    },
    {
        "id": 54,
        "title": "エリアアイテムの基本効果について",
        "description": "「エリアアイテム」はメンバーやユニットの\n総合力を上昇させることができます。",
        "fromUserRank": 15,
        "toUserRank": 35
    },
    {
        "id": 55,
        "title": "エリアアイテムの基本効果について",
        "description": "「エリアアイテム」は所持しているだけで\n常に効果を発揮します。",
        "fromUserRank": 15,
        "toUserRank": 35
    },
    {
        "id": 60,
        "title": "★4カードゲットすると衣装レシピが解放される",
        "description": "衣装付き★4メンバーをお迎えすると\n特別な衣装を獲得でき、衣装ショップにも入荷します。",
        "fromUserRank": 25,
        "toUserRank": 50
    },
    {
        "id": 62,
        "title": "想いの結晶の使い方＆入手方法",
        "description": "マスタートレーニングやスキルアップには\n「想いの純結晶」「想いのカケラ」が必要です。",
        "fromUserRank": 25,
        "toUserRank": 50
    },
    {
        "id": 63,
        "title": "想いの結晶の使い方＆入手方法",
        "description": "「想いの純結晶」は控え室から\n★4メンバーと交換して獲得できます。",
        "fromUserRank": 25,
        "toUserRank": 50
    },
    {
        "id": 64,
        "title": "想いの結晶の使い方＆入手方法",
        "description": "「想いのカケラ」は控え室で\n★2、★3、バースデーメンバーを交換して獲得できます。",
        "fromUserRank": 25,
        "toUserRank": 50
    },
    {
        "id": 66,
        "title": "バーチャルライブのアバターの肌色、スキン、アクセサリ設定",
        "description": "「バーチャルライブアバター」から\n自分の見た目やカラーを変更できます。",
        "fromUserRank": 25,
        "toUserRank": 50
    },
    {
        "id": 67,
        "title": "キャラクターランクの上げ方＆報酬",
        "description": "「キャラクターランク」が上がると\nボーカルカードなどの特別な報酬を獲得できます。",
        "fromUserRank": 30,
        "toUserRank": 60
    },
    {
        "id": 68,
        "title": "キャラクターランクの上げ方＆報酬",
        "description": "「キャラクターランク」に応じて\nキャラクターの総合力にボーナスが発生します。",
        "fromUserRank": 30,
        "toUserRank": 60
    },
    {
        "id": 69,
        "title": "キャラクターランクの上げ方＆報酬",
        "description": "「キャラクターランクEXP」はチャレンジライブや\nキャラクターミッションなどで獲得できます。",
        "fromUserRank": 30,
        "toUserRank": 60
    },
    {
        "id": 70,
        "title": "称号の獲得方法",
        "description": "様々なミッションをクリアすることで\n「称号」を獲得することができます。",
        "fromUserRank": 30,
        "toUserRank": 60
    },
    {
        "id": 71,
        "title": "称号の獲得方法",
        "description": "総合力を上げる「称号」は\n自分に付けていなくても効果を発揮します。",
        "fromUserRank": 30,
        "toUserRank": 60
    },
    {
        "id": 72,
        "title": "ライブミッションのライブポイントはリセットされる",
        "description": "「ライブミッション」は\n毎月1日0時に新しく切り替わります。",
        "fromUserRank": 30,
        "toUserRank": 60
    },
    {
        "id": 74,
        "title": "すべてのエリアボーナスは持ち物画面から確認できる",
        "description": "所持している「エリアアイテム」の合計効果は\n「持ち物」より確認できます。",
        "fromUserRank": 30,
        "toUserRank": 60
    },
    {
        "id": 75,
        "title": "エリアアイテムの育て方＆メリット",
        "description": "「エリアアイテム」のレベルアップには\nピースやジェム、ふしぎな種などが必要です。",
        "fromUserRank": 30,
        "toUserRank": 60
    },
    {
        "id": 78,
        "title": "チャレンジライブの枠解放方法について",
        "description": "「チャレンジライブ」の編成メンバー数は\n「キャラクターランク」に応じて増えます。",
        "fromUserRank": 5,
        "toUserRank": 60
    },
    {
        "id": 79,
        "title": "マスターランクあがるとパラメーターあがる",
        "description": "「マスターランク」が上がると総合力が上昇します。",
        "fromUserRank": 30,
        "toUserRank": 60
    },
    {
        "id": 80,
        "title": "マスターランクあがるとパラメーターあがる",
        "description": "衣装付き★4メンバーの「マスターランク」を上げると\nアナザーカラーの衣装を獲得できます。",
        "fromUserRank": 30,
        "toUserRank": 60
    },
    {
        "id": 82,
        "title": "楽曲のアナザーverの購入",
        "description": "一部の楽曲には別のキャラクターが歌う\n「アナザーボーカルver.」が存在します。",
        "fromUserRank": 60,
        "toUserRank": 100
    },
    {
        "id": 83,
        "title": "楽曲のアナザーverの購入",
        "description": "音楽ショップの「アナザーボーカルショップ」で\n「アナザーボーカルver.」を手に入れられます。",
        "fromUserRank": 60,
        "toUserRank": 100
    },
    {
        "id": 84,
        "title": "楽曲のアナザーverの購入",
        "description": "「アナザーボーカルショップ」で使うボーカルカードは\nキャラクターランクアップで手に入ります。",
        "fromUserRank": 60,
        "toUserRank": 100
    },
    {
        "id": 85,
        "title": "称号の外見が進化できる",
        "description": "「称号」にはレアリティとランクがあり、\n見た目が変わるものもあります。",
        "fromUserRank": 60,
        "toUserRank": 100
    },
    {
        "id": 87,
        "title": "みんなでライブの報酬について１",
        "description": "「みんなでライブ」では\n獲得できる報酬が大きく増えます。",
        "fromUserRank": 1,
        "toUserRank": 20
    },
    {
        "id": 88,
        "title": "スタンプの入手方法",
        "description": "「スタンプショップ」ではスタンプ交換券で\n好きなスタンプと交換できます。",
        "fromUserRank": 1,
        "toUserRank": 20
    },
    {
        "id": 89,
        "title": "スタンプ交換券の入手方法",
        "description": "「スタンプ交換券」はイベントや\nキャラクターランクアップなどで獲得できます。",
        "fromUserRank": 1,
        "toUserRank": 20
    },
    {
        "id": 90,
        "title": "バーチャルライブ_待機エリアについて１",
        "description": "バーチャルライブの「待合エリア」では\n開演を待ちながら他のプレイヤーと交流できます。",
        "fromUserRank": 10,
        "toUserRank": 50
    },
    {
        "id": 91,
        "title": "バーチャルライブ_待機エリアについて２",
        "description": "待合エリアの「バーチャルショップ」では\nアバター衣装やアクセサリなどを交換できます。",
        "fromUserRank": 10,
        "toUserRank": 999
    },
    {
        "id": 93,
        "title": "ボーカル変更",
        "description": "ライブ開始前に「ボーカル変更」をすることで\n好きなver.の歌に変えることができます。",
        "fromUserRank": 1,
        "toUserRank": 50
    },
    {
        "id": 94,
        "title": "スタンプのお気に入り設定",
        "description": "「お気に入りスタンプ設定」で\nよく使うスタンプをお気に入りに設定できます。",
        "fromUserRank": 1,
        "toUserRank": 20
    },
    {
        "id": 95,
        "title": "スコアの上げ方１",
        "description": "ライブのスコアは\n総合力を上げることで上昇します。",
        "fromUserRank": 1,
        "toUserRank": 20
    },
    {
        "id": 96,
        "title": "スコアの上げ方２",
        "description": "コンボを繋げるほど獲得スコアが上昇していきます。",
        "fromUserRank": 1,
        "toUserRank": 20
    },
    {
        "id": 97,
        "title": "練習用スコアの入手方法",
        "description": "メンバーのレベルアップに使う「練習用スコア」は\n主にライブのクリア報酬で獲得できます。",
        "fromUserRank": 1,
        "toUserRank": 20
    },
    {
        "id": 98,
        "title": "MV視聴について",
        "description": "「MV視聴」では3DMV付きの楽曲の\nミュージックビデオを観ることができます。",
        "fromUserRank": 1,
        "toUserRank": 20
    },
    {
        "id": 99,
        "title": "機能解放①",
        "description": "プレイヤーランクが5に到達すると\n「チャレンジライブ」機能が解放されます。",
        "fromUserRank": 1,
        "toUserRank": 4
    },
    {
        "id": 100,
        "title": "機能解放③",
        "description": "プレイヤーランクが30に到達すると\n「スキルアップ」機能が解放されます。",
        "fromUserRank": 1,
        "toUserRank": 29
    },
    {
        "id": 101,
        "title": "オートライブ",
        "description": "「ひとりでライブ」では「AUTO」にすると\n自動でリズムゲームをプレイできます。",
        "fromUserRank": 1,
        "toUserRank": 50
    },
    {
        "id": 102,
        "title": "オートライブ",
        "description": "「オートライブ」は1日10回までできます。",
        "fromUserRank": 1,
        "toUserRank": 50
    },
    {
        "id": 103,
        "title": "イベントストーリー",
        "description": "「ストーリー」から、過去に開催された\nイベントのストーリーを読むことができます。",
        "fromUserRank": 20,
        "toUserRank": 50
    },
    {
        "id": 104,
        "title": "イベントストーリー",
        "description": "過去に開催されたアフターライブは、\nイベント最終話を読むと解放されます。",
        "fromUserRank": 20,
        "toUserRank": 50
    },
    {
        "id": 105,
        "title": "チャレンジライブのEXステージ",
        "description": "「チャレンジライブ」のステージが100に到達すると、\nEXステージになります。",
        "fromUserRank": 250,
        "toUserRank": 999
    },
    {
        "id": 106,
        "title": "チャレンジライブのEXステージ",
        "description": "「チャレンジライブ」のEXステージ以降は、\nステージが上がる毎にクリスタルを獲得できます。",
        "fromUserRank": 250,
        "toUserRank": 999
    },
    {
        "id": 108,
        "title": "フレンド",
        "description": "フレンドになりたいプレイヤーのプロフィールと\nみんなでライブでフレンド申請することができます。",
        "fromUserRank": 1,
        "toUserRank": 200
    },
    {
        "id": 109,
        "title": "楽曲のアナザーverの購入",
        "description": "「ボーカルカード交換所」では\nボーカルカードを交換することができます。",
        "fromUserRank": 30,
        "toUserRank": 999
    },
    {
        "id": 110,
        "title": "ヘアスタイル",
        "description": "「ヘアスタイル」は、「ヘアスタイル」付きメンバーの\n「マスターランク」を2に上げると入手できます。",
        "fromUserRank": 30,
        "toUserRank": 999
    },
    {
        "id": 111,
        "title": "ヘアスタイル",
        "description": "「ヘアスタイル」は「ライブ衣装」より\n設定することができます。",
        "fromUserRank": 30,
        "toUserRank": 999
    },
    {
        "id": 112,
        "title": "チャレンジスタンプ",
        "description": "チャレンジライブを1回クリアする毎に\nスタンプが押されます。",
        "fromUserRank": 5,
        "toUserRank": 999
    },
    {
        "id": 113,
        "title": "チャレンジスタンプ",
        "description": "チャレンジライブ7日目の「チャレンジスタンプ」報酬\nでは、豪華報酬から1つ選んでアイテムを獲得できます。",
        "fromUserRank": 5,
        "toUserRank": 999
    },
    {
        "id": 114,
        "title": "試着モード",
        "description": "「ライブ衣装」「衣装ショップ」で\n試着モードをONにすると、手に入れていない\nライブ衣装やアナザーカラーも試着できます。",
        "fromUserRank": 1,
        "toUserRank": 999
    },
    {
        "id": 115,
        "title": "プロフィール",
        "description": "「カスタムプロフィール」では素材を編集してオリジナルのプロフィールを作成できます。",
        "fromUserRank": 1,
        "toUserRank": 999
    },
    {
        "id": 116,
        "title": "バースデーメンバー",
        "description": "バースデーメンバーは\n「バースデー」レアリティを持つ特別なメンバーです。",
        "fromUserRank": 1,
        "toUserRank": 999
    },
    {
        "id": 117,
        "title": "メンバー交換所",
        "description": "「メンバー交換所」では\n過去に登場した恒常メンバーを交換できます。",
        "fromUserRank": 1,
        "toUserRank": 999
    },
    {
        "id": 118,
        "title": "イベントボーナス",
        "description": "マスターランクが上がると\nイベントボーナスが加算されます。",
        "fromUserRank": 1,
        "toUserRank": 999
    },
    {
        "id": 119,
        "title": "キズナランク",
        "description": "「キズナランク」を上げると\nキャラクター同士の特別な称号や報酬が獲得できます。",
        "fromUserRank": 1,
        "toUserRank": 999
    },
    {
        "id": 120,
        "title": "キズナランク",
        "description": "「キズナEXP」は、ライブをすることでユニット編成内の\nリーダーと他4人のメンバーとの間のEXPが獲得できます。",
        "fromUserRank": 1,
        "toUserRank": 999
    },
    {
        "id": 121,
        "title": "フレンド",
        "description": "フレンドは「みんなでライブ」「バーチャルライブ」の\nプライベートルームに招待することができます。",
        "fromUserRank": 1,
        "toUserRank": 999
    },
    {
        "id": 122,
        "title": "オートライブ",
        "description": "「オートライブ設定」で、ライブボーナスを自動で回復し\n連続でオートライブをプレイする設定にできます。",
        "fromUserRank": 1,
        "toUserRank": 999
    },
    {
        "id": 123,
        "title": "ランクマッチ",
        "description": "「ランクマッチ」はプレイヤー同士で\n腕前を競うシーズン制の1vs1ライブです。",
        "fromUserRank": 1,
        "toUserRank": 999
    },
    {
        "id": 124,
        "title": "ランクマッチ",
        "description": "「ランクマッチ」はプレイヤーランク50、\nEXPERT以上の楽曲フルコンボ数が10になると解放されます。",
        "fromUserRank": 1,
        "toUserRank": 999
    },
    {
        "id": 125,
        "title": "想いの結晶の使い方＆入手方法",
        "description": "「想いの純結晶」は「想いのカケラ・純結晶交換所」で\n「想いのカケラ」に交換できます。",
        "fromUserRank": 1,
        "toUserRank": 999
    },
    {
        "id": 1001,
        "title": "取り柄",
        "assetbundleName": "comic_0001",
        "fromUserRank": 1,
        "toUserRank": 999
    },
    {
        "id": 1002,
        "title": "クール系とギャル系？",
        "assetbundleName": "comic_0002",
        "fromUserRank": 1,
        "toUserRank": 999
    },
    {
        "id": 1003,
        "title": "病院のおばあちゃんから教わった",
        "assetbundleName": "comic_0003",
        "fromUserRank": 1,
        "toUserRank": 999
    },
    {
        "id": 1004,
        "title": "同い年なのに…",
        "assetbundleName": "comic_0004",
        "fromUserRank": 1,
        "toUserRank": 999
    },
    {
        "id": 1005,
        "title": "一緒に食べよ！",
        "assetbundleName": "comic_0005",
        "fromUserRank": 1,
        "toUserRank": 999
    },
    {
        "id": 1006,
        "title": "教室のセカイ",
        "assetbundleName": "comic_0006",
        "fromUserRank": 1,
        "toUserRank": 999
    },
    {
        "id": 1007,
        "title": "練習熱心",
        "assetbundleName": "comic_0007",
        "fromUserRank": 1,
        "toUserRank": 999
    },
    {
        "id": 1008,
        "title": "みんなでカラオケ",
        "assetbundleName": "comic_0008",
        "fromUserRank": 1,
        "toUserRank": 999
    },
    {
        "id": 1009,
        "title": "夢は完全南極",
        "assetbundleName": "comic_0009",
        "fromUserRank": 1,
        "toUserRank": 999
    },
    {
        "id": 1010,
        "title": "猫好き",
        "assetbundleName": "comic_0010",
        "fromUserRank": 1,
        "toUserRank": 999
    },
    {
        "id": 1011,
        "title": "美しく",
        "assetbundleName": "comic_0011",
        "fromUserRank": 1,
        "toUserRank": 999
    },
    {
        "id": 1012,
        "title": "ステージのセカイ",
        "assetbundleName": "comic_0012",
        "fromUserRank": 1,
        "toUserRank": 999
    },
    {
        "id": 1013,
        "title": "最高のコンビ！",
        "assetbundleName": "comic_0013",
        "fromUserRank": 1,
        "toUserRank": 999
    },
    {
        "id": 1014,
        "title": "獣のオーラ",
        "assetbundleName": "comic_0014",
        "fromUserRank": 1,
        "toUserRank": 999
    },
    {
        "id": 1015,
        "title": "風紀委員はガラじゃない",
        "assetbundleName": "comic_0015",
        "fromUserRank": 1,
        "toUserRank": 999
    },
    {
        "id": 1016,
        "title": "優男モード",
        "assetbundleName": "comic_0016",
        "fromUserRank": 1,
        "toUserRank": 999
    },
    {
        "id": 1017,
        "title": "口下手なふたり",
        "assetbundleName": "comic_0017",
        "fromUserRank": 1,
        "toUserRank": 999
    },
    {
        "id": 1018,
        "title": "ストリートのセカイ",
        "assetbundleName": "comic_0018",
        "fromUserRank": 1,
        "toUserRank": 999
    },
    {
        "id": 1019,
        "title": "不死鳥戦隊ワンダレンジャー！",
        "assetbundleName": "comic_0019",
        "fromUserRank": 1,
        "toUserRank": 999
    },
    {
        "id": 1020,
        "title": "百のポーズを持つ男",
        "assetbundleName": "comic_0020",
        "fromUserRank": 1,
        "toUserRank": 999
    },
    {
        "id": 1021,
        "title": "一緒に遊んでたら",
        "assetbundleName": "comic_0021",
        "fromUserRank": 1,
        "toUserRank": 999
    },
    {
        "id": 1022,
        "title": "ゲームが得意",
        "assetbundleName": "comic_0022",
        "fromUserRank": 1,
        "toUserRank": 999
    },
    {
        "id": 1023,
        "title": "稀代の天才",
        "assetbundleName": "comic_0023",
        "fromUserRank": 1,
        "toUserRank": 999
    },
    {
        "id": 1024,
        "title": "ワンダーランドのセカイ",
        "assetbundleName": "comic_0024",
        "fromUserRank": 1,
        "toUserRank": 999
    },
    {
        "id": 1025,
        "title": "ニーゴのナイトコード",
        "assetbundleName": "comic_0025",
        "fromUserRank": 1,
        "toUserRank": 999
    },
    {
        "id": 1026,
        "title": "最強装備",
        "assetbundleName": "comic_0026",
        "fromUserRank": 1,
        "toUserRank": 999
    },
    {
        "id": 1027,
        "title": "魚のいない水槽",
        "assetbundleName": "comic_0027",
        "fromUserRank": 1,
        "toUserRank": 999
    },
    {
        "id": 1028,
        "title": "最大のライバル？",
        "assetbundleName": "comic_0028",
        "fromUserRank": 1,
        "toUserRank": 999
    },
    {
        "id": 1029,
        "title": "かわいいは正義！",
        "assetbundleName": "comic_0029",
        "fromUserRank": 1,
        "toUserRank": 999
    },
    {
        "id": 1030,
        "title": "誰もいないセカイ",
        "assetbundleName": "comic_0030",
        "fromUserRank": 1,
        "toUserRank": 999
    },
    {
        "id": 1031,
        "title": "バーチャル・シンガーとは",
        "assetbundleName": "comic_0031",
        "fromUserRank": 1,
        "toUserRank": 999
    },
    {
        "id": 1032,
        "title": "猫かわいがりの姉",
        "assetbundleName": "comic_0032",
        "fromUserRank": 1,
        "toUserRank": 999
    },
    {
        "id": 1033,
        "title": "病床の中学校時代",
        "assetbundleName": "comic_0033",
        "fromUserRank": 1,
        "toUserRank": 999
    },
    {
        "id": 1034,
        "title": "姉と弟",
        "assetbundleName": "comic_0034",
        "fromUserRank": 1,
        "toUserRank": 999
    },
    {
        "id": 1035,
        "title": "友達のお兄さん",
        "assetbundleName": "comic_0035",
        "fromUserRank": 1,
        "toUserRank": 999
    },
    {
        "id": 1036,
        "title": "親友でライバル",
        "assetbundleName": "comic_0036",
        "fromUserRank": 1,
        "toUserRank": 999
    },
    {
        "id": 1037,
        "title": "中学校からの友達",
        "assetbundleName": "comic_0037",
        "fromUserRank": 1,
        "toUserRank": 999
    },
    {
        "id": 1038,
        "title": "調理実習",
        "assetbundleName": "comic_0038",
        "fromUserRank": 1,
        "toUserRank": 999
    },
    {
        "id": 1039,
        "title": "PWLキャストは大忙し",
        "assetbundleName": "comic_0039",
        "fromUserRank": 1,
        "toUserRank": 999
    },
    {
        "id": 1040,
        "title": "機械オンチ",
        "assetbundleName": "comic_0040",
        "fromUserRank": 1,
        "toUserRank": 999
    }
]