[
    {
        "id": 1,
        "displayLimit": 10
    },
    {
        "id": 2,
        "displayLimit": 4
    },
    {
        "id": 3,
        "displayLimit": 4
    },
    {
        "id": 4,
        "displayLimit": 2
    }
]